<svg width="748" height="43" viewBox="0 0 748 43" fill="none" xmlns="http://www.w3.org/2000/svg">
<path d="M17.9127 41.275L16.9884 41.6565L17.2436 42.275H17.9127V41.275ZM23.9077 41.275V42.275H24.5777L24.8325 41.6554L23.9077 41.275ZM39.8577 2.5L40.7825 2.88042L41.3504 1.5H39.8577V2.5ZM32.5427 2.5V1.5H31.8596L31.6112 2.13638L32.5427 2.5ZM20.9927 32.09L20.0618 32.4551L20.9949 34.8345L21.9243 32.4536L20.9927 32.09ZM9.38772 2.5L10.3187 2.13488L10.0697 1.5H9.38772V2.5ZM1.90772 2.5V1.5H0.413116L0.983369 2.88154L1.90772 2.5ZM17.9127 42.275H23.9077V40.275H17.9127V42.275ZM24.8325 41.6554L40.7825 2.88042L38.9329 2.11958L22.9829 40.8946L24.8325 41.6554ZM39.8577 1.5H32.5427V3.5H39.8577V1.5ZM31.6112 2.13638L20.0612 31.7264L21.9243 32.4536L33.4743 2.86361L31.6112 2.13638ZM21.9237 31.7249L10.3187 2.13488L8.45676 2.86511L20.0618 32.4551L21.9237 31.7249ZM9.38772 1.5H1.90772V3.5H9.38772V1.5ZM0.983369 2.88154L16.9884 41.6565L18.8371 40.8935L2.83207 2.11846L0.983369 2.88154ZM47.3927 41H46.3927V42H47.3927V41ZM54.1577 41V42H55.1577V41H54.1577ZM54.1577 2.5H55.1577V1.5H54.1577V2.5ZM47.3927 2.5V1.5H46.3927V2.5H47.3927ZM47.3927 42H54.1577V40H47.3927V42ZM55.1577 41V2.5H53.1577V41H55.1577ZM54.1577 1.5H47.3927V3.5H54.1577V1.5ZM46.3927 2.5V41H48.3927V2.5H46.3927ZM65.0138 41H64.0138V42H65.0138V41ZM71.6688 41V42H72.6688V41H71.6688ZM71.6688 13.61L72.4592 12.9974L70.6688 10.6875V13.61H71.6688ZM92.8988 41L92.1084 41.6126L92.4087 42H92.8988V41ZM98.5638 41V42H99.5638V41H98.5638ZM98.5638 2.5H99.5638V1.5H98.5638V2.5ZM91.9088 2.5V1.5H90.9088V2.5H91.9088ZM91.9088 29.12L91.1183 29.7325L92.9088 32.0434V29.12H91.9088ZM71.2838 2.5L72.0743 1.88753L71.774 1.5H71.2838V2.5ZM65.0138 2.5V1.5H64.0138V2.5H65.0138ZM65.0138 42H71.6688V40H65.0138V42ZM72.6688 41V13.61H70.6688V41H72.6688ZM70.8784 14.2226L92.1084 41.6126L93.6891 40.3874L72.4592 12.9974L70.8784 14.2226ZM92.8988 42H98.5638V40H92.8988V42ZM99.5638 41V2.5H97.5638V41H99.5638ZM98.5638 1.5H91.9088V3.5H98.5638V1.5ZM90.9088 2.5V29.12H92.9088V2.5H90.9088ZM92.6993 28.5075L72.0743 1.88753L70.4933 3.11247L91.1183 29.7325L92.6993 28.5075ZM71.2838 1.5H65.0138V3.5H71.2838V1.5ZM64.0138 2.5V41H66.0138V2.5H64.0138ZM109.016 41H108.016V42H109.016V41ZM115.781 41V42H116.781V41H115.781ZM115.781 24.775V23.775H114.781V24.775H115.781ZM134.151 24.775H135.151V23.775H134.151V24.775ZM134.151 41H133.151V42H134.151V41ZM140.916 41V42H141.916V41H140.916ZM140.916 2.5H141.916V1.5H140.916V2.5ZM134.151 2.5V1.5H133.151V2.5H134.151ZM134.151 18.505V19.505H135.151V18.505H134.151ZM115.781 18.505H114.781V19.505H115.781V18.505ZM115.781 2.5H116.781V1.5H115.781V2.5ZM109.016 2.5V1.5H108.016V2.5H109.016ZM109.016 42H115.781V40H109.016V42ZM116.781 41V24.775H114.781V41H116.781ZM115.781 25.775H134.151V23.775H115.781V25.775ZM133.151 24.775V41H135.151V24.775H133.151ZM134.151 42H140.916V40H134.151V42ZM141.916 41V2.5H139.916V41H141.916ZM140.916 1.5H134.151V3.5H140.916V1.5ZM133.151 2.5V18.505H135.151V2.5H133.151ZM134.151 17.505H115.781V19.505H134.151V17.505ZM116.781 18.505V2.5H114.781V18.505H116.781ZM115.781 1.5H109.016V3.5H115.781V1.5ZM108.016 2.5V41H110.016V2.5H108.016ZM152.841 35.83L153.558 35.133L153.553 35.1281L152.841 35.83ZM181.826 35.775L182.538 36.4771L182.538 36.477L181.826 35.775ZM181.881 7.67L181.164 8.36695L181.169 8.37193L181.881 7.67ZM152.896 7.725L152.184 7.02293L152.184 7.023L152.896 7.725ZM176.766 31.43L177.496 32.1139L177.496 32.1134L176.766 31.43ZM158.011 31.375L158.748 30.6986L158.741 30.6909L158.733 30.6834L158.011 31.375ZM157.956 12.015L157.227 11.3311L157.226 11.3316L157.956 12.015ZM176.711 12.07L175.974 12.7464L175.982 12.7539L176.711 12.07ZM152.124 36.5269C156.125 40.6438 161.232 42.66 167.306 42.66V40.66C161.72 40.66 157.147 38.8262 153.558 35.1331L152.124 36.5269ZM167.306 42.66C173.389 42.66 178.49 40.5832 182.538 36.4771L181.114 35.0729C177.462 38.7768 172.884 40.66 167.306 40.66V42.66ZM182.538 36.477C186.524 32.4337 188.491 27.5039 188.491 21.75H186.491C186.491 26.9961 184.718 31.4163 181.114 35.073L182.538 36.477ZM188.491 21.75V21.64H186.491V21.75H188.491ZM188.491 21.64C188.491 15.8883 186.525 10.9578 182.593 6.96807L181.169 8.37193C184.717 11.9722 186.491 16.3917 186.491 21.64H188.491ZM182.598 6.97307C178.597 2.85617 173.49 0.839999 167.416 0.839999V2.84C173.002 2.84 177.575 4.67383 181.164 8.36693L182.598 6.97307ZM167.416 0.839999C161.334 0.839999 156.232 2.91678 152.184 7.02293L153.608 8.42707C157.26 4.72322 161.839 2.84 167.416 2.84V0.839999ZM152.184 7.023C148.198 11.0663 146.231 15.9961 146.231 21.75H148.231C148.231 16.5039 150.004 12.0837 153.608 8.427L152.184 7.023ZM146.231 21.75V21.86H148.231V21.75H146.231ZM146.231 21.86C146.231 27.6117 148.197 32.5422 152.129 36.5319L153.553 35.1281C150.005 31.5278 148.231 27.1083 148.231 21.86H146.231ZM176.036 30.7461C173.758 33.1769 170.945 34.39 167.416 34.39V36.39C171.477 36.39 174.824 34.9631 177.496 32.1139L176.036 30.7461ZM167.416 34.39C163.884 34.39 161.022 33.175 158.748 30.6986L157.275 32.0514C159.95 34.965 163.358 36.39 167.416 36.39V34.39ZM158.733 30.6834C156.454 28.3032 155.326 25.3143 155.326 21.75H153.326C153.326 25.7757 154.618 29.2768 157.289 32.0666L158.733 30.6834ZM155.326 21.75V21.64H153.326V21.75H155.326ZM155.326 21.64C155.326 18.0746 156.455 15.0812 158.686 12.6984L157.226 11.3316C154.617 14.1188 153.326 17.6154 153.326 21.64H155.326ZM158.686 12.6989C160.964 10.2681 163.777 9.055 167.306 9.055V7.055C163.245 7.055 159.898 8.4819 157.227 11.3311L158.686 12.6989ZM167.306 9.055C170.838 9.055 173.7 10.27 175.975 12.7464L177.448 11.3936C174.772 8.47997 171.364 7.055 167.306 7.055V9.055ZM175.982 12.7539C178.269 15.1937 179.396 18.1878 179.396 21.75H181.396C181.396 17.7222 180.103 14.2263 177.441 11.3861L175.982 12.7539ZM179.396 21.75V21.86H181.396V21.75H179.396ZM179.396 21.86C179.396 25.4211 178.269 28.3609 176.036 30.7466L177.496 32.1134C180.103 29.3291 181.396 25.8889 181.396 21.86H179.396ZM196.215 41H195.215V42H196.215V41ZM202.87 41V42H203.87V41H202.87ZM202.87 13.5L203.701 12.9447L201.87 10.2014V13.5H202.87ZM214.915 31.54L214.083 32.0953L214.38 32.54H214.915V31.54ZM215.135 31.54V32.54H215.668L215.965 32.0964L215.135 31.54ZM227.29 13.39H228.29V10.0997L226.459 12.8336L227.29 13.39ZM227.29 41H226.29V42H227.29V41ZM234.055 41V42H235.055V41H234.055ZM234.055 2.5H235.055V1.5H234.055V2.5ZM226.85 2.5V1.5H226.304L226.009 1.95885L226.85 2.5ZM215.135 20.705L214.294 21.2461L215.135 22.5529L215.975 21.2461L215.135 20.705ZM203.42 2.5L204.26 1.95885L203.965 1.5H203.42V2.5ZM196.215 2.5V1.5H195.215V2.5H196.215ZM196.215 42H202.87V40H196.215V42ZM203.87 41V13.5H201.87V41H203.87ZM202.038 14.0553L214.083 32.0953L215.746 30.9847L203.701 12.9447L202.038 14.0553ZM214.915 32.54H215.135V30.54H214.915V32.54ZM215.965 32.0964L228.12 13.9464L226.459 12.8336L214.304 30.9836L215.965 32.0964ZM226.29 13.39V41H228.29V13.39H226.29ZM227.29 42H234.055V40H227.29V42ZM235.055 41V2.5H233.055V41H235.055ZM234.055 1.5H226.85V3.5H234.055V1.5ZM226.009 1.95885L214.294 20.1639L215.975 21.2461L227.69 3.04114L226.009 1.95885ZM215.975 20.1639L204.26 1.95885L202.579 3.04114L214.294 21.2461L215.975 20.1639ZM203.42 1.5H196.215V3.5H203.42V1.5ZM195.215 2.5V41H197.215V2.5H195.215ZM244.514 41H243.514V42H244.514V41ZM273.334 41V42H274.334V41H273.334ZM273.334 34.95H274.334V33.95H273.334V34.95ZM251.279 34.95H250.279V35.95H251.279V34.95ZM251.279 24.61V23.61H250.279V24.61H251.279ZM270.584 24.61V25.61H271.584V24.61H270.584ZM270.584 18.56H271.584V17.56H270.584V18.56ZM251.279 18.56H250.279V19.56H251.279V18.56ZM251.279 8.55V7.55H250.279V8.55H251.279ZM273.059 8.55V9.55H274.059V8.55H273.059ZM273.059 2.5H274.059V1.5H273.059V2.5ZM244.514 2.5V1.5H243.514V2.5H244.514ZM244.514 42H273.334V40H244.514V42ZM274.334 41V34.95H272.334V41H274.334ZM273.334 33.95H251.279V35.95H273.334V33.95ZM252.279 34.95V24.61H250.279V34.95H252.279ZM251.279 25.61H270.584V23.61H251.279V25.61ZM271.584 24.61V18.56H269.584V24.61H271.584ZM270.584 17.56H251.279V19.56H270.584V17.56ZM252.279 18.56V8.55H250.279V18.56H252.279ZM251.279 9.55H273.059V7.55H251.279V9.55ZM274.059 8.55V2.5H272.059V8.55H274.059ZM273.059 1.5H244.514V3.5H273.059V1.5ZM243.514 2.5V41H245.514V2.5H243.514ZM279.324 35.39L278.559 34.7464L277.938 35.485L278.654 36.132L279.324 35.39ZM305.284 38.525L304.656 37.7473L304.649 37.7526L305.284 38.525ZM306.054 22.63L306.72 21.8837L306.706 21.8716L306.692 21.86L306.054 22.63ZM296.814 18.67L297.054 17.6991L297.047 17.6973L296.814 18.67ZM289.444 16.085L288.881 16.9112L288.889 16.917L288.898 16.9226L289.444 16.085ZM289.279 9.265L289.879 10.065L289.885 10.0604L289.279 9.265ZM304.349 11.905L303.755 12.7094L304.575 13.3148L305.165 12.4837L304.349 11.905ZM307.979 6.79L308.795 7.36874L309.338 6.60271L308.608 6.01226L307.979 6.79ZM284.549 5.03L283.914 4.25751L283.904 4.26597L284.549 5.03ZM284.219 20.87L284.853 20.096L284.844 20.0888L284.835 20.0817L284.219 20.87ZM293.679 24.72L293.44 25.6909L293.448 25.6928L293.679 24.72ZM300.719 27.25L301.319 26.45L301.305 26.4393L301.29 26.4291L300.719 27.25ZM300.554 34.18L299.966 33.3712L299.96 33.3758L300.554 34.18ZM283.394 30.55L284.051 29.7961L283.284 29.1274L282.629 29.9064L283.394 30.55ZM278.654 36.132C283.405 40.4254 289.035 42.55 295.384 42.55V40.55C289.523 40.55 284.373 38.6046 279.995 34.648L278.654 36.132ZM295.384 42.55C299.667 42.55 303.216 41.5205 305.919 39.2974L304.649 37.7526C302.403 39.5995 299.351 40.55 295.384 40.55V42.55ZM305.913 39.3026C308.755 37.005 310.134 33.9025 310.134 30.055H308.134C308.134 33.3575 306.984 35.865 304.656 37.7474L305.913 39.3026ZM310.134 30.055V29.945H308.134V30.055H310.134ZM310.134 29.945C310.134 26.6105 308.989 23.9079 306.72 21.8837L305.389 23.3763C307.189 24.9821 308.134 27.1195 308.134 29.945H310.134ZM306.692 21.86C304.595 20.1221 301.342 18.7571 297.054 17.6991L296.575 19.6409C300.757 20.6729 303.664 21.9479 305.416 23.4L306.692 21.86ZM297.047 17.6973C293.37 16.8193 291.099 15.9702 289.991 15.2474L288.898 16.9226C290.32 17.8498 292.889 18.7607 296.582 19.6426L297.047 17.6973ZM290.008 15.2588C289.075 14.6232 288.629 13.7799 288.629 12.62H286.629C286.629 14.4301 287.393 15.8968 288.881 16.9112L290.008 15.2588ZM288.629 12.62V12.51H286.629V12.62H288.629ZM288.629 12.51C288.629 11.5122 289.025 10.7057 289.879 10.065L288.679 8.465C287.334 9.47431 286.629 10.8677 286.629 12.51H288.629ZM289.885 10.0604C290.817 9.35058 292.122 8.945 293.899 8.945V6.945C291.826 6.945 290.052 7.41941 288.673 8.46957L289.885 10.0604ZM293.899 8.945C297.037 8.945 300.298 10.1567 303.755 12.7094L304.943 11.1006C301.25 8.37326 297.581 6.945 293.899 6.945V8.945ZM305.165 12.4837L308.795 7.36874L307.164 6.21125L303.534 11.3263L305.165 12.4837ZM308.608 6.01226C304.407 2.61682 299.507 0.949998 294.009 0.949998V2.95C299.071 2.95 303.522 4.47317 307.351 7.56774L308.608 6.01226ZM294.009 0.949998C289.968 0.949998 286.597 2.05159 283.914 4.25757L285.184 5.80242C287.451 3.9384 290.35 2.95 294.009 2.95V0.949998ZM283.904 4.26597C281.195 6.55398 279.864 9.53315 279.864 13.115H281.864C281.864 10.0968 282.954 7.68601 285.194 5.79403L283.904 4.26597ZM279.864 13.115V13.225H281.864V13.115H279.864ZM279.864 13.225C279.864 16.8241 281.06 19.6727 283.604 21.6583L284.835 20.0817C282.869 18.5473 281.864 16.3359 281.864 13.225H279.864ZM283.586 21.644C285.585 23.2797 288.965 24.5859 293.44 25.6908L293.919 23.7492C289.484 22.6541 286.483 21.4303 284.853 20.096L283.586 21.644ZM293.448 25.6928C296.912 26.5176 299.054 27.3095 300.148 28.0709L301.29 26.4291C299.855 25.4305 297.377 24.5724 293.911 23.7472L293.448 25.6928ZM300.119 28.05C300.962 28.6817 301.369 29.4823 301.369 30.605H303.369C303.369 28.8677 302.677 27.4683 301.319 26.45L300.119 28.05ZM301.369 30.605V30.715H303.369V30.605H301.369ZM301.369 30.715C301.369 31.808 300.931 32.6692 299.966 33.3713L301.142 34.9887C302.597 33.9308 303.369 32.482 303.369 30.715H301.369ZM299.96 33.3758C298.921 34.1437 297.504 34.555 295.549 34.555V36.555C297.775 36.555 299.658 36.0863 301.149 34.9842L299.96 33.3758ZM295.549 34.555C291.598 34.555 287.754 33.0224 284.051 29.7961L282.737 31.3039C286.735 34.7876 291.031 36.555 295.549 36.555V34.555ZM282.629 29.9064L278.559 34.7464L280.09 36.0336L284.16 31.1936L282.629 29.9064ZM336.002 35.94L335.29 36.6418L335.29 36.6419L336.002 35.94ZM366.582 35.665L367.234 36.4236L367.582 36.1243V35.665H366.582ZM366.582 19.495H367.582V18.495H366.582V19.495ZM350.192 19.495V18.495H349.192V19.495H350.192ZM350.192 25.38H349.192V26.38H350.192V25.38ZM360.037 25.38H361.037V24.38H360.037V25.38ZM360.037 32.585L360.634 33.387L361.037 33.0871V32.585H360.037ZM341.227 31.595L340.489 32.27L340.497 32.2784L340.505 32.2866L341.227 31.595ZM341.227 12.07L340.483 11.4019L340.482 11.4028L341.227 12.07ZM360.917 12.18L360.271 12.9429L361.038 13.5927L361.683 12.8226L360.917 12.18ZM365.207 7.065L365.973 7.70761L366.616 6.942L365.85 6.29929L365.207 7.065ZM336.112 7.725L335.395 7.02804L335.39 7.03354L336.112 7.725ZM335.29 36.6419C339.238 40.648 344.344 42.66 350.522 42.66V40.66C344.82 40.66 340.246 38.822 336.714 35.2381L335.29 36.6419ZM350.522 42.66C356.814 42.66 362.38 40.5925 367.234 36.4236L365.931 34.9064C361.435 38.7675 356.33 40.66 350.522 40.66V42.66ZM367.582 35.665V19.495H365.582V35.665H367.582ZM366.582 18.495H350.192V20.495H366.582V18.495ZM349.192 19.495V25.38H351.192V19.495H349.192ZM350.192 26.38H360.037V24.38H350.192V26.38ZM359.037 25.38V32.585H361.037V25.38H359.037ZM359.44 31.783C357.045 33.5666 354.125 34.5 350.742 34.5V36.5C354.51 36.5 357.86 35.4534 360.634 33.387L359.44 31.783ZM350.742 34.5C347.093 34.5 344.224 33.2792 341.95 30.9034L340.505 32.2866C343.18 35.0808 346.582 36.5 350.742 36.5V34.5ZM341.965 30.92C339.788 28.5399 338.652 25.5445 338.652 21.75H336.652C336.652 25.9855 337.937 29.4801 340.489 32.27L341.965 30.92ZM338.652 21.75V21.64H336.652V21.75H338.652ZM338.652 21.64C338.652 18.1369 339.777 15.187 341.972 12.7372L340.482 11.4028C337.947 14.233 336.652 17.6631 336.652 21.64H338.652ZM341.971 12.7381C344.204 10.2516 346.905 9.055 350.137 9.055V7.055C346.33 7.055 343.09 8.49841 340.483 11.4019L341.971 12.7381ZM350.137 9.055C353.84 9.055 357.19 10.3325 360.271 12.9429L361.564 11.4171C358.154 8.52748 354.354 7.055 350.137 7.055V9.055ZM361.683 12.8226L365.973 7.70761L364.441 6.42239L360.151 11.5374L361.683 12.8226ZM365.85 6.29929C361.536 2.67536 356.41 0.839999 350.412 0.839999V2.84C355.964 2.84 360.628 4.52464 364.564 7.8307L365.85 6.29929ZM350.412 0.839999C344.435 0.839999 339.387 2.92013 335.395 7.02806L336.829 8.42193C340.427 4.71987 344.949 2.84 350.412 2.84V0.839999ZM335.39 7.03354C331.523 11.0736 329.557 15.9978 329.557 21.75H331.557C331.557 16.5022 333.332 12.0764 336.835 8.41646L335.39 7.03354ZM329.557 21.75V21.86H331.557V21.75H329.557ZM329.557 21.86C329.557 27.7572 331.455 32.7491 335.29 36.6418L336.715 35.2382C333.289 31.7609 331.557 27.2928 331.557 21.86H329.557ZM375.942 41H374.942V42H375.942V41ZM382.707 41V42H383.707V41H382.707ZM382.707 27.58V26.58H381.707V27.58H382.707ZM391.177 27.58L391.994 27.0038L391.696 26.58H391.177V27.58ZM400.637 41L399.82 41.5762L400.119 42H400.637V41ZM408.667 41V42H410.609L409.481 40.4193L408.667 41ZM398.272 26.425L397.995 25.4641L396.638 25.8555L397.458 27.0057L398.272 26.425ZM404.212 6.35L404.928 5.6519L404.92 5.6436L404.912 5.63549L404.212 6.35ZM375.942 2.5V1.5H374.942V2.5H375.942ZM382.707 21.585H381.707V22.585H382.707V21.585ZM382.707 8.66V7.66H381.707V8.66H382.707ZM398.382 19.825L397.754 19.0471L398.382 19.825ZM375.942 42H382.707V40H375.942V42ZM383.707 41V27.58H381.707V41H383.707ZM382.707 28.58H391.177V26.58H382.707V28.58ZM390.36 28.1562L399.82 41.5762L401.454 40.4238L391.994 27.0038L390.36 28.1562ZM400.637 42H408.667V40H400.637V42ZM409.481 40.4193L399.086 25.8443L397.458 27.0057L407.853 41.5807L409.481 40.4193ZM398.549 27.3859C401.747 26.4639 404.233 24.9516 405.915 22.7986C407.599 20.6411 408.402 17.9351 408.402 14.765H406.402C406.402 17.5899 405.692 19.8338 404.338 21.5676C402.981 23.3059 400.902 24.6261 397.995 25.4641L398.549 27.3859ZM408.402 14.765V14.655H406.402V14.765H408.402ZM408.402 14.655C408.402 11.0695 407.275 8.05928 404.928 5.6519L403.496 7.0481C405.439 9.04072 406.402 11.5305 406.402 14.655H408.402ZM404.912 5.63549C402.032 2.8162 398.065 1.5 393.102 1.5V3.5C397.709 3.5 401.112 4.71379 403.512 7.06451L404.912 5.63549ZM393.102 1.5H375.942V3.5H393.102V1.5ZM374.942 2.5V41H376.942V2.5H374.942ZM383.707 21.585V8.66H381.707V21.585H383.707ZM382.707 9.66H392.552V7.66H382.707V9.66ZM392.552 9.66C395.112 9.66 396.84 10.1789 397.914 11.0416C398.946 11.8707 399.527 13.1422 399.527 15.04H401.527C401.527 12.7028 400.788 10.7843 399.166 9.48219C397.587 8.21363 395.327 7.66 392.552 7.66V9.66ZM399.527 15.04V15.15H401.527V15.04H399.527ZM399.527 15.15C399.527 16.7996 398.929 18.0981 397.754 19.0471L399.01 20.6029C400.695 19.2419 401.527 17.3504 401.527 15.15H399.527ZM397.754 19.0471C396.545 20.0235 394.861 20.585 392.607 20.585V22.585C395.193 22.585 397.359 21.9365 399.01 20.6029L397.754 19.0471ZM392.607 20.585H382.707V22.585H392.607V20.585ZM416.238 41H415.238V42H416.238V41ZM445.058 41V42H446.058V41H445.058ZM445.058 34.95H446.058V33.95H445.058V34.95ZM423.003 34.95H422.003V35.95H423.003V34.95ZM423.003 24.61V23.61H422.003V24.61H423.003ZM442.308 24.61V25.61H443.308V24.61H442.308ZM442.308 18.56H443.308V17.56H442.308V18.56ZM423.003 18.56H422.003V19.56H423.003V18.56ZM423.003 8.55V7.55H422.003V8.55H423.003ZM444.783 8.55V9.55H445.783V8.55H444.783ZM444.783 2.5H445.783V1.5H444.783V2.5ZM416.238 2.5V1.5H415.238V2.5H416.238ZM416.238 42H445.058V40H416.238V42ZM446.058 41V34.95H444.058V41H446.058ZM445.058 33.95H423.003V35.95H445.058V33.95ZM424.003 34.95V24.61H422.003V34.95H424.003ZM423.003 25.61H442.308V23.61H423.003V25.61ZM443.308 24.61V18.56H441.308V24.61H443.308ZM442.308 17.56H423.003V19.56H442.308V17.56ZM424.003 18.56V8.55H422.003V18.56H424.003ZM423.003 9.55H444.783V7.55H423.003V9.55ZM445.783 8.55V2.5H443.783V8.55H445.783ZM444.783 1.5H416.238V3.5H444.783V1.5ZM415.238 2.5V41H417.238V2.5H415.238ZM453.634 41H452.634V42H453.634V41ZM482.454 41V42H483.454V41H482.454ZM482.454 34.95H483.454V33.95H482.454V34.95ZM460.399 34.95H459.399V35.95H460.399V34.95ZM460.399 24.61V23.61H459.399V24.61H460.399ZM479.704 24.61V25.61H480.704V24.61H479.704ZM479.704 18.56H480.704V17.56H479.704V18.56ZM460.399 18.56H459.399V19.56H460.399V18.56ZM460.399 8.55V7.55H459.399V8.55H460.399ZM482.179 8.55V9.55H483.179V8.55H482.179ZM482.179 2.5H483.179V1.5H482.179V2.5ZM453.634 2.5V1.5H452.634V2.5H453.634ZM453.634 42H482.454V40H453.634V42ZM483.454 41V34.95H481.454V41H483.454ZM482.454 33.95H460.399V35.95H482.454V33.95ZM461.399 34.95V24.61H459.399V34.95H461.399ZM460.399 25.61H479.704V23.61H460.399V25.61ZM480.704 24.61V18.56H478.704V24.61H480.704ZM479.704 17.56H460.399V19.56H479.704V17.56ZM461.399 18.56V8.55H459.399V18.56H461.399ZM460.399 9.55H482.179V7.55H460.399V9.55ZM483.179 8.55V2.5H481.179V8.55H483.179ZM482.179 1.5H453.634V3.5H482.179V1.5ZM452.634 2.5V41H454.634V2.5H452.634ZM491.03 41H490.03V42H491.03V41ZM497.685 41V42H498.685V41H497.685ZM497.685 13.61L498.475 12.9974L496.685 10.6875V13.61H497.685ZM518.915 41L518.124 41.6126L518.424 42H518.915V41ZM524.58 41V42H525.58V41H524.58ZM524.58 2.5H525.58V1.5H524.58V2.5ZM517.925 2.5V1.5H516.925V2.5H517.925ZM517.925 29.12L517.134 29.7325L518.925 32.0434V29.12H517.925ZM497.3 2.5L498.09 1.88753L497.79 1.5H497.3V2.5ZM491.03 2.5V1.5H490.03V2.5H491.03ZM491.03 42H497.685V40H491.03V42ZM498.685 41V13.61H496.685V41H498.685ZM496.894 14.2226L518.124 41.6126L519.705 40.3874L498.475 12.9974L496.894 14.2226ZM518.915 42H524.58V40H518.915V42ZM525.58 41V2.5H523.58V41H525.58ZM524.58 1.5H517.925V3.5H524.58V1.5ZM516.925 2.5V29.12H518.925V2.5H516.925ZM518.715 28.5075L498.09 1.88753L496.509 3.11247L517.134 29.7325L518.715 28.5075ZM497.3 1.5H491.03V3.5H497.3V1.5ZM490.03 2.5V41H492.03V2.5H490.03ZM559.297 41.275L558.373 41.6565L558.628 42.275H559.297V41.275ZM565.292 41.275V42.275H565.962L566.217 41.6554L565.292 41.275ZM581.242 2.5L582.167 2.88042L582.735 1.5H581.242V2.5ZM573.927 2.5V1.5H573.244L572.996 2.13638L573.927 2.5ZM562.377 32.09L561.446 32.4551L562.38 34.8345L563.309 32.4536L562.377 32.09ZM550.772 2.5L551.703 2.13488L551.454 1.5H550.772V2.5ZM543.292 2.5V1.5H541.798L542.368 2.88154L543.292 2.5ZM559.297 42.275H565.292V40.275H559.297V42.275ZM566.217 41.6554L582.167 2.88042L580.318 2.11958L564.368 40.8946L566.217 41.6554ZM581.242 1.5H573.927V3.5H581.242V1.5ZM572.996 2.13638L561.446 31.7264L563.309 32.4536L574.859 2.86361L572.996 2.13638ZM563.308 31.7249L551.703 2.13488L549.841 2.86511L561.446 32.4551L563.308 31.7249ZM550.772 1.5H543.292V3.5H550.772V1.5ZM542.368 2.88154L558.373 41.6565L560.222 40.8935L544.217 2.11846L542.368 2.88154ZM588.778 41H587.778V42H588.778V41ZM595.542 41V42H596.542V41H595.542ZM595.542 2.5H596.542V1.5H595.542V2.5ZM588.778 2.5V1.5H587.778V2.5H588.778ZM588.778 42H595.542V40H588.778V42ZM596.542 41V2.5H594.542V41H596.542ZM595.542 1.5H588.778V3.5H595.542V1.5ZM587.778 2.5V41H589.778V2.5H587.778ZM606.398 41H605.398V42H606.398V41ZM633.404 41V42H634.404V41H633.404ZM633.404 34.84H634.404V33.84H633.404V34.84ZM613.164 34.84H612.164V35.84H613.164V34.84ZM613.164 2.5H614.164V1.5H613.164V2.5ZM606.398 2.5V1.5H605.398V2.5H606.398ZM606.398 42H633.404V40H606.398V42ZM634.404 41V34.84H632.404V41H634.404ZM633.404 33.84H613.164V35.84H633.404V33.84ZM614.164 34.84V2.5H612.164V34.84H614.164ZM613.164 1.5H606.398V3.5H613.164V1.5ZM605.398 2.5V41H607.398V2.5H605.398ZM641.001 41H640.001V42H641.001V41ZM668.006 41V42H669.006V41H668.006ZM668.006 34.84H669.006V33.84H668.006V34.84ZM647.766 34.84H646.766V35.84H647.766V34.84ZM647.766 2.5H648.766V1.5H647.766V2.5ZM641.001 2.5V1.5H640.001V2.5H641.001ZM641.001 42H668.006V40H641.001V42ZM669.006 41V34.84H667.006V41H669.006ZM668.006 33.84H647.766V35.84H668.006V33.84ZM648.766 34.84V2.5H646.766V34.84H648.766ZM647.766 1.5H641.001V3.5H647.766V1.5ZM640.001 2.5V41H642.001V2.5H640.001ZM672.304 41L671.388 40.5997L670.776 42H672.304V41ZM679.234 41V42H679.895L680.154 41.3919L679.234 41ZM683.194 31.705V30.705H682.533L682.274 31.3131L683.194 31.705ZM701.399 31.705L702.321 31.3177L702.064 30.705H701.399V31.705ZM705.304 41L704.382 41.3873L704.64 42H705.304V41ZM712.454 41V42H713.982L713.37 40.5997L712.454 41ZM695.514 2.225L696.43 1.82466L696.168 1.225H695.514V2.225ZM689.244 2.225V1.225H688.59L688.328 1.82466L689.244 2.225ZM685.669 25.71L684.75 25.3161L684.153 26.71H685.669V25.71ZM692.269 10.31L693.187 9.91331L692.265 7.7803L691.35 9.91608L692.269 10.31ZM698.924 25.71V26.71H700.446L699.842 25.3133L698.924 25.71ZM672.304 42H679.234V40H672.304V42ZM680.154 41.3919L684.114 32.0969L682.274 31.3131L678.314 40.6081L680.154 41.3919ZM683.194 32.705H701.399V30.705H683.194V32.705ZM700.477 32.0923L704.382 41.3873L706.226 40.6127L702.321 31.3177L700.477 32.0923ZM705.304 42H712.454V40H705.304V42ZM713.37 40.5997L696.43 1.82466L694.598 2.62534L711.538 41.4003L713.37 40.5997ZM695.514 1.225H689.244V3.225H695.514V1.225ZM688.328 1.82466L671.388 40.5997L673.22 41.4003L690.16 2.62534L688.328 1.82466ZM686.588 26.1039L693.188 10.7039L691.35 9.91608L684.75 25.3161L686.588 26.1039ZM691.351 10.7067L698.006 26.1067L699.842 25.3133L693.187 9.91331L691.351 10.7067ZM698.924 24.71H685.669V26.71H698.924V24.71ZM716.377 35.39L715.611 34.7464L714.99 35.485L715.706 36.132L716.377 35.39ZM742.337 38.525L741.708 37.7473L741.701 37.7526L742.337 38.525ZM743.107 22.63L743.772 21.8837L743.759 21.8716L743.745 21.86L743.107 22.63ZM733.867 18.67L734.106 17.6991L734.099 17.6973L733.867 18.67ZM726.497 16.085L725.933 16.9112L725.942 16.917L725.95 16.9226L726.497 16.085ZM726.332 9.265L726.932 10.065L726.938 10.0604L726.332 9.265ZM741.402 11.905L740.808 12.7094L741.627 13.3148L742.217 12.4837L741.402 11.905ZM745.032 6.79L745.847 7.36874L746.391 6.60271L745.66 6.01226L745.032 6.79ZM721.602 5.03L720.966 4.25751L720.956 4.26597L721.602 5.03ZM721.272 20.87L721.905 20.096L721.896 20.0888L721.887 20.0817L721.272 20.87ZM730.732 24.72L730.492 25.6909L730.5 25.6928L730.732 24.72ZM737.772 27.25L738.372 26.45L738.357 26.4393L738.343 26.4291L737.772 27.25ZM737.607 34.18L737.018 33.3712L737.012 33.3758L737.607 34.18ZM720.447 30.55L721.104 29.7961L720.336 29.1274L719.681 29.9064L720.447 30.55ZM715.706 36.132C720.458 40.4254 726.087 42.55 732.437 42.55V40.55C726.576 40.55 721.426 38.6046 717.047 34.648L715.706 36.132ZM732.437 42.55C736.719 42.55 740.268 41.5205 742.972 39.2974L741.701 37.7526C739.455 39.5995 736.404 40.55 732.437 40.55V42.55ZM742.965 39.3026C745.807 37.005 747.187 33.9025 747.187 30.055H745.187C745.187 33.3575 744.036 35.865 741.708 37.7474L742.965 39.3026ZM747.187 30.055V29.945H745.187V30.055H747.187ZM747.187 29.945C747.187 26.6105 746.042 23.9079 743.772 21.8837L742.441 23.3763C744.241 24.9821 745.187 27.1195 745.187 29.945H747.187ZM743.745 21.86C741.647 20.1221 738.394 18.7571 734.106 17.6991L733.627 19.6409C737.809 20.6729 740.716 21.9479 742.469 23.4L743.745 21.86ZM734.099 17.6973C730.422 16.8193 728.151 15.9702 727.043 15.2474L725.95 16.9226C727.372 17.8498 729.941 18.7607 733.634 19.6426L734.099 17.6973ZM727.06 15.2588C726.128 14.6232 725.682 13.7799 725.682 12.62H723.682C723.682 14.4301 724.445 15.8968 725.933 16.9112L727.06 15.2588ZM725.682 12.62V12.51H723.682V12.62H725.682ZM725.682 12.51C725.682 11.5122 726.077 10.7057 726.932 10.065L725.732 8.465C724.386 9.47431 723.682 10.8677 723.682 12.51H725.682ZM726.938 10.0604C727.869 9.35058 729.174 8.945 730.952 8.945V6.945C728.879 6.945 727.104 7.41941 725.726 8.46957L726.938 10.0604ZM730.952 8.945C734.089 8.945 737.351 10.1567 740.808 12.7094L741.996 11.1006C738.302 8.37326 734.634 6.945 730.952 6.945V8.945ZM742.217 12.4837L745.847 7.36874L744.216 6.21125L740.586 11.3263L742.217 12.4837ZM745.66 6.01226C741.459 2.61682 736.56 0.949998 731.062 0.949998V2.95C736.124 2.95 740.574 4.47317 744.403 7.56774L745.66 6.01226ZM731.062 0.949998C727.02 0.949998 723.649 2.05159 720.966 4.25757L722.237 5.80242C724.504 3.9384 727.403 2.95 731.062 2.95V0.949998ZM720.956 4.26597C718.247 6.55398 716.917 9.53315 716.917 13.115H718.917C718.917 10.0968 720.006 7.68601 722.247 5.79403L720.956 4.26597ZM716.917 13.115V13.225H718.917V13.115H716.917ZM716.917 13.225C716.917 16.8241 718.112 19.6727 720.656 21.6583L721.887 20.0817C719.921 18.5473 718.917 16.3359 718.917 13.225H716.917ZM720.638 21.644C722.638 23.2797 726.017 24.5859 730.492 25.6908L730.971 23.7492C726.536 22.6541 723.536 21.4303 721.905 20.096L720.638 21.644ZM730.5 25.6928C733.964 26.5176 736.106 27.3095 737.201 28.0709L738.343 26.4291C736.907 25.4305 734.429 24.5724 730.963 23.7472L730.5 25.6928ZM737.172 28.05C738.014 28.6817 738.422 29.4823 738.422 30.605H740.422C740.422 28.8677 739.729 27.4683 738.372 26.45L737.172 28.05ZM738.422 30.605V30.715H740.422V30.605H738.422ZM738.422 30.715C738.422 31.808 737.984 32.6692 737.018 33.3713L738.195 34.9887C739.649 33.9308 740.422 32.482 740.422 30.715H738.422ZM737.012 33.3758C735.973 34.1437 734.556 34.555 732.602 34.555V36.555C734.827 36.555 736.71 36.0863 738.201 34.9842L737.012 33.3758ZM732.602 34.555C728.65 34.555 724.806 33.0224 721.104 29.7961L719.79 31.3039C723.787 34.7876 728.083 36.555 732.602 36.555V34.555ZM719.681 29.9064L715.611 34.7464L717.142 36.0336L721.212 31.1936L719.681 29.9064Z" fill="#4AB587"/>
</svg>
