<svg width="282" height="71" viewBox="0 0 282 71" fill="none" xmlns="http://www.w3.org/2000/svg">
<path d="M27.136 1.8L28.064 2.17252L28.615 0.799998H27.136V1.8ZM21.16 1.8V0.799998H20.4645L20.2225 1.452L21.16 1.8ZM14.572 19.548L13.6345 19.896L14.572 22.4216L15.5095 19.896L14.572 19.548ZM7.984 1.8L8.9215 1.452L8.67947 0.799998H7.984V1.8ZM1.864 1.8V0.799998H0.385021L0.935978 2.17252L1.864 1.8ZM12.052 27.18L11.124 27.5525L11.3759 28.18H12.052V27.18ZM16.948 27.18V28.18H17.6241L17.876 27.5525L16.948 27.18ZM27.136 0.799998H21.16V2.8H27.136V0.799998ZM20.2225 1.452L13.6345 19.2L15.5095 19.896L22.0975 2.14799L20.2225 1.452ZM15.5095 19.2L8.9215 1.452L7.0465 2.14799L13.6345 19.896L15.5095 19.2ZM7.984 0.799998H1.864V2.8H7.984V0.799998ZM0.935978 2.17252L11.124 27.5525L12.98 26.8075L2.79202 1.42747L0.935978 2.17252ZM12.052 28.18H16.948V26.18H12.052V28.18ZM17.876 27.5525L28.064 2.17252L26.208 1.42747L16.02 26.8075L17.876 27.5525ZM37.18 27V28H38.18V27H37.18ZM37.18 1.8H38.18V0.799998H37.18V1.8ZM31.636 1.8V0.799998H30.636V1.8H31.636ZM31.636 27H30.636V28H31.636V27ZM38.18 27V1.8H36.18V27H38.18ZM37.18 0.799998H31.636V2.8H37.18V0.799998ZM30.636 1.8V27H32.636V1.8H30.636ZM31.636 28H37.18V26H31.636V28ZM66.2298 27V28H67.2298V27H66.2298ZM66.2298 1.8H67.2298V0.799998H66.2298V1.8ZM60.7578 1.8V0.799998H59.7578V1.8H60.7578ZM60.7578 17.316L59.962 17.9216L61.7578 20.2813V17.316H60.7578ZM48.9498 1.8L49.7455 1.1944L49.4454 0.799998H48.9498V1.8ZM43.8378 1.8V0.799998H42.8378V1.8H43.8378ZM43.8378 27H42.8378V28H43.8378V27ZM49.3098 27V28H50.3098V27H49.3098ZM49.3098 10.98L50.1052 10.374L48.3098 8.01712V10.98H49.3098ZM61.5138 27L60.7183 27.606L61.0184 28H61.5138V27ZM67.2298 27V1.8H65.2298V27H67.2298ZM66.2298 0.799998H60.7578V2.8H66.2298V0.799998ZM59.7578 1.8V17.316H61.7578V1.8H59.7578ZM61.5535 16.7104L49.7455 1.1944L48.154 2.4056L59.962 17.9216L61.5535 16.7104ZM48.9498 0.799998H43.8378V2.8H48.9498V0.799998ZM42.8378 1.8V27H44.8378V1.8H42.8378ZM43.8378 28H49.3098V26H43.8378V28ZM50.3098 27V10.98H48.3098V27H50.3098ZM48.5143 11.586L60.7183 27.606L62.3092 26.394L50.1052 10.374L48.5143 11.586ZM61.5138 28H66.2298V26H61.5138V28ZM93.9512 27V28H94.9512V27H93.9512ZM93.9512 1.8H94.9512V0.799998H93.9512V1.8ZM88.4072 1.8V0.799998H87.4072V1.8H88.4072ZM88.4072 11.772V12.772H89.4072V11.772H88.4072ZM78.1832 11.772H77.1832V12.772H78.1832V11.772ZM78.1832 1.8H79.1832V0.799998H78.1832V1.8ZM72.6392 1.8V0.799998H71.6392V1.8H72.6392ZM72.6392 27H71.6392V28H72.6392V27ZM78.1832 27V28H79.1832V27H78.1832ZM78.1832 16.884V15.884H77.1832V16.884H78.1832ZM88.4072 16.884H89.4072V15.884H88.4072V16.884ZM88.4072 27H87.4072V28H88.4072V27ZM94.9512 27V1.8H92.9512V27H94.9512ZM93.9512 0.799998H88.4072V2.8H93.9512V0.799998ZM87.4072 1.8V11.772H89.4072V1.8H87.4072ZM88.4072 10.772H78.1832V12.772H88.4072V10.772ZM79.1832 11.772V1.8H77.1832V11.772H79.1832ZM78.1832 0.799998H72.6392V2.8H78.1832V0.799998ZM71.6392 1.8V27H73.6392V1.8H71.6392ZM72.6392 28H78.1832V26H72.6392V28ZM79.1832 27V16.884H77.1832V27H79.1832ZM78.1832 17.884H88.4072V15.884H78.1832V17.884ZM87.4072 16.884V27H89.4072V16.884H87.4072ZM88.4072 28H93.9512V26H88.4072V28ZM125.011 9.288L124.085 9.66663L124.089 9.67516L124.092 9.68362L125.011 9.288ZM122.239 5.184L121.532 5.89111L121.539 5.89832L121.546 5.90539L122.239 5.184ZM118.027 2.412L117.634 3.33191L117.646 3.33668L118.027 2.412ZM107.263 2.412L107.643 3.3367L107.65 3.33389L107.263 2.412ZM103.015 5.22L103.722 5.92711V5.92711L103.015 5.22ZM100.243 9.36L101.161 9.75563L101.163 9.75055L100.243 9.36ZM100.207 19.548L99.2812 19.9266L99.2847 19.9352L99.2883 19.9436L100.207 19.548ZM102.979 23.652L102.272 24.3591L102.279 24.3663L102.286 24.3734L102.979 23.652ZM107.227 26.424L106.834 27.3439L106.846 27.3487L107.227 26.424ZM117.955 26.424L118.335 27.3487L118.342 27.3459L117.955 26.424ZM122.203 23.616L122.91 24.3231L122.203 23.616ZM125.011 19.476L125.929 19.8716L125.931 19.8666L125.011 19.476ZM119.647 17.532L118.718 17.1606L118.713 17.173L119.647 17.532ZM118.099 20.016L117.368 19.3337L117.361 19.3403L117.355 19.347L118.099 20.016ZM115.723 21.708L116.122 22.6247L115.723 21.708ZM109.567 21.708L109.139 22.6117L109.153 22.6184L109.167 22.6247L109.567 21.708ZM107.155 19.98L106.424 20.6623L106.43 20.6687L106.436 20.675L107.155 19.98ZM105.571 17.46L104.634 17.8111L104.638 17.8213L104.642 17.8314L105.571 17.46ZM105.571 11.304L104.642 10.9326L104.637 10.945L105.571 11.304ZM107.119 8.784L106.388 8.10168L106.381 8.1083L106.375 8.11503L107.119 8.784ZM109.495 7.092L109.095 6.17526L109.086 6.17918L109.495 7.092ZM115.651 7.128L115.232 8.03596L115.241 8.04043L115.251 8.04469L115.651 7.128ZM118.063 8.82L117.332 9.50232L117.338 9.50872L117.344 9.51502L118.063 8.82ZM119.647 11.34L118.71 11.6911L118.714 11.7013L118.718 11.7114L119.647 11.34ZM127.019 14.4V14.328H125.019V14.4H127.019ZM127.019 14.328C127.019 12.4002 126.658 10.5847 125.929 8.89238L124.092 9.68362C124.707 11.1113 125.019 12.6558 125.019 14.328H127.019ZM125.936 8.90937C125.237 7.19992 124.235 5.71416 122.931 4.46261L121.546 5.90539C122.642 6.95784 123.488 8.20808 124.085 9.66663L125.936 8.90937ZM122.946 4.47689C121.671 3.20191 120.154 2.20647 118.407 1.48732L117.646 3.33668C119.163 3.96153 120.455 4.81409 121.532 5.89111L122.946 4.47689ZM118.419 1.49216C116.652 0.738398 114.729 0.368 112.663 0.368V2.368C114.485 2.368 116.138 2.6936 117.634 3.33184L118.419 1.49216ZM112.663 0.368C110.597 0.368 108.664 0.738444 106.875 1.49011L107.65 3.33389C109.174 2.69356 110.841 2.368 112.663 2.368V0.368ZM106.882 1.48732C105.133 2.20754 103.605 3.2158 102.308 4.51289L103.722 5.92711C104.825 4.8242 106.129 3.96046 107.643 3.33668L106.882 1.48732ZM102.308 4.51289C101.038 5.78287 100.043 7.27137 99.3221 8.96945L101.163 9.75055C101.787 8.28063 102.64 7.00913 103.722 5.92711L102.308 4.51289ZM99.3243 8.96438C98.5953 10.6567 98.2347 12.4722 98.2347 14.4H100.235C100.235 12.7278 100.546 11.1833 101.161 9.75562L99.3243 8.96438ZM98.2347 14.4V14.472H100.235V14.4H98.2347ZM98.2347 14.472C98.2347 16.395 98.5815 18.2163 99.2812 19.9266L101.132 19.1694C100.536 17.7117 100.235 16.149 100.235 14.472H98.2347ZM99.2883 19.9436C100.009 21.6174 101.004 23.0917 102.272 24.3591L103.686 22.9449C102.601 21.8603 101.748 20.5986 101.125 19.1524L99.2883 19.9436ZM102.286 24.3734C103.579 25.6146 105.099 26.6036 106.834 27.3438L107.619 25.5042C106.091 24.8524 104.778 23.9934 103.671 22.9306L102.286 24.3734ZM106.846 27.3487C108.61 28.0752 110.529 28.432 112.591 28.432V26.432C110.764 26.432 109.107 26.1168 107.607 25.4993L106.846 27.3487ZM112.591 28.432C114.652 28.432 116.571 28.0752 118.335 27.3487L117.574 25.4993C116.074 26.1168 114.417 26.432 112.591 26.432V28.432ZM118.342 27.3459C120.108 26.6037 121.635 25.5979 122.91 24.3231L121.496 22.9089C120.418 23.9861 119.113 24.8523 117.567 25.5021L118.342 27.3459ZM122.91 24.3231C124.199 23.0335 125.207 21.5478 125.929 19.8716L124.092 19.0804C123.47 20.5242 122.606 21.7985 121.496 22.9089L122.91 24.3231ZM125.931 19.8666C126.658 18.1533 127.019 16.3279 127.019 14.4H125.019C125.019 16.0721 124.707 17.6307 124.09 19.0854L125.931 19.8666ZM119.223 14.472C119.223 15.4305 119.053 16.324 118.718 17.1606L120.575 17.9034C121.009 16.82 121.223 15.6735 121.223 14.472H119.223ZM118.713 17.173C118.399 17.9915 117.951 18.7092 117.368 19.3337L118.83 20.6983C119.591 19.8828 120.175 18.9445 120.58 17.891L118.713 17.173ZM117.355 19.347C116.808 19.9551 116.135 20.4372 115.323 20.7913L116.122 22.6247C117.182 22.1628 118.093 21.5169 118.842 20.685L117.355 19.347ZM115.323 20.7913C114.523 21.14 113.641 21.32 112.663 21.32V23.32C113.893 23.32 115.05 23.092 116.122 22.6247L115.323 20.7913ZM112.663 21.32C111.658 21.32 110.764 21.1389 109.966 20.7913L109.167 22.6247C110.242 23.0931 111.412 23.32 112.663 23.32V21.32ZM109.995 20.8043C109.191 20.4234 108.485 19.9178 107.874 19.285L106.436 20.675C107.216 21.4822 108.119 22.1286 109.139 22.6117L109.995 20.8043ZM107.886 19.2977C107.302 18.6727 106.84 17.9394 106.499 17.0886L104.642 17.8314C105.07 18.9006 105.663 19.8473 106.424 20.6623L107.886 19.2977ZM106.507 17.1089C106.191 16.2671 106.031 15.3666 106.031 14.4H104.031C104.031 15.5934 104.23 16.7329 104.634 17.8111L106.507 17.1089ZM106.031 14.4V14.328H104.031V14.4H106.031ZM106.031 14.328C106.031 13.3612 106.191 12.4759 106.504 11.663L104.637 10.945C104.23 12.0041 104.031 13.1348 104.031 14.328H106.031ZM106.499 11.6754C106.842 10.8173 107.298 10.0797 107.862 9.45296L106.375 8.11503C105.643 8.9283 105.067 9.87071 104.642 10.9326L106.499 11.6754ZM107.85 9.46632C108.429 8.84536 109.111 8.3591 109.903 8.00482L109.086 6.17918C108.054 6.64089 107.152 7.28264 106.388 8.10168L107.85 9.46632ZM109.894 8.00869C110.692 7.66114 111.586 7.48 112.591 7.48V5.48C111.34 5.48 110.17 5.70685 109.095 6.1753L109.894 8.00869ZM112.591 7.48C113.56 7.48 114.436 7.66882 115.232 8.03596L116.07 6.22004C114.993 5.72317 113.829 5.48 112.591 5.48V7.48ZM115.251 8.04469C116.066 8.40011 116.756 8.88597 117.332 9.50232L118.794 8.13768C118.025 7.31403 117.107 6.67189 116.05 6.2113L115.251 8.04469ZM117.344 9.51502C117.942 10.1341 118.397 10.8563 118.71 11.6911L120.583 10.9889C120.176 9.9037 119.575 8.94589 118.782 8.12498L117.344 9.51502ZM118.718 11.7114C119.053 12.548 119.223 13.4415 119.223 14.4H121.223C121.223 13.1985 121.009 12.052 120.575 10.9686L118.718 11.7114ZM119.223 14.4V14.472H121.223V14.4H119.223ZM156.497 27V28H157.497V27H156.497ZM156.497 1.8H157.497V0.799998H156.497V1.8ZM150.521 1.8V0.799998H149.965L149.671 1.27206L150.521 1.8ZM143.897 12.456L143.047 12.9839L143.897 14.3502L144.746 12.9839L143.897 12.456ZM137.273 1.8L138.122 1.27206L137.828 0.799998H137.273V1.8ZM131.297 1.8V0.799998H130.297V1.8H131.297ZM131.297 27H130.297V28H131.297V27ZM136.733 27V28H137.733V27H136.733ZM136.733 10.656L137.568 10.1059L135.733 7.32031V10.656H136.733ZM143.753 21.312L142.918 21.8621L143.214 22.312H143.753V21.312ZM143.897 21.312V22.312H144.435L144.732 21.8622L143.897 21.312ZM150.989 10.548H151.989V7.21265L150.154 9.99782L150.989 10.548ZM150.989 27H149.989V28H150.989V27ZM157.497 27V1.8H155.497V27H157.497ZM156.497 0.799998H150.521V2.8H156.497V0.799998ZM149.671 1.27206L143.047 11.9281L144.746 12.9839L151.37 2.32793L149.671 1.27206ZM144.746 11.9281L138.122 1.27206L136.423 2.32793L143.047 12.9839L144.746 11.9281ZM137.273 0.799998H131.297V2.8H137.273V0.799998ZM130.297 1.8V27H132.297V1.8H130.297ZM131.297 28H136.733V26H131.297V28ZM137.733 27V10.656H135.733V27H137.733ZM135.898 11.2061L142.918 21.8621L144.588 20.7619L137.568 10.1059L135.898 11.2061ZM143.753 22.312H143.897V20.312H143.753V22.312ZM144.732 21.8622L151.824 11.0982L150.154 9.99782L143.062 20.7618L144.732 21.8622ZM149.989 10.548V27H151.989V10.548H149.989ZM150.989 28H156.497V26H150.989V28ZM182.099 27V28H183.099V27H182.099ZM182.099 22.068H183.099V21.068H182.099V22.068ZM168.419 22.068H167.419V23.068H168.419V22.068ZM168.419 16.776V15.776H167.419V16.776H168.419ZM180.299 16.776V17.776H181.299V16.776H180.299ZM180.299 11.844H181.299V10.844H180.299V11.844ZM168.419 11.844H167.419V12.844H168.419V11.844ZM168.419 6.732V5.732H167.419V6.732H168.419ZM181.919 6.732V7.732H182.919V6.732H181.919ZM181.919 1.8H182.919V0.799998H181.919V1.8ZM162.911 1.8V0.799998H161.911V1.8H162.911ZM162.911 27H161.911V28H162.911V27ZM183.099 27V22.068H181.099V27H183.099ZM182.099 21.068H168.419V23.068H182.099V21.068ZM169.419 22.068V16.776H167.419V22.068H169.419ZM168.419 17.776H180.299V15.776H168.419V17.776ZM181.299 16.776V11.844H179.299V16.776H181.299ZM180.299 10.844H168.419V12.844H180.299V10.844ZM169.419 11.844V6.732H167.419V11.844H169.419ZM168.419 7.732H181.919V5.732H168.419V7.732ZM182.919 6.732V1.8H180.919V6.732H182.919ZM181.919 0.799998H162.911V2.8H181.919V0.799998ZM161.911 1.8V27H163.911V1.8H161.911ZM162.911 28H182.099V26H162.911V28ZM205.064 16.632L204.143 17.0225L204.148 17.0342L204.153 17.0458L205.064 16.632ZM203.516 14.58L202.85 15.3259L202.864 15.3384L202.878 15.3504L203.516 14.58ZM200.996 13.068L200.594 13.9836L200.607 13.9895L200.621 13.9949L200.996 13.068ZM197.612 11.916L197.354 12.8822L197.356 12.8828L197.612 11.916ZM194.912 11.16L194.615 12.1151L194.624 12.1178L194.912 11.16ZM193.256 10.476L193.763 9.61407L193.256 10.476ZM192.392 9.684L191.484 10.1031L191.504 10.1465L191.528 10.1879L192.392 9.684ZM192.968 6.984L193.579 7.7753L193.584 7.7715L192.968 6.984ZM198.656 7.02L198.267 7.94125L198.276 7.94495L198.284 7.94848L198.656 7.02ZM201.968 8.82L201.405 9.6466L202.227 10.206L202.791 9.38773L201.968 8.82ZM204.848 4.644L205.671 5.21173L206.201 4.44324L205.471 3.86172L204.848 4.644ZM200.564 2.268L200.226 3.20908L200.23 3.21072L200.564 2.268ZM191.924 1.98L191.608 1.03131V1.03132L191.924 1.98ZM189.116 3.528L188.469 2.76549L188.463 2.77041L188.457 2.77542L189.116 3.528ZM187.316 5.94L188.22 6.36811L188.224 6.35906L187.316 5.94ZM187.244 12.24L186.334 12.6558L186.339 12.6664L186.344 12.6769L187.244 12.24ZM188.936 14.364L188.311 15.1449L188.319 15.1513L188.327 15.1576L188.936 14.364ZM191.564 15.768L191.215 16.7052L191.564 15.768ZM195.02 16.812L195.262 15.8418L195.258 15.8408L195.02 16.812ZM197.576 17.568L197.228 18.5058L197.239 18.5097L197.576 17.568ZM199.124 18.288L198.569 19.1201L198.581 19.1282L198.594 19.136L199.124 18.288ZM199.88 19.08L198.957 19.4646L198.977 19.5129L199.002 19.5589L199.88 19.08ZM199.124 21.852L199.671 22.689L199.678 22.684L199.124 21.852ZM192.464 21.636L192.046 22.5445L192.053 22.5476L192.464 21.636ZM188.936 19.404L189.566 18.6279L188.801 18.0056L188.168 18.7631L188.936 19.404ZM185.66 23.328L184.892 22.6871L184.276 23.4248L184.989 24.0695L185.66 23.328ZM190.7 26.388L190.358 27.3279L190.369 27.3317L190.7 26.388ZM200.096 26.856L200.381 27.8144L200.391 27.8116L200.4 27.8087L200.096 26.856ZM203.012 25.344L203.634 26.1271L203.641 26.1216L203.647 26.1159L203.012 25.344ZM204.92 22.896L205.823 23.3251L205.827 23.3165L204.92 22.896ZM206.604 19.548V19.476H204.604V19.548H206.604ZM206.604 19.476C206.604 18.2663 206.407 17.1701 205.974 16.2182L204.153 17.0458C204.441 17.6779 204.604 18.4777 204.604 19.476H206.604ZM205.984 16.2414C205.583 15.2946 204.966 14.4824 204.153 13.8096L202.878 15.3504C203.457 15.8295 203.873 16.3854 204.143 17.0225L205.984 16.2414ZM204.182 13.8341C203.408 13.1434 202.464 12.5835 201.371 12.1411L200.621 13.9949C201.543 14.3685 202.279 14.8166 202.85 15.3259L204.182 13.8341ZM201.398 12.1524C200.357 11.6955 199.179 11.2956 197.867 10.9492L197.356 12.8828C198.589 13.2084 199.666 13.5765 200.594 13.9836L201.398 12.1524ZM197.869 10.9498C196.795 10.6633 195.906 10.4142 195.199 10.2022L194.624 12.1178C195.358 12.3378 196.268 12.5927 197.354 12.8822L197.869 10.9498ZM195.208 10.2049C194.551 10.0009 194.079 9.80004 193.763 9.61407L192.749 11.3379C193.249 11.632 193.881 11.8871 194.615 12.1151L195.208 10.2049ZM193.763 9.61407C193.444 9.42654 193.309 9.27099 193.256 9.18013L191.528 10.1879C191.811 10.673 192.252 11.0455 192.749 11.3379L193.763 9.61407ZM193.3 9.26494C193.227 9.10664 193.176 8.89407 193.176 8.604H191.176C191.176 9.12993 191.269 9.63736 191.484 10.1031L193.3 9.26494ZM193.176 8.604V8.532H191.176V8.604H193.176ZM193.176 8.532C193.176 8.24173 193.277 8.00911 193.579 7.77528L192.356 6.19271C191.603 6.77489 191.176 7.57427 191.176 8.532H193.176ZM193.584 7.7715C193.887 7.53405 194.445 7.336 195.416 7.336V5.336C194.227 5.336 193.152 5.56995 192.351 6.19649L193.584 7.7715ZM195.416 7.336C196.351 7.336 197.299 7.53274 198.267 7.94125L199.045 6.09875C197.852 5.59526 196.64 5.336 195.416 5.336V7.336ZM198.284 7.94848C199.287 8.3494 200.327 8.91257 201.405 9.6466L202.531 7.9934C201.353 7.19143 200.185 6.5546 199.027 6.09152L198.284 7.94848ZM202.791 9.38773L205.671 5.21173L204.025 4.07627L201.145 8.25227L202.791 9.38773ZM205.471 3.86172C204.088 2.76062 202.562 1.91436 200.897 1.32528L200.23 3.21072C201.685 3.72563 203.016 4.46337 204.225 5.42628L205.471 3.86172ZM200.902 1.32692C199.244 0.731142 197.436 0.439999 195.488 0.439999V2.44C197.236 2.44 198.811 2.70086 200.226 3.20907L200.902 1.32692ZM195.488 0.439999C194.099 0.439999 192.803 0.632985 191.608 1.03131L192.24 2.92868C193.205 2.60701 194.285 2.44 195.488 2.44V0.439999ZM191.608 1.03132C190.418 1.4278 189.367 2.00329 188.469 2.76549L189.763 4.29051C190.448 3.70871 191.269 3.2522 192.24 2.92868L191.608 1.03132ZM188.457 2.77542C187.583 3.54082 186.898 4.45883 186.408 5.52094L188.224 6.35906C188.598 5.54917 189.113 4.85918 189.774 4.28058L188.457 2.77542ZM186.412 5.51191C185.908 6.57547 185.668 7.75692 185.668 9.036H187.668C187.668 8.01108 187.859 7.12853 188.219 6.36808L186.412 5.51191ZM185.668 9.036V9.108H187.668V9.036H185.668ZM185.668 9.108C185.668 10.4518 185.874 11.6479 186.334 12.6558L188.153 11.8242C187.846 11.1521 187.668 10.2602 187.668 9.108H185.668ZM186.344 12.6769C186.816 13.6488 187.474 14.4748 188.311 15.1449L189.56 13.5831C188.958 13.1012 188.487 12.5112 188.143 11.8031L186.344 12.6769ZM188.327 15.1576C189.141 15.7814 190.109 16.2937 191.215 16.7052L191.912 14.8308C190.955 14.4743 190.171 14.0506 189.544 13.5704L188.327 15.1576ZM191.215 16.7052C192.289 17.1049 193.479 17.4637 194.782 17.7832L195.258 15.8408C194.017 15.5363 192.902 15.1991 191.912 14.8308L191.215 16.7052ZM194.777 17.7821C195.815 18.0417 196.628 18.2835 197.228 18.5057L197.923 16.6302C197.227 16.3725 196.336 16.1103 195.262 15.8419L194.777 17.7821ZM197.239 18.5097C197.877 18.7375 198.307 18.9451 198.569 19.1201L199.678 17.4559C199.221 17.1509 198.618 16.8785 197.912 16.6263L197.239 18.5097ZM198.594 19.136C198.878 19.3135 198.945 19.4369 198.957 19.4646L200.803 18.6954C200.574 18.1471 200.138 17.7425 199.654 17.44L198.594 19.136ZM199.002 19.5589C199.051 19.6496 199.096 19.7904 199.096 20.016H201.096C201.096 19.5216 200.996 19.0384 200.758 18.6011L199.002 19.5589ZM199.096 20.016V20.088H201.096V20.016H199.096ZM199.096 20.088C199.096 20.4794 198.954 20.763 198.569 21.0199L199.678 22.684C200.589 22.077 201.096 21.1846 201.096 20.088H199.096ZM198.577 21.015C198.181 21.2734 197.515 21.464 196.46 21.464V23.464C197.708 23.464 198.818 23.2466 199.671 22.689L198.577 21.015ZM196.46 21.464C195.151 21.464 193.96 21.214 192.875 20.7244L192.053 22.5476C193.415 23.162 194.888 23.464 196.46 23.464V21.464ZM192.882 20.7275C191.767 20.2146 190.661 19.5174 189.566 18.6279L188.305 20.1801C189.514 21.1626 190.761 21.9534 192.046 22.5445L192.882 20.7275ZM188.168 18.7631L184.892 22.6871L186.427 23.9689L189.703 20.0449L188.168 18.7631ZM184.989 24.0695C186.593 25.521 188.384 26.61 190.358 27.3278L191.042 25.4482C189.32 24.822 187.75 23.871 186.331 22.5865L184.989 24.0695ZM190.369 27.3317C192.321 28.0162 194.317 28.36 196.352 28.36V26.36C194.547 26.36 192.774 26.0558 191.031 25.4443L190.369 27.3317ZM196.352 28.36C197.801 28.36 199.147 28.182 200.381 27.8144L199.81 25.8976C198.789 26.202 197.638 26.36 196.352 26.36V28.36ZM200.4 27.8087C201.628 27.4168 202.711 26.8599 203.634 26.1271L202.39 24.5609C201.681 25.1241 200.82 25.5752 199.792 25.9033L200.4 27.8087ZM203.647 26.1159C204.577 25.3501 205.304 24.4169 205.823 23.3251L204.016 22.4669C203.623 23.2951 203.078 23.9939 202.376 24.5721L203.647 26.1159ZM205.827 23.3165C206.353 22.1822 206.604 20.9194 206.604 19.548H204.604C204.604 20.6726 204.399 21.6418 204.012 22.4755L205.827 23.3165ZM26.92 65.436L27.5685 66.1972L27.92 65.8978V65.436H26.92ZM26.92 54.492H27.92V53.492H26.92V54.492ZM15.976 54.492V53.492H14.976V54.492H15.976ZM15.976 59.28H14.976V60.28H15.976V59.28ZM21.556 59.28H22.556V58.28H21.556V59.28ZM21.556 62.88L22.1359 63.6947L22.556 63.3956V62.88H21.556ZM13.24 63.816L12.8316 64.7288L12.8459 64.7352L12.8604 64.7412L13.24 63.816ZM10.828 62.124L10.0969 62.8063L10.1029 62.8127L10.109 62.819L10.828 62.124ZM9.244 59.604L8.30488 59.9476L8.30999 59.9616L8.31552 59.9754L9.244 59.604ZM9.244 53.304L8.31544 52.9326L8.31066 52.945L9.244 53.304ZM10.792 50.82L10.0609 50.1377L10.0601 50.1386L10.792 50.82ZM13.096 49.128L13.523 50.0323L13.5335 50.0272L13.096 49.128ZM17.92 48.66L17.7239 49.6406H17.7239L17.92 48.66ZM19.576 49.164L19.1821 50.0831L19.1897 50.0864L19.1974 50.0895L19.576 49.164ZM22.528 51.036L21.8804 51.7979L22.6517 52.4536L23.2978 51.6742L22.528 51.036ZM26.02 46.824L26.7898 47.4622L27.4196 46.7026L26.6685 46.0628L26.02 46.824ZM24.004 45.348L23.4766 46.1976H23.4766L24.004 45.348ZM19.18 43.62L18.9988 44.6035L19.0134 44.6061L19.0279 44.6084L19.18 43.62ZM10.828 44.412L11.2136 45.3347L11.2252 45.3297L10.828 44.412ZM6.652 47.22L7.35914 47.9271L7.36621 47.9199L6.652 47.22ZM3.88 51.36L2.95939 50.9694L2.9565 50.9764L3.88 51.36ZM6.58 65.76L5.87286 66.4671L5.88022 66.4744L6.58 65.76ZM10.756 68.46L10.3822 69.3875L10.387 69.3894L10.756 68.46ZM22.276 68.28L22.6729 69.1979L22.6787 69.1953L22.276 68.28ZM27.92 65.436V54.492H25.92V65.436H27.92ZM26.92 53.492H15.976V55.492H26.92V53.492ZM14.976 54.492V59.28H16.976V54.492H14.976ZM15.976 60.28H21.556V58.28H15.976V60.28ZM20.556 59.28V62.88H22.556V59.28H20.556ZM20.9761 62.0653C19.7593 62.9315 18.2321 63.392 16.336 63.392V65.392C18.5679 65.392 20.5207 64.8445 22.1359 63.6947L20.9761 62.0653ZM16.336 63.392C15.3232 63.392 14.422 63.22 13.6196 62.8908L12.8604 64.7412C13.93 65.18 15.0928 65.392 16.336 65.392V63.392ZM13.6484 62.9032C12.8531 62.5474 12.1545 62.0574 11.547 61.429L10.109 62.819C10.8935 63.6306 11.8029 64.2686 12.8316 64.7288L13.6484 62.9032ZM11.5591 61.4417C10.9757 60.8167 10.5128 60.0834 10.1725 59.2326L8.31552 59.9754C8.74319 61.0446 9.33629 61.9913 10.0969 62.8063L11.5591 61.4417ZM10.1831 59.2604C9.86721 58.3969 9.704 57.4464 9.704 56.4H7.704C7.704 57.6576 7.90079 58.8431 8.30488 59.9476L10.1831 59.2604ZM9.704 56.4V56.328H7.704V56.4H9.704ZM9.704 56.328C9.704 55.3612 9.86469 54.4759 10.1773 53.663L8.31066 52.945C7.90331 54.0041 7.704 55.1348 7.704 56.328H9.704ZM10.1725 53.6754C10.5147 52.8199 10.9671 52.0995 11.5239 51.5014L10.0601 50.1386C9.32094 50.9325 8.74134 51.8681 8.31552 52.9326L10.1725 53.6754ZM11.5231 51.5023C12.1114 50.872 12.777 50.3845 13.523 50.0322L12.669 48.2238C11.687 48.6875 10.8166 49.328 10.0609 50.1377L11.5231 51.5023ZM13.5335 50.0272C14.2823 49.6629 15.0803 49.48 15.94 49.48V47.48C14.7837 47.48 13.6857 47.729 12.6585 48.2288L13.5335 50.0272ZM15.94 49.48C16.6054 49.48 17.1986 49.5355 17.7239 49.6406L18.1161 47.6794C17.4414 47.5445 16.7146 47.48 15.94 47.48V49.48ZM17.7239 49.6406C18.2637 49.7485 18.7485 49.8973 19.1821 50.0831L19.9699 48.2449C19.3955 47.9987 18.7763 47.8115 18.1161 47.6794L17.7239 49.6406ZM19.1974 50.0895C19.6671 50.2817 20.1154 50.5165 20.543 50.7944L21.633 49.1176C21.1006 48.7715 20.5409 48.4783 19.9546 48.2385L19.1974 50.0895ZM20.543 50.7944C20.9838 51.081 21.4297 51.4149 21.8804 51.7979L23.1756 50.2741C22.6663 49.8411 22.1522 49.455 21.633 49.1176L20.543 50.7944ZM23.2978 51.6742L26.7898 47.4622L25.2502 46.1858L21.7582 50.3978L23.2978 51.6742ZM26.6685 46.0628C25.9839 45.4796 25.2715 44.9578 24.5314 44.4984L23.4766 46.1976C24.1285 46.6022 24.7602 47.0644 25.3715 47.5852L26.6685 46.0628ZM24.5314 44.4984C23.7751 44.029 22.9687 43.6391 22.1137 43.3282L21.4303 45.2078C22.1593 45.4729 22.8409 45.803 23.4766 46.1976L24.5314 44.4984ZM22.1137 43.3282C21.2533 43.0153 20.3249 42.7844 19.3321 42.6316L19.0279 44.6084C19.9071 44.7436 20.7068 44.9447 21.4303 45.2078L22.1137 43.3282ZM19.3612 42.6365C18.3782 42.4555 17.2962 42.368 16.12 42.368V44.368C17.1998 44.368 18.1578 44.4485 18.9988 44.6035L19.3612 42.6365ZM16.12 42.368C14.0765 42.368 12.1757 42.739 10.4308 43.4943L11.2252 45.3297C12.6963 44.693 14.3235 44.368 16.12 44.368V42.368ZM10.4424 43.4893C8.71577 44.2109 7.21084 45.221 5.93779 46.5201L7.36621 47.9199C8.44517 46.819 9.72423 45.9571 11.2136 45.3347L10.4424 43.4893ZM5.94489 46.5129C4.67492 47.7829 3.67982 49.2714 2.95942 50.9695L4.80058 51.7505C5.42418 50.2806 6.27709 49.0091 7.35911 47.9271L5.94489 46.5129ZM2.9565 50.9764C2.25475 52.6658 1.908 54.4771 1.908 56.4H3.908C3.908 54.7229 4.20925 53.1742 4.8035 51.7436L2.9565 50.9764ZM1.908 56.4V56.472H3.908V56.4H1.908ZM1.908 56.472C1.908 58.4616 2.25286 60.3196 2.95445 62.0346L4.80555 61.2774C4.21114 59.8244 3.908 58.2264 3.908 56.472H1.908ZM2.95445 62.0346C3.65015 63.7352 4.62229 65.2165 5.87289 66.4671L7.28711 65.0529C6.23371 63.9995 5.40585 62.7448 4.80555 61.2774L2.95445 62.0346ZM5.88022 66.4744C7.15479 67.7229 8.65919 68.6932 10.3822 69.3875L11.1298 67.5325C9.63681 66.9308 8.35721 66.1011 7.27978 65.0456L5.88022 66.4744ZM10.387 69.3894C12.1498 70.0893 14.0768 70.432 16.156 70.432V68.432C14.2992 68.432 12.6262 68.1266 11.125 67.5306L10.387 69.3894ZM16.156 70.432C18.5709 70.432 20.7501 70.0294 22.6729 69.1979L21.8791 67.3621C20.2499 68.0666 18.3491 68.432 16.156 68.432V70.432ZM22.6787 69.1953C24.5542 68.3701 26.188 67.3732 27.5685 66.1972L26.2715 64.6748C25.06 65.7068 23.5978 66.6059 21.8733 67.3647L22.6787 69.1953ZM54.3945 69V70H56.29L55.2199 68.4354L54.3945 69ZM48.2385 60L47.8889 59.0631L46.6916 59.5098L47.4131 60.5646L48.2385 60ZM52.1265 57.192L51.3371 56.5781L51.3355 56.5801L52.1265 57.192ZM51.1185 45.996L50.4561 46.7452L50.4615 46.7499L51.1185 45.996ZM32.6145 43.8V42.8H31.6145V43.8H32.6145ZM32.6145 69H31.6145V70H32.6145V69ZM38.1585 69V70H39.1585V69H38.1585ZM38.1585 60.936V59.936H37.1585V60.936H38.1585ZM42.5145 60.936L43.3454 60.3796L43.0483 59.936H42.5145V60.936ZM47.9145 69L47.0836 69.5564L47.3806 70H47.9145V69ZM46.9065 55.068L46.2497 54.3139L46.2436 54.3193L46.2375 54.3247L46.9065 55.068ZM38.1585 56.04H37.1585V57.04H38.1585V56.04ZM38.1585 48.804V47.804H37.1585V48.804H38.1585ZM46.8705 49.704L46.2548 50.492L46.8705 49.704ZM55.2199 68.4354L49.0639 59.4354L47.4131 60.5646L53.5691 69.5646L55.2199 68.4354ZM48.5881 60.9369C50.3583 60.2763 51.8117 59.2332 52.9174 57.8039L51.3355 56.5801C50.4732 57.6948 49.3346 58.5237 47.8889 59.0631L48.5881 60.9369ZM52.9158 57.8059C54.0907 56.2954 54.6385 54.3953 54.6385 52.188H52.6385C52.6385 54.0607 52.1782 55.4966 51.3371 56.5781L52.9158 57.8059ZM54.6385 52.188V52.116H52.6385V52.188H54.6385ZM54.6385 52.116C54.6385 49.2664 53.712 46.9296 51.7755 45.2421L50.4615 46.7499C51.885 47.9904 52.6385 49.7336 52.6385 52.116H54.6385ZM51.7808 45.2468C49.8855 43.5712 47.2906 42.8 44.1345 42.8V44.8C46.9784 44.8 49.0395 45.4928 50.4561 46.7452L51.7808 45.2468ZM44.1345 42.8H32.6145V44.8H44.1345V42.8ZM31.6145 43.8V69H33.6145V43.8H31.6145ZM32.6145 70H38.1585V68H32.6145V70ZM39.1585 69V60.936H37.1585V69H39.1585ZM38.1585 61.936H42.5145V59.936H38.1585V61.936ZM41.6836 61.4924L47.0836 69.5564L48.7454 68.4436L43.3454 60.3796L41.6836 61.4924ZM47.9145 70H54.3945V68H47.9145V70ZM47.0225 52.476C47.0225 53.2976 46.7534 53.8752 46.2497 54.3139L47.5633 55.8221C48.5475 54.9648 49.0225 53.8144 49.0225 52.476H47.0225ZM46.2375 54.3247C45.7647 54.7503 44.9969 55.04 43.7745 55.04V57.04C45.2881 57.04 46.6083 56.6817 47.5754 55.8113L46.2375 54.3247ZM43.7745 55.04H38.1585V57.04H43.7745V55.04ZM39.1585 56.04V48.804H37.1585V56.04H39.1585ZM38.1585 49.804H43.6665V47.804H38.1585V49.804ZM43.6665 49.804C44.8996 49.804 45.7214 50.0753 46.2548 50.492L47.4861 48.916C46.4835 48.1327 45.1694 47.804 43.6665 47.804V49.804ZM46.2548 50.492C46.7243 50.8588 47.0225 51.433 47.0225 52.404H49.0225C49.0225 50.975 48.5527 49.7492 47.4861 48.916L46.2548 50.492ZM47.0225 52.404V52.476H49.0225V52.404H47.0225ZM78.1781 69V70H79.1781V69H78.1781ZM78.1781 64.068H79.1781V63.068H78.1781V64.068ZM64.4981 64.068H63.4981V65.068H64.4981V64.068ZM64.4981 58.776V57.776H63.4981V58.776H64.4981ZM76.3781 58.776V59.776H77.3781V58.776H76.3781ZM76.3781 53.844H77.3781V52.844H76.3781V53.844ZM64.4981 53.844H63.4981V54.844H64.4981V53.844ZM64.4981 48.732V47.732H63.4981V48.732H64.4981ZM77.9981 48.732V49.732H78.9981V48.732H77.9981ZM77.9981 43.8H78.9981V42.8H77.9981V43.8ZM58.9901 43.8V42.8H57.9901V43.8H58.9901ZM58.9901 69H57.9901V70H58.9901V69ZM79.1781 69V64.068H77.1781V69H79.1781ZM78.1781 63.068H64.4981V65.068H78.1781V63.068ZM65.4981 64.068V58.776H63.4981V64.068H65.4981ZM64.4981 59.776H76.3781V57.776H64.4981V59.776ZM77.3781 58.776V53.844H75.3781V58.776H77.3781ZM76.3781 52.844H64.4981V54.844H76.3781V52.844ZM65.4981 53.844V48.732H63.4981V53.844H65.4981ZM64.4981 49.732H77.9981V47.732H64.4981V49.732ZM78.9981 48.732V43.8H76.9981V48.732H78.9981ZM77.9981 42.8H58.9901V44.8H77.9981V42.8ZM57.9901 43.8V69H59.9901V43.8H57.9901ZM58.9901 70H78.1781V68H58.9901V70ZM102.655 69V70H103.655V69H102.655ZM102.655 64.068H103.655V63.068H102.655V64.068ZM88.9753 64.068H87.9753V65.068H88.9753V64.068ZM88.9753 58.776V57.776H87.9753V58.776H88.9753ZM100.855 58.776V59.776H101.855V58.776H100.855ZM100.855 53.844H101.855V52.844H100.855V53.844ZM88.9753 53.844H87.9753V54.844H88.9753V53.844ZM88.9753 48.732V47.732H87.9753V48.732H88.9753ZM102.475 48.732V49.732H103.475V48.732H102.475ZM102.475 43.8H103.475V42.8H102.475V43.8ZM83.4673 43.8V42.8H82.4673V43.8H83.4673ZM83.4673 69H82.4673V70H83.4673V69ZM103.655 69V64.068H101.655V69H103.655ZM102.655 63.068H88.9753V65.068H102.655V63.068ZM89.9753 64.068V58.776H87.9753V64.068H89.9753ZM88.9753 59.776H100.855V57.776H88.9753V59.776ZM101.855 58.776V53.844H99.8553V58.776H101.855ZM100.855 52.844H88.9753V54.844H100.855V52.844ZM89.9753 53.844V48.732H87.9753V53.844H89.9753ZM88.9753 49.732H102.475V47.732H88.9753V49.732ZM103.475 48.732V43.8H101.475V48.732H103.475ZM102.475 42.8H83.4673V44.8H102.475V42.8ZM82.4673 43.8V69H84.4673V43.8H82.4673ZM83.4673 70H102.655V68H83.4673V70ZM130.336 69V70H131.336V69H130.336ZM130.336 43.8H131.336V42.8H130.336V43.8ZM124.864 43.8V42.8H123.864V43.8H124.864ZM124.864 59.316L124.069 59.9216L125.864 62.2813V59.316H124.864ZM113.056 43.8L113.852 43.1944L113.552 42.8H113.056V43.8ZM107.944 43.8V42.8H106.944V43.8H107.944ZM107.944 69H106.944V70H107.944V69ZM113.416 69V70H114.416V69H113.416ZM113.416 52.98L114.212 52.374L112.416 50.0171V52.98H113.416ZM125.62 69L124.825 69.606L125.125 70H125.62V69ZM131.336 69V43.8H129.336V69H131.336ZM130.336 42.8H124.864V44.8H130.336V42.8ZM123.864 43.8V59.316H125.864V43.8H123.864ZM125.66 58.7104L113.852 43.1944L112.261 44.4056L124.069 59.9216L125.66 58.7104ZM113.056 42.8H107.944V44.8H113.056V42.8ZM106.944 43.8V69H108.944V43.8H106.944ZM107.944 70H113.416V68H107.944V70ZM114.416 69V52.98H112.416V69H114.416ZM112.621 53.586L124.825 69.606L126.416 68.394L114.212 52.374L112.621 53.586ZM125.62 70H130.336V68H125.62V70ZM171.011 43.8L171.939 44.1725L172.49 42.8H171.011V43.8ZM165.035 43.8V42.8H164.339L164.097 43.452L165.035 43.8ZM158.447 61.548L157.509 61.896L158.447 64.4216L159.384 61.896L158.447 61.548ZM151.859 43.8L152.796 43.452L152.554 42.8H151.859V43.8ZM145.739 43.8V42.8H144.26L144.811 44.1725L145.739 43.8ZM155.927 69.18L154.999 69.5525L155.251 70.18H155.927V69.18ZM160.823 69.18V70.18H161.499L161.751 69.5525L160.823 69.18ZM171.011 42.8H165.035V44.8H171.011V42.8ZM164.097 43.452L157.509 61.2L159.384 61.896L165.972 44.148L164.097 43.452ZM159.384 61.2L152.796 43.452L150.921 44.148L157.509 61.896L159.384 61.2ZM151.859 42.8H145.739V44.8H151.859V42.8ZM144.811 44.1725L154.999 69.5525L156.855 68.8075L146.667 43.4275L144.811 44.1725ZM155.927 70.18H160.823V68.18H155.927V70.18ZM161.751 69.5525L171.939 44.1725L170.083 43.4275L159.895 68.8075L161.751 69.5525ZM181.055 69V70H182.055V69H181.055ZM181.055 43.8H182.055V42.8H181.055V43.8ZM175.511 43.8V42.8H174.511V43.8H175.511ZM175.511 69H174.511V70H175.511V69ZM182.055 69V43.8H180.055V69H182.055ZM181.055 42.8H175.511V44.8H181.055V42.8ZM174.511 43.8V69H176.511V43.8H174.511ZM175.511 70H181.055V68H175.511V70ZM205.821 69V70H206.821V69H205.821ZM205.821 63.96H206.821V62.96H205.821V63.96ZM193.257 63.96H192.257V64.96H193.257V63.96ZM193.257 43.8H194.257V42.8H193.257V43.8ZM187.713 43.8V42.8H186.713V43.8H187.713ZM187.713 69H186.713V70H187.713V69ZM206.821 69V63.96H204.821V69H206.821ZM205.821 62.96H193.257V64.96H205.821V62.96ZM194.257 63.96V43.8H192.257V63.96H194.257ZM193.257 42.8H187.713V44.8H193.257V42.8ZM186.713 43.8V69H188.713V43.8H186.713ZM187.713 70H205.821V68H187.713V70ZM228.47 69V70H229.47V69H228.47ZM228.47 63.96H229.47V62.96H228.47V63.96ZM215.906 63.96H214.906V64.96H215.906V63.96ZM215.906 43.8H216.906V42.8H215.906V43.8ZM210.362 43.8V42.8H209.362V43.8H210.362ZM210.362 69H209.362V70H210.362V69ZM229.47 69V63.96H227.47V69H229.47ZM228.47 62.96H215.906V64.96H228.47V62.96ZM216.906 63.96V43.8H214.906V63.96H216.906ZM215.906 42.8H210.362V44.8H215.906V42.8ZM209.362 43.8V69H211.362V43.8H209.362ZM210.362 70H228.47V68H210.362V70ZM257.563 69V70H259.075L258.483 68.6084L257.563 69ZM246.763 43.62L247.683 43.2284L247.424 42.62H246.763V43.62ZM241.651 43.62V42.62H240.989L240.731 43.2284L241.651 43.62ZM230.851 69L229.931 68.6084L229.338 70H230.851V69ZM236.503 69V70H237.175L237.429 69.3775L236.503 69ZM238.807 63.348V62.348H238.134L237.881 62.9705L238.807 63.348ZM249.463 63.348L250.389 62.9705L250.135 62.348H249.463V63.348ZM251.767 69L250.841 69.3775L251.094 70H251.767V69ZM247.483 58.452V59.452H248.973L248.408 58.0729L247.483 58.452ZM240.787 58.452L239.861 58.0729L239.296 59.452H240.787V58.452ZM244.135 50.28L245.06 49.9009L244.135 47.6422L243.209 49.9009L244.135 50.28ZM258.483 68.6084L247.683 43.2284L245.843 44.0116L256.643 69.3916L258.483 68.6084ZM246.763 42.62H241.651V44.62H246.763V42.62ZM240.731 43.2284L229.931 68.6084L231.771 69.3916L242.571 44.0116L240.731 43.2284ZM230.851 70H236.503V68H230.851V70ZM237.429 69.3775L239.733 63.7255L237.881 62.9705L235.577 68.6225L237.429 69.3775ZM238.807 64.348H249.463V62.348H238.807V64.348ZM248.537 63.7255L250.841 69.3775L252.693 68.6225L250.389 62.9705L248.537 63.7255ZM251.767 70H257.563V68H251.767V70ZM247.483 57.452H240.787V59.452H247.483V57.452ZM241.712 58.8311L245.06 50.6591L243.209 49.9009L239.861 58.0729L241.712 58.8311ZM243.209 50.6591L246.557 58.8311L248.408 58.0729L245.06 49.9009L243.209 50.6591ZM279.488 58.632L278.568 59.0225L278.573 59.0342L278.578 59.0458L279.488 58.632ZM277.94 56.58L277.274 57.3259L277.288 57.3384L277.303 57.3504L277.94 56.58ZM275.42 55.068L275.018 55.9836L275.031 55.9895L275.045 55.9949L275.42 55.068ZM272.036 53.916L271.778 54.8822L271.781 54.8828L272.036 53.916ZM269.336 53.16L269.04 54.1151L269.049 54.1178L269.336 53.16ZM267.68 52.476L268.187 51.6141L267.68 52.476ZM266.816 51.684L265.908 52.1031L265.928 52.1465L265.952 52.1879L266.816 51.684ZM267.392 48.984L268.004 49.7753L268.008 49.7715L267.392 48.984ZM273.08 49.02L272.691 49.9412L272.7 49.9449L272.709 49.9485L273.08 49.02ZM276.392 50.82L275.829 51.6466L276.651 52.206L277.215 51.3877L276.392 50.82ZM279.272 46.644L280.095 47.2117L280.625 46.4432L279.895 45.8617L279.272 46.644ZM274.988 44.268L274.65 45.2091L274.655 45.2107L274.988 44.268ZM266.348 43.98L266.032 43.0313L266.348 43.98ZM263.54 45.528L262.893 44.7655L262.887 44.7704L262.882 44.7754L263.54 45.528ZM261.74 47.94L262.644 48.3681L262.648 48.3591L261.74 47.94ZM261.668 54.24L260.759 54.6558L260.763 54.6664L260.769 54.6769L261.668 54.24ZM263.36 56.364L262.735 57.1449L262.743 57.1513L262.752 57.1576L263.36 56.364ZM265.988 57.768L265.639 58.7052L265.988 57.768ZM269.444 58.812L269.687 57.8418L269.682 57.8408L269.444 58.812ZM272 59.568L271.653 60.5058L271.664 60.5097L272 59.568ZM273.548 60.288L272.993 61.12L273.006 61.1282L273.018 61.136L273.548 60.288ZM274.304 61.08L273.381 61.4646L273.401 61.5129L273.426 61.5588L274.304 61.08ZM273.548 63.852L274.095 64.689L274.103 64.6841L273.548 63.852ZM266.888 63.636L266.47 64.5445L266.477 64.5476L266.888 63.636ZM263.36 61.404L263.991 60.6279L263.225 60.0056L262.592 60.7631L263.36 61.404ZM260.084 65.328L259.316 64.6871L258.701 65.4248L259.413 66.0695L260.084 65.328ZM265.124 68.388L264.782 69.3279L264.793 69.3317L265.124 68.388ZM274.52 68.856L274.806 69.8144L274.815 69.8116L274.824 69.8087L274.52 68.856ZM277.436 67.344L278.058 68.1271L278.065 68.1216L278.072 68.1159L277.436 67.344ZM279.344 64.896L280.247 65.3251L280.251 65.3165L279.344 64.896ZM281.028 61.548V61.476H279.028V61.548H281.028ZM281.028 61.476C281.028 60.2663 280.831 59.1701 280.398 58.2182L278.578 59.0458C278.865 59.6779 279.028 60.4777 279.028 61.476H281.028ZM280.409 58.2415C280.007 57.2946 279.391 56.4824 278.578 55.8096L277.303 57.3504C277.882 57.8295 278.297 58.3854 278.568 59.0225L280.409 58.2415ZM278.606 55.8341C277.833 55.1434 276.889 54.5835 275.795 54.1411L275.045 55.9949C275.968 56.3685 276.704 56.8166 277.274 57.3259L278.606 55.8341ZM275.822 54.1524C274.782 53.6955 273.603 53.2956 272.292 52.9492L271.781 54.8828C273.013 55.2084 274.091 55.5765 275.018 55.9836L275.822 54.1524ZM272.294 52.9498C271.219 52.6633 270.33 52.4142 269.623 52.2022L269.049 54.1178C269.782 54.3378 270.693 54.5927 271.778 54.8822L272.294 52.9498ZM269.633 52.2049C268.975 52.0009 268.503 51.8 268.187 51.6141L267.173 53.3379C267.673 53.632 268.305 53.8871 269.04 54.1151L269.633 52.2049ZM268.187 51.6141C267.868 51.4265 267.733 51.271 267.68 51.1801L265.952 52.1879C266.235 52.673 266.676 53.0455 267.173 53.3379L268.187 51.6141ZM267.724 51.2649C267.651 51.1066 267.6 50.8941 267.6 50.604H265.6C265.6 51.1299 265.693 51.6374 265.908 52.1031L267.724 51.2649ZM267.6 50.604V50.532H265.6V50.604H267.6ZM267.6 50.532C267.6 50.2417 267.701 50.0091 268.004 49.7753L266.781 48.1927C266.027 48.7749 265.6 49.5743 265.6 50.532H267.6ZM268.008 49.7715C268.312 49.534 268.869 49.336 269.84 49.336V47.336C268.651 47.336 267.576 47.57 266.776 48.1965L268.008 49.7715ZM269.84 49.336C270.775 49.336 271.724 49.5327 272.691 49.9412L273.469 48.0988C272.277 47.5953 271.065 47.336 269.84 47.336V49.336ZM272.709 49.9485C273.711 50.3494 274.751 50.9126 275.829 51.6466L276.955 49.9934C275.777 49.1914 274.609 48.5546 273.452 48.0915L272.709 49.9485ZM277.215 51.3877L280.095 47.2117L278.449 46.0763L275.569 50.2523L277.215 51.3877ZM279.895 45.8617C278.512 44.7606 276.987 43.9144 275.322 43.3253L274.655 45.2107C276.11 45.7256 277.44 46.4634 278.649 47.4263L279.895 45.8617ZM275.326 43.3269C273.668 42.7311 271.86 42.44 269.912 42.44V44.44C271.66 44.44 273.236 44.7009 274.65 45.2091L275.326 43.3269ZM269.912 42.44C268.523 42.44 267.227 42.633 266.032 43.0313L266.664 44.9287C267.629 44.607 268.709 44.44 269.912 44.44V42.44ZM266.032 43.0313C264.842 43.4278 263.791 44.0033 262.893 44.7655L264.187 46.2905C264.873 45.7087 265.694 45.2522 266.664 44.9287L266.032 43.0313ZM262.882 44.7754C262.007 45.5408 261.322 46.4588 260.832 47.5209L262.648 48.3591C263.022 47.5492 263.537 46.8592 264.199 46.2806L262.882 44.7754ZM260.836 47.5119C260.333 48.5755 260.092 49.7569 260.092 51.036H262.092C262.092 50.0111 262.284 49.1285 262.644 48.3681L260.836 47.5119ZM260.092 51.036V51.108H262.092V51.036H260.092ZM260.092 51.108C260.092 52.4518 260.298 53.6479 260.759 54.6558L262.578 53.8242C262.27 53.1521 262.092 52.2602 262.092 51.108H260.092ZM260.769 54.6769C261.241 55.6488 261.898 56.4748 262.735 57.1449L263.985 55.5831C263.382 55.1012 262.912 54.5112 262.568 53.8031L260.769 54.6769ZM262.752 57.1576C263.565 57.7814 264.533 58.2937 265.639 58.7052L266.337 56.8308C265.379 56.4743 264.595 56.0506 263.969 55.5704L262.752 57.1576ZM265.639 58.7052C266.714 59.1049 267.903 59.4637 269.206 59.7832L269.682 57.8408C268.441 57.5363 267.327 57.1991 266.337 56.8308L265.639 58.7052ZM269.202 59.7821C270.24 60.0417 271.053 60.2835 271.653 60.5057L272.347 58.6302C271.651 58.3725 270.76 58.1103 269.687 57.8419L269.202 59.7821ZM271.664 60.5097C272.302 60.7375 272.731 60.9451 272.993 61.12L274.103 59.4559C273.645 59.1509 273.043 58.8785 272.336 58.6263L271.664 60.5097ZM273.018 61.136C273.302 61.3135 273.369 61.4369 273.381 61.4646L275.227 60.6954C274.999 60.1471 274.562 59.7425 274.078 59.44L273.018 61.136ZM273.426 61.5588C273.476 61.6496 273.52 61.7904 273.52 62.016H275.52C275.52 61.5216 275.421 61.0384 275.182 60.6012L273.426 61.5588ZM273.52 62.016V62.088H275.52V62.016H273.52ZM273.52 62.088C273.52 62.4794 273.379 62.763 272.993 63.02L274.103 64.6841C275.013 64.077 275.52 63.1846 275.52 62.088H273.52ZM273.001 63.015C272.606 63.2734 271.94 63.464 270.884 63.464V65.464C272.132 65.464 273.242 65.2466 274.095 64.689L273.001 63.015ZM270.884 63.464C269.575 63.464 268.385 63.214 267.299 62.7244L266.477 64.5476C267.839 65.162 269.313 65.464 270.884 65.464V63.464ZM267.306 62.7275C266.191 62.2146 265.086 61.5174 263.991 60.6279L262.73 62.1801C263.939 63.1626 265.185 63.9534 266.47 64.5445L267.306 62.7275ZM262.592 60.7631L259.316 64.6871L260.852 65.9689L264.128 62.0449L262.592 60.7631ZM259.413 66.0695C261.017 67.521 262.808 68.61 264.782 69.3278L265.466 67.4482C263.744 66.822 262.175 65.871 260.755 64.5865L259.413 66.0695ZM264.793 69.3317C266.745 70.0162 268.741 70.36 270.776 70.36V68.36C268.971 68.36 267.199 68.0558 265.455 67.4443L264.793 69.3317ZM270.776 70.36C272.225 70.36 273.571 70.182 274.806 69.8144L274.235 67.8976C273.213 68.202 272.063 68.36 270.776 68.36V70.36ZM274.824 69.8087C276.052 69.4168 277.135 68.8599 278.058 68.1271L276.814 66.5609C276.105 67.1241 275.244 67.5752 274.216 67.9033L274.824 69.8087ZM278.072 68.1159C279.002 67.3501 279.729 66.4169 280.247 65.3251L278.441 64.4669C278.047 65.2951 277.503 65.9939 276.8 66.5721L278.072 68.1159ZM280.251 65.3165C280.777 64.1822 281.028 62.9194 281.028 61.548H279.028C279.028 62.6726 278.823 63.6418 278.437 64.4755L280.251 65.3165Z" fill="#4AB587"/>
</svg>
