<svg width="320" height="80" viewBox="0 0 320 80" fill="none" xmlns="http://www.w3.org/2000/svg">
<path d="M13.84 30.2L12.9156 30.5815L13.1709 31.2H13.84V30.2ZM2.2 2V0.999998H0.705395L1.27565 2.38154L2.2 2ZM7.64 2L8.57096 1.63488L8.32197 0.999998H7.64V2ZM16.08 23.52L15.149 23.8851L16.0822 26.2645L17.0115 23.8836L16.08 23.52ZM24.48 2V0.999998H23.7969L23.5485 1.63638L24.48 2ZM29.8 2L30.7248 2.38042L31.2926 0.999998H29.8V2ZM18.2 30.2V31.2H18.87L19.1248 30.5804L18.2 30.2ZM14.7644 29.8185L3.12435 1.61846L1.27565 2.38154L12.9156 30.5815L14.7644 29.8185ZM2.2 3H7.64V0.999998H2.2V3ZM6.70904 2.36512L15.149 23.8851L17.011 23.1549L8.57096 1.63488L6.70904 2.36512ZM17.0115 23.8836L25.4115 2.36361L23.5485 1.63638L15.1485 23.1564L17.0115 23.8836ZM24.48 3H29.8V0.999998H24.48V3ZM28.8752 1.61958L17.2752 29.8196L19.1248 30.5804L30.7248 2.38042L28.8752 1.61958ZM18.2 29.2H13.84V31.2H18.2V29.2ZM35.28 30H34.28V31H35.28V30ZM35.28 2V0.999998H34.28V2H35.28ZM40.2 2H41.2V0.999998H40.2V2ZM40.2 30V31H41.2V30H40.2ZM36.28 30V2H34.28V30H36.28ZM35.28 3H40.2V0.999998H35.28V3ZM39.2 2V30H41.2V2H39.2ZM40.2 29H35.28V31H40.2V29ZM48.0953 30H47.0953V31H48.0953V30ZM48.0953 2V0.999998H47.0953V2H48.0953ZM52.6553 2L53.4458 1.38753L53.1455 0.999998H52.6553V2ZM67.6553 21.36L66.8648 21.9725L68.6553 24.2834V21.36H67.6553ZM67.6553 2V0.999998H66.6553V2H67.6553ZM72.4953 2H73.4953V0.999998H72.4953V2ZM72.4953 30V31H73.4953V30H72.4953ZM68.3753 30L67.5849 30.6126L67.8852 31H68.3753V30ZM52.9353 10.08L53.7257 9.46738L51.9353 7.15751V10.08H52.9353ZM52.9353 30V31H53.9353V30H52.9353ZM49.0953 30V2H47.0953V30H49.0953ZM48.0953 3H52.6553V0.999998H48.0953V3ZM51.8648 2.61247L66.8648 21.9725L68.4458 20.7475L53.4458 1.38753L51.8648 2.61247ZM68.6553 21.36V2H66.6553V21.36H68.6553ZM67.6553 3H72.4953V0.999998H67.6553V3ZM71.4953 2V30H73.4953V2H71.4953ZM72.4953 29H68.3753V31H72.4953V29ZM69.1657 29.3874L53.7257 9.46738L52.1449 10.6926L67.5849 30.6126L69.1657 29.3874ZM51.9353 10.08V30H53.9353V10.08H51.9353ZM52.9353 29H48.0953V31H52.9353V29ZM80.0969 30H79.0969V31H80.0969V30ZM80.0969 2V0.999998H79.0969V2H80.0969ZM85.0169 2H86.0169V0.999998H85.0169V2ZM85.0169 13.64H84.0169V14.64H85.0169V13.64ZM98.3769 13.64V14.64H99.3769V13.64H98.3769ZM98.3769 2V0.999998H97.3769V2H98.3769ZM103.297 2H104.297V0.999998H103.297V2ZM103.297 30V31H104.297V30H103.297ZM98.3769 30H97.3769V31H98.3769V30ZM98.3769 18.2H99.3769V17.2H98.3769V18.2ZM85.0169 18.2V17.2H84.0169V18.2H85.0169ZM85.0169 30V31H86.0169V30H85.0169ZM81.0969 30V2H79.0969V30H81.0969ZM80.0969 3H85.0169V0.999998H80.0969V3ZM84.0169 2V13.64H86.0169V2H84.0169ZM85.0169 14.64H98.3769V12.64H85.0169V14.64ZM99.3769 13.64V2H97.3769V13.64H99.3769ZM98.3769 3H103.297V0.999998H98.3769V3ZM102.297 2V30H104.297V2H102.297ZM103.297 29H98.3769V31H103.297V29ZM99.3769 30V18.2H97.3769V30H99.3769ZM98.3769 17.2H85.0169V19.2H98.3769V17.2ZM84.0169 18.2V30H86.0169V18.2H84.0169ZM85.0169 29H80.0969V31H85.0169V29ZM111.97 26.24L111.256 26.9402L111.256 26.9403L111.97 26.24ZM112.01 5.8L111.296 5.09959L111.296 5.09972L112.01 5.8ZM133.09 5.76L133.804 5.05979L133.803 5.05966L133.09 5.76ZM133.05 26.2L133.763 26.9004L133.764 26.9003L133.05 26.2ZM129.37 23.04L128.637 22.3591L128.633 22.3643L129.37 23.04ZM129.33 8.96L128.593 9.6362L128.598 9.64123L129.33 8.96ZM115.69 8.92L114.958 8.23877L114.957 8.23915L115.69 8.92ZM115.73 23L114.998 23.6812L114.998 23.6816L115.73 23ZM112.684 25.5398C110.153 22.9595 108.89 19.8268 108.89 16.08H106.89C106.89 20.3332 108.346 23.9738 111.256 26.9402L112.684 25.5398ZM108.89 16.08V16H106.89V16.08H108.89ZM108.89 16C108.89 12.2561 110.164 9.10922 112.724 6.50027L111.296 5.09972C108.362 8.09078 106.89 11.7439 106.89 16H108.89ZM112.723 6.5004C115.323 3.85126 118.58 2.52 122.57 2.52V0.52C118.079 0.52 114.296 2.04207 111.296 5.09959L112.723 6.5004ZM122.57 2.52C126.562 2.52 129.805 3.83989 132.376 6.46034L133.803 5.05966C130.828 2.02678 127.057 0.52 122.57 0.52V2.52ZM132.376 6.46021C134.906 9.04049 136.17 12.1732 136.17 15.92H138.17C138.17 11.6668 136.713 8.02618 133.804 5.05979L132.376 6.46021ZM136.17 15.92V16H138.17V15.92H136.17ZM136.17 16C136.17 19.7439 134.895 22.8908 132.336 25.4997L133.764 26.9003C136.698 23.9092 138.17 20.2561 138.17 16H136.17ZM132.336 25.4996C129.736 28.1487 126.479 29.48 122.49 29.48V31.48C126.98 31.48 130.763 29.9579 133.763 26.9004L132.336 25.4996ZM122.49 29.48C118.497 29.48 115.255 28.1601 112.683 25.5397L111.256 26.9403C114.232 29.9732 118.002 31.48 122.49 31.48V29.48ZM130.102 23.7208C132.046 21.6302 133.01 19.0619 133.01 16.08H131.01C131.01 18.5914 130.214 20.6631 128.637 22.3592L130.102 23.7208ZM133.01 16.08V16H131.01V16.08H133.01ZM133.01 16C133.01 12.9898 132.031 10.3952 130.062 8.27877L128.598 9.64123C130.202 11.3648 131.01 13.4635 131.01 16H133.01ZM130.066 8.28382C128.08 6.11952 125.527 5.04 122.49 5.04V7.04C124.999 7.04 127.006 7.90714 128.593 9.63618L130.066 8.28382ZM122.49 5.04C119.48 5.04 116.943 6.1049 114.958 8.23877L116.422 9.60123C118.009 7.8951 120.006 7.04 122.49 7.04V5.04ZM114.957 8.23915C113.012 10.3317 112.05 12.9142 112.05 15.92H114.05C114.05 13.3791 114.847 11.2949 116.422 9.60085L114.957 8.23915ZM112.05 15.92V16H114.05V15.92H112.05ZM112.05 16C112.05 18.9863 113.03 21.5668 114.998 23.6812L116.462 22.3188C114.856 20.5932 114.05 18.507 114.05 16H112.05ZM114.998 23.6816C117.007 25.8387 119.556 26.92 122.57 26.92V24.92C120.09 24.92 118.079 24.0547 116.461 22.3184L114.998 23.6816ZM122.57 26.92C125.603 26.92 128.144 25.8569 130.107 23.7157L128.633 22.3643C127.075 24.0631 125.083 24.92 122.57 24.92V26.92ZM143.514 30H142.514V31H143.514V30ZM143.514 2V0.999998H142.514V2H143.514ZM148.754 2L149.595 1.45886L149.3 0.999998H148.754V2ZM157.274 15.24L156.433 15.7811L157.274 17.0879L158.115 15.7811L157.274 15.24ZM165.794 2V0.999998H165.248L164.953 1.45886L165.794 2ZM171.034 2H172.034V0.999998H171.034V2ZM171.034 30V31H172.034V30H171.034ZM166.114 30H165.114V31H166.114V30ZM166.114 9.92H167.114V6.62965L165.283 9.36356L166.114 9.92ZM157.274 23.12V24.12H157.808L158.105 23.6764L157.274 23.12ZM157.114 23.12L156.282 23.6753L156.579 24.12H157.114V23.12ZM148.354 10L149.186 9.44471L147.354 6.70141V10H148.354ZM148.354 30V31H149.354V30H148.354ZM144.514 30V2H142.514V30H144.514ZM143.514 3H148.754V0.999998H143.514V3ZM147.913 2.54114L156.433 15.7811L158.115 14.6989L149.595 1.45886L147.913 2.54114ZM158.115 15.7811L166.635 2.54114L164.953 1.45886L156.433 14.6989L158.115 15.7811ZM165.794 3H171.034V0.999998H165.794V3ZM170.034 2V30H172.034V2H170.034ZM171.034 29H166.114V31H171.034V29ZM167.114 30V9.92H165.114V30H167.114ZM165.283 9.36356L156.443 22.5636L158.105 23.6764L166.945 10.4764L165.283 9.36356ZM157.274 22.12H157.114V24.12H157.274V22.12ZM157.946 22.5647L149.186 9.44471L147.522 10.5553L156.282 23.6753L157.946 22.5647ZM147.354 10V30H149.354V10H147.354ZM148.354 29H143.514V31H148.354V29ZM178.641 30H177.641V31H178.641V30ZM178.641 2V0.999998H177.641V2H178.641ZM199.401 2H200.401V0.999998H199.401V2ZM199.401 6.4V7.4H200.401V6.4H199.401ZM183.561 6.4V5.4H182.561V6.4H183.561ZM183.561 13.68H182.561V14.68H183.561V13.68ZM197.601 13.68H198.601V12.68H197.601V13.68ZM197.601 18.08V19.08H198.601V18.08H197.601ZM183.561 18.08V17.08H182.561V18.08H183.561ZM183.561 25.6H182.561V26.6H183.561V25.6ZM199.601 25.6H200.601V24.6H199.601V25.6ZM199.601 30V31H200.601V30H199.601ZM179.641 30V2H177.641V30H179.641ZM178.641 3H199.401V0.999998H178.641V3ZM198.401 2V6.4H200.401V2H198.401ZM199.401 5.4H183.561V7.4H199.401V5.4ZM182.561 6.4V13.68H184.561V6.4H182.561ZM183.561 14.68H197.601V12.68H183.561V14.68ZM196.601 13.68V18.08H198.601V13.68H196.601ZM197.601 17.08H183.561V19.08H197.601V17.08ZM182.561 18.08V25.6H184.561V18.08H182.561ZM183.561 26.6H199.601V24.6H183.561V26.6ZM198.601 25.6V30H200.601V25.6H198.601ZM199.601 29H178.641V31H199.601V29ZM203.958 25.92L203.192 25.2764L202.566 26.021L203.293 26.6674L203.958 25.92ZM206.917 22.4L207.569 21.6412L206.802 20.9832L206.152 21.7564L206.917 22.4ZM219.398 25.04L218.809 24.2313L218.805 24.2343L219.398 25.04ZM219.518 20L220.109 19.1936L220.102 19.1882L220.094 19.183L219.518 20ZM214.398 18.16L214.159 19.1311L214.17 19.1337L214.398 18.16ZM207.518 15.36L208.142 14.5791L208.136 14.5741L207.518 15.36ZM207.758 3.84L207.116 3.07269L207.11 3.07834L207.758 3.84ZM224.798 5.12L225.613 5.69875L226.159 4.92887L225.422 4.33913L224.798 5.12ZM222.158 8.84L221.561 9.64297L222.382 10.2518L222.973 9.41875L222.158 8.84ZM211.198 6.92L210.597 6.11995L210.589 6.12639L211.198 6.92ZM211.318 11.88L210.746 12.7005L210.757 12.7083L211.318 11.88ZM216.678 13.76L216.912 12.7879L216.911 12.7876L216.678 13.76ZM223.398 16.64L224.056 15.8874L224.05 15.882L224.043 15.8766L223.398 16.64ZM222.838 28.2L222.206 27.4246L222.203 27.4271L222.838 28.2ZM204.723 26.5636L207.683 23.0436L206.152 21.7564L203.192 25.2764L204.723 26.5636ZM206.266 23.1588C209.234 25.7062 212.403 27.04 215.758 27.04V25.04C212.978 25.04 210.255 23.9471 207.569 21.6412L206.266 23.1588ZM215.758 27.04C217.417 27.04 218.86 26.6762 219.99 25.8457L218.805 24.2343C218.121 24.7372 217.138 25.04 215.758 25.04V27.04ZM219.986 25.8487C221.11 25.0308 221.717 23.897 221.717 22.52H219.717C219.717 23.223 219.445 23.7692 218.809 24.2313L219.986 25.8487ZM221.717 22.52V22.44H219.717V22.52H221.717ZM221.717 22.44C221.717 21.0995 221.18 19.9791 220.109 19.1936L218.926 20.8064C219.455 21.1943 219.717 21.7005 219.717 22.44H221.717ZM220.094 19.183C219.014 18.4204 217.135 17.7737 214.625 17.1863L214.17 19.1337C216.673 19.7197 218.208 20.2996 218.941 20.817L220.094 19.183ZM214.636 17.1889C211.414 16.3965 209.298 15.5042 208.142 14.5791L206.893 16.1409C208.403 17.3492 210.874 18.3235 214.159 19.1311L214.636 17.1889ZM208.136 14.5741C206.793 13.5176 206.077 11.9794 206.077 9.8H204.077C204.077 12.4739 204.988 14.6424 206.899 16.1459L208.136 14.5741ZM206.077 9.8V9.72H204.077V9.8H206.077ZM206.077 9.72C206.077 7.60541 206.848 5.92666 208.405 4.60166L207.11 3.07834C205.094 4.79334 204.077 7.03459 204.077 9.72H206.077ZM208.399 4.60728C209.971 3.29323 212.022 2.6 214.637 2.6V0.599998C211.653 0.599998 209.117 1.4001 207.116 3.07272L208.399 4.60728ZM214.637 2.6C218.256 2.6 221.421 3.69944 224.173 5.90087L225.422 4.33913C222.307 1.84723 218.699 0.599998 214.637 0.599998V2.6ZM223.982 4.54125L221.342 8.26125L222.973 9.41875L225.613 5.69875L223.982 4.54125ZM222.754 8.03703C220.046 6.02736 217.309 4.96 214.558 4.96V6.96C216.766 6.96 219.096 7.81264 221.561 9.64297L222.754 8.03703ZM214.558 4.96C213.02 4.96 211.67 5.31594 210.598 6.12L211.798 7.72C212.432 7.24406 213.322 6.96 214.558 6.96V4.96ZM210.589 6.12639C209.557 6.91794 208.997 7.99127 208.997 9.28H210.997C210.997 8.64873 211.238 8.14873 211.806 7.71361L210.589 6.12639ZM208.997 9.28V9.36H210.997V9.28H208.997ZM208.997 9.36C208.997 10.7559 209.599 11.9013 210.746 12.7004L211.889 11.0596C211.276 10.632 210.997 10.0974 210.997 9.36H208.997ZM210.757 12.7083C211.832 13.4353 213.785 14.0942 216.444 14.7324L216.911 12.7876C214.237 12.1458 212.616 11.5514 211.878 11.0517L210.757 12.7083ZM216.443 14.7321C219.483 15.4658 221.542 16.3801 222.752 17.4034L224.043 15.8766C222.479 14.5532 220.059 13.5475 216.912 12.7879L216.443 14.7321ZM222.739 17.3926C223.986 18.4837 224.638 19.9669 224.638 21.96H226.638C226.638 19.4731 225.796 17.4096 224.056 15.8874L222.739 17.3926ZM224.638 21.96V22.04H226.638V21.96H224.638ZM224.638 22.04C224.638 24.3516 223.82 26.1101 222.206 27.4246L223.469 28.9754C225.588 27.2499 226.638 24.9018 226.638 22.04H224.638ZM222.203 27.4271C220.643 28.7074 218.491 29.4 215.637 29.4V31.4C218.811 31.4 221.458 30.626 223.472 28.9729L222.203 27.4271ZM215.637 29.4C211.46 29.4 207.802 27.9993 204.622 25.1726L203.293 26.6674C206.833 29.814 210.962 31.4 215.637 31.4V29.4ZM7.32 74.32L6.60241 75.0165L6.60606 75.0202L7.32 74.32ZM7.4 53.8L6.6829 53.103L6.6793 53.1068L7.4 53.8ZM28.56 53.32L29.3262 53.9626L29.9624 53.204L29.2102 52.5603L28.56 53.32ZM25.44 57.04L24.7913 57.8011L25.5585 58.4549L26.2062 57.6826L25.44 57.04ZM11.12 56.96L10.3782 56.2894L10.3777 56.2899L11.12 56.96ZM11.12 71.16L10.3872 71.8405L10.3927 71.8463L11.12 71.16ZM24.8 71.88L25.3982 72.6814L25.8 72.3814V71.88H24.8ZM24.8 66.64H25.8V65.64H24.8V66.64ZM17.64 66.64H16.64V67.64H17.64V66.64ZM17.64 62.36V61.36H16.64V62.36H17.64ZM29.56 62.36H30.56V61.36H29.56V62.36ZM29.56 74.12L30.2113 74.8788L30.56 74.5795V74.12H29.56ZM8.03758 73.6235C5.59464 71.1066 4.36 67.9504 4.36 64.08H2.36C2.36 68.4229 3.76536 72.0934 6.60242 75.0165L8.03758 73.6235ZM4.36 64.08V64H2.36V64.08H4.36ZM4.36 64C4.36 60.25 5.61238 57.1009 8.1207 54.4932L6.6793 53.1068C3.80096 56.0991 2.36 59.75 2.36 64H4.36ZM8.11709 54.497C10.6928 51.847 13.8964 50.52 17.8 50.52V48.52C13.3836 48.52 9.6539 50.0463 6.68291 53.103L8.11709 54.497ZM17.8 50.52C21.7958 50.52 25.1462 51.7146 27.9098 54.0797L29.2102 52.5603C26.0538 49.8588 22.2308 48.52 17.8 48.52V50.52ZM27.7938 52.6774L24.6738 56.3974L26.2062 57.6826L29.3262 53.9626L27.7938 52.6774ZM26.0887 56.2789C23.5749 54.1365 20.7353 53.04 17.6 53.04V55.04C20.2247 55.04 22.6118 55.9435 24.7913 57.8011L26.0887 56.2789ZM17.6 53.04C14.7493 53.04 12.3224 54.139 10.3782 56.2894L11.8618 57.6306C13.4376 55.8877 15.3307 55.04 17.6 55.04V53.04ZM10.3777 56.2899C8.46937 58.4038 7.52 60.9664 7.52 63.92H9.52C9.52 61.4336 10.304 59.3562 11.8623 57.6301L10.3777 56.2899ZM7.52 63.92V64H9.52V63.92H7.52ZM7.52 64C7.52 67.1208 8.45774 69.7626 10.3872 71.8405L11.8528 70.4795C10.3156 68.8241 9.52 66.6925 9.52 64H7.52ZM10.3927 71.8463C12.3856 73.9582 14.9644 75 18.04 75V73C15.4623 73 13.4277 72.1485 11.8473 70.4737L10.3927 71.8463ZM18.04 75C20.8448 75 23.3137 74.2374 25.3982 72.6814L24.2018 71.0786C22.4996 72.3493 20.4618 73 18.04 73V75ZM25.8 71.88V66.64H23.8V71.88H25.8ZM24.8 65.64H17.64V67.64H24.8V65.64ZM18.64 66.64V62.36H16.64V66.64H18.64ZM17.64 63.36H29.56V61.36H17.64V63.36ZM28.56 62.36V74.12H30.56V62.36H28.56ZM28.9087 73.3612C25.7005 76.1147 22.0373 77.48 17.88 77.48V79.48C22.5227 79.48 26.6462 77.9387 30.2113 74.8788L28.9087 73.3612ZM17.88 77.48C13.7955 77.48 10.5439 76.179 8.03394 73.6198L6.60606 75.0202C9.53609 78.0077 13.3245 79.48 17.88 79.48V77.48ZM36.3672 78H35.3672V79H36.3672V78ZM36.3672 50V49H35.3672V50H36.3672ZM56.9272 52.8L57.6403 52.099L57.6348 52.0934L57.6293 52.0879L56.9272 52.8ZM52.6072 67.4L52.3241 66.4409L50.9782 66.8382L51.793 67.9807L52.6072 67.4ZM60.1672 78V79H62.1087L60.9813 77.4193L60.1672 78ZM54.3272 78L53.5098 78.5762L53.8086 79H54.3272V78ZM47.4472 68.24L48.2645 67.6638L47.9658 67.24H47.4472V68.24ZM41.2872 68.24V67.24H40.2872V68.24H41.2872ZM41.2872 78V79H42.2872V78H41.2872ZM41.2872 63.88H40.2872V64.88H41.2872V63.88ZM52.6872 62.6L53.3215 63.3731L53.3274 63.3683L53.3331 63.3634L52.6872 62.6ZM41.2872 54.48V53.48H40.2872V54.48H41.2872ZM37.3672 78V50H35.3672V78H37.3672ZM36.3672 51H48.8472V49H36.3672V51ZM48.8472 51C52.1632 51 54.572 51.8823 56.2251 53.5121L57.6293 52.0879C55.4957 49.9844 52.5178 49 48.8472 49V51ZM56.2141 53.501C57.5555 54.8657 58.2472 56.6168 58.2472 58.84H60.2472C60.2472 56.1565 59.3922 53.881 57.6403 52.099L56.2141 53.501ZM58.2472 58.84V58.92H60.2472V58.84H58.2472ZM58.2472 58.92C58.2472 60.9184 57.7415 62.4809 56.7998 63.6835C55.8538 64.8916 54.3948 65.8297 52.3241 66.4409L52.8903 68.3591C55.2463 67.6637 57.1072 66.535 58.3745 64.9165C59.6462 63.2925 60.2472 61.2683 60.2472 58.92H58.2472ZM51.793 67.9807L59.353 78.5807L60.9813 77.4193L53.4213 66.8193L51.793 67.9807ZM60.1672 77H54.3272V79H60.1672V77ZM55.1445 77.4238L48.2645 67.6638L46.6298 68.8162L53.5098 78.5762L55.1445 77.4238ZM47.4472 67.24H41.2872V69.24H47.4472V67.24ZM40.2872 68.24V78H42.2872V68.24H40.2872ZM41.2872 77H36.3672V79H41.2872V77ZM41.2872 64.88H48.4872V62.88H41.2872V64.88ZM48.4872 64.88C50.4064 64.88 52.0539 64.4131 53.3215 63.3731L52.0529 61.8269C51.2405 62.4935 50.088 62.88 48.4872 62.88V64.88ZM53.3331 63.3634C54.6023 62.2895 55.2472 60.8748 55.2472 59.2H53.2472C53.2472 60.2986 52.8521 61.1505 52.0412 61.8366L53.3331 63.3634ZM55.2472 59.2V59.12H53.2472V59.2H55.2472ZM55.2472 59.12C55.2472 57.3526 54.6838 55.8687 53.4219 54.8591C52.2025 53.8837 50.4874 53.48 48.4472 53.48V55.48C50.2737 55.48 51.4585 55.8497 52.1725 56.4209C52.8439 56.958 53.2472 57.794 53.2472 59.12H55.2472ZM48.4472 53.48H41.2872V55.48H48.4472V53.48ZM40.2872 54.48V63.88H42.2872V54.48H40.2872ZM65.6734 78H64.6734V79H65.6734V78ZM65.6734 50V49H64.6734V50H65.6734ZM86.4334 50H87.4334V49H86.4334V50ZM86.4334 54.4V55.4H87.4334V54.4H86.4334ZM70.5934 54.4V53.4H69.5934V54.4H70.5934ZM70.5934 61.68H69.5934V62.68H70.5934V61.68ZM84.6334 61.68H85.6334V60.68H84.6334V61.68ZM84.6334 66.08V67.08H85.6334V66.08H84.6334ZM70.5934 66.08V65.08H69.5934V66.08H70.5934ZM70.5934 73.6H69.5934V74.6H70.5934V73.6ZM86.6334 73.6H87.6334V72.6H86.6334V73.6ZM86.6334 78V79H87.6334V78H86.6334ZM66.6734 78V50H64.6734V78H66.6734ZM65.6734 51H86.4334V49H65.6734V51ZM85.4334 50V54.4H87.4334V50H85.4334ZM86.4334 53.4H70.5934V55.4H86.4334V53.4ZM69.5934 54.4V61.68H71.5934V54.4H69.5934ZM70.5934 62.68H84.6334V60.68H70.5934V62.68ZM83.6334 61.68V66.08H85.6334V61.68H83.6334ZM84.6334 65.08H70.5934V67.08H84.6334V65.08ZM69.5934 66.08V73.6H71.5934V66.08H69.5934ZM70.5934 74.6H86.6334V72.6H70.5934V74.6ZM85.6334 73.6V78H87.6334V73.6H85.6334ZM86.6334 77H65.6734V79H86.6334V77ZM92.8703 78H91.8703V79H92.8703V78ZM92.8703 50V49H91.8703V50H92.8703ZM113.63 50H114.63V49H113.63V50ZM113.63 54.4V55.4H114.63V54.4H113.63ZM97.7903 54.4V53.4H96.7903V54.4H97.7903ZM97.7903 61.68H96.7903V62.68H97.7903V61.68ZM111.83 61.68H112.83V60.68H111.83V61.68ZM111.83 66.08V67.08H112.83V66.08H111.83ZM97.7903 66.08V65.08H96.7903V66.08H97.7903ZM97.7903 73.6H96.7903V74.6H97.7903V73.6ZM113.83 73.6H114.83V72.6H113.83V73.6ZM113.83 78V79H114.83V78H113.83ZM93.8703 78V50H91.8703V78H93.8703ZM92.8703 51H113.63V49H92.8703V51ZM112.63 50V54.4H114.63V50H112.63ZM113.63 53.4H97.7903V55.4H113.63V53.4ZM96.7903 54.4V61.68H98.7903V54.4H96.7903ZM97.7903 62.68H111.83V60.68H97.7903V62.68ZM110.83 61.68V66.08H112.83V61.68H110.83ZM111.83 65.08H97.7903V67.08H111.83V65.08ZM96.7903 66.08V73.6H98.7903V66.08H96.7903ZM97.7903 74.6H113.83V72.6H97.7903V74.6ZM112.83 73.6V78H114.83V73.6H112.83ZM113.83 77H92.8703V79H113.83V77ZM120.067 78H119.067V79H120.067V78ZM120.067 50V49H119.067V50H120.067ZM124.627 50L125.418 49.3875L125.117 49H124.627V50ZM139.627 69.36L138.837 69.9725L140.627 72.2834V69.36H139.627ZM139.627 50V49H138.627V50H139.627ZM144.467 50H145.467V49H144.467V50ZM144.467 78V79H145.467V78H144.467ZM140.347 78L139.557 78.6126L139.857 79H140.347V78ZM124.907 58.08L125.698 57.4674L123.907 55.1575V58.08H124.907ZM124.907 78V79H125.907V78H124.907ZM121.067 78V50H119.067V78H121.067ZM120.067 51H124.627V49H120.067V51ZM123.837 50.6125L138.837 69.9725L140.418 68.7475L125.418 49.3875L123.837 50.6125ZM140.627 69.36V50H138.627V69.36H140.627ZM139.627 51H144.467V49H139.627V51ZM143.467 50V78H145.467V50H143.467ZM144.467 77H140.347V79H144.467V77ZM141.138 77.3874L125.698 57.4674L124.117 58.6926L139.557 78.6126L141.138 77.3874ZM123.907 58.08V78H125.907V58.08H123.907ZM124.907 77H120.067V79H124.907V77ZM182.109 78.2L181.184 78.5815L181.44 79.2H182.109V78.2ZM170.469 50V49H168.974L169.544 50.3815L170.469 50ZM175.909 50L176.84 49.6349L176.591 49H175.909V50ZM184.349 71.52L183.418 71.8851L184.351 74.2645L185.28 71.8836L184.349 71.52ZM192.749 50V49H192.066L191.817 49.6364L192.749 50ZM198.069 50L198.994 50.3804L199.561 49H198.069V50ZM186.469 78.2V79.2H187.139L187.394 78.5804L186.469 78.2ZM183.033 77.8185L171.393 49.6185L169.544 50.3815L181.184 78.5815L183.033 77.8185ZM170.469 51H175.909V49H170.469V51ZM174.978 50.3651L183.418 71.8851L185.28 71.1549L176.84 49.6349L174.978 50.3651ZM185.28 71.8836L193.68 50.3636L191.817 49.6364L183.417 71.1564L185.28 71.8836ZM192.749 51H198.069V49H192.749V51ZM197.144 49.6196L185.544 77.8196L187.394 78.5804L198.994 50.3804L197.144 49.6196ZM186.469 77.2H182.109V79.2H186.469V77.2ZM203.549 78H202.549V79H203.549V78ZM203.549 50V49H202.549V50H203.549ZM208.469 50H209.469V49H208.469V50ZM208.469 78V79H209.469V78H208.469ZM204.549 78V50H202.549V78H204.549ZM203.549 51H208.469V49H203.549V51ZM207.469 50V78H209.469V50H207.469ZM208.469 77H203.549V79H208.469V77ZM216.364 78H215.364V79H216.364V78ZM216.364 50V49H215.364V50H216.364ZM221.284 50H222.284V49H221.284V50ZM221.284 73.52H220.284V74.52H221.284V73.52ZM236.004 73.52H237.004V72.52H236.004V73.52ZM236.004 78V79H237.004V78H236.004ZM217.364 78V50H215.364V78H217.364ZM216.364 51H221.284V49H216.364V51ZM220.284 50V73.52H222.284V50H220.284ZM221.284 74.52H236.004V72.52H221.284V74.52ZM235.004 73.52V78H237.004V73.52H235.004ZM236.004 77H216.364V79H236.004V77ZM241.53 78H240.53V79H241.53V78ZM241.53 50V49H240.53V50H241.53ZM246.45 50H247.45V49H246.45V50ZM246.45 73.52H245.45V74.52H246.45V73.52ZM261.17 73.52H262.17V72.52H261.17V73.52ZM261.17 78V79H262.17V78H261.17ZM242.53 78V50H240.53V78H242.53ZM241.53 51H246.45V49H241.53V51ZM245.45 50V73.52H247.45V50H245.45ZM246.45 74.52H261.17V72.52H246.45V74.52ZM260.17 73.52V78H262.17V73.52H260.17ZM261.17 77H241.53V79H261.17V77ZM264.295 78L263.379 77.5997L262.767 79H264.295V78ZM276.615 49.8V48.8H275.961L275.699 49.3997L276.615 49.8ZM281.175 49.8L282.092 49.3997L281.83 48.8H281.175V49.8ZM293.495 78V79H295.023L294.412 77.5997L293.495 78ZM288.295 78L287.373 78.3873L287.631 79H288.295V78ZM285.455 71.24L286.377 70.8527L286.12 70.24H285.455V71.24ZM272.215 71.24V70.24H271.554L271.295 70.8481L272.215 71.24ZM269.335 78V79H269.996L270.255 78.3919L269.335 78ZM274.015 66.88L273.096 66.4861L272.499 67.88H274.015V66.88ZM283.655 66.88V67.88H285.177L284.573 66.4833L283.655 66.88ZM278.815 55.68L279.733 55.2833L278.811 53.1503L277.896 55.2861L278.815 55.68ZM265.212 78.4003L277.532 50.2003L275.699 49.3997L263.379 77.5997L265.212 78.4003ZM276.615 50.8H281.175V48.8H276.615V50.8ZM280.259 50.2003L292.579 78.4003L294.412 77.5997L282.092 49.3997L280.259 50.2003ZM293.495 77H288.295V79H293.495V77ZM289.217 77.6127L286.377 70.8527L284.533 71.6273L287.373 78.3873L289.217 77.6127ZM285.455 70.24H272.215V72.24H285.455V70.24ZM271.295 70.8481L268.415 77.6081L270.255 78.3919L273.135 71.632L271.295 70.8481ZM269.335 77H264.295V79H269.335V77ZM274.015 67.88H283.655V65.88H274.015V67.88ZM284.573 66.4833L279.733 55.2833L277.897 56.0767L282.737 67.2767L284.573 66.4833ZM277.896 55.2861L273.096 66.4861L274.934 67.2739L279.734 56.0739L277.896 55.2861ZM296.348 73.92L295.583 73.2764L294.957 74.021L295.684 74.6674L296.348 73.92ZM299.308 70.4L299.96 69.6413L299.193 68.9832L298.543 69.7564L299.308 70.4ZM311.788 73.04L311.2 72.2313L311.196 72.2344L311.788 73.04ZM311.908 68L312.499 67.1936L312.492 67.1882L312.485 67.183L311.908 68ZM306.788 66.16L306.549 67.1311L306.56 67.1337L306.788 66.16ZM299.908 63.36L300.533 62.5791L300.526 62.5741L299.908 63.36ZM300.148 51.84L299.507 51.0727L299.5 51.0783L300.148 51.84ZM317.188 53.12L318.004 53.6987L318.55 52.9289L317.813 52.3391L317.188 53.12ZM314.548 56.84L313.952 57.643L314.772 58.2518L315.364 57.4187L314.548 56.84ZM303.588 54.92L302.988 54.12L302.98 54.1264L303.588 54.92ZM303.708 59.88L303.136 60.7005L303.148 60.7083L303.708 59.88ZM309.068 61.76L309.303 60.7879L309.301 60.7876L309.068 61.76ZM315.788 64.64L316.447 63.8874L316.44 63.882L316.434 63.8766L315.788 64.64ZM315.228 76.2L314.597 75.4246L314.594 75.4271L315.228 76.2ZM297.113 74.5636L300.073 71.0436L298.543 69.7564L295.583 73.2764L297.113 74.5636ZM298.657 71.1588C301.624 73.7062 304.794 75.04 308.148 75.04V73.04C305.369 73.04 302.645 71.9471 299.96 69.6413L298.657 71.1588ZM308.148 75.04C309.808 75.04 311.251 74.6762 312.38 73.8456L311.196 72.2344C310.512 72.7372 309.529 73.04 308.148 73.04V75.04ZM312.376 73.8487C313.501 73.0308 314.108 71.897 314.108 70.52H312.108C312.108 71.223 311.835 71.7692 311.2 72.2313L312.376 73.8487ZM314.108 70.52V70.44H312.108V70.52H314.108ZM314.108 70.44C314.108 69.0995 313.571 67.9791 312.499 67.1936L311.317 68.8064C311.846 69.1943 312.108 69.7005 312.108 70.44H314.108ZM312.485 67.183C311.404 66.4204 309.526 65.7737 307.016 65.1863L306.56 67.1337C309.064 67.7197 310.599 68.2996 311.331 68.817L312.485 67.183ZM307.027 65.1889C303.805 64.3965 301.689 63.5042 300.533 62.5791L299.283 64.1409C300.794 65.3492 303.265 66.3235 306.549 67.1311L307.027 65.1889ZM300.526 62.5741C299.184 61.5176 298.468 59.9794 298.468 57.8H296.468C296.468 60.4739 297.379 62.6424 299.29 64.1459L300.526 62.5741ZM298.468 57.8V57.72H296.468V57.8H298.468ZM298.468 57.72C298.468 55.6054 299.239 53.9267 300.796 52.6017L299.5 51.0783C297.484 52.7933 296.468 55.0346 296.468 57.72H298.468ZM300.789 52.6073C302.362 51.2932 304.413 50.6 307.028 50.6V48.6C304.043 48.6 301.508 49.4001 299.507 51.0727L300.789 52.6073ZM307.028 50.6C310.647 50.6 313.812 51.6994 316.563 53.9009L317.813 52.3391C314.698 49.8472 311.09 48.6 307.028 48.6V50.6ZM316.373 52.5413L313.733 56.2612L315.364 57.4187L318.004 53.6987L316.373 52.5413ZM315.144 56.037C312.437 54.0274 309.699 52.96 306.948 52.96V54.96C309.157 54.96 311.486 55.8126 313.952 57.643L315.144 56.037ZM306.948 52.96C305.41 52.96 304.06 53.3159 302.988 54.12L304.188 55.72C304.823 55.2441 305.713 54.96 306.948 54.96V52.96ZM302.98 54.1264C301.947 54.9179 301.388 55.9913 301.388 57.28H303.388C303.388 56.6487 303.629 56.1487 304.197 55.7136L302.98 54.1264ZM301.388 57.28V57.36H303.388V57.28H301.388ZM301.388 57.36C301.388 58.7559 301.99 59.9013 303.136 60.7004L304.28 59.0596C303.666 58.632 303.388 58.0974 303.388 57.36H301.388ZM303.148 60.7083C304.222 61.4353 306.176 62.0942 308.835 62.7324L309.301 60.7876C306.627 60.1458 305.007 59.5514 304.268 59.0517L303.148 60.7083ZM308.833 62.7321C311.873 63.4658 313.933 64.3801 315.142 65.4034L316.434 63.8766C314.87 62.5532 312.45 61.5475 309.303 60.7879L308.833 62.7321ZM315.13 65.3926C316.377 66.4837 317.028 67.9669 317.028 69.96H319.028C319.028 67.4731 318.186 65.4097 316.447 63.8874L315.13 65.3926ZM317.028 69.96V70.04H319.028V69.96H317.028ZM317.028 70.04C317.028 72.3516 316.211 74.1101 314.597 75.4246L315.86 76.9754C317.979 75.2499 319.028 72.9018 319.028 70.04H317.028ZM314.594 75.4271C313.034 76.7074 310.881 77.4 308.028 77.4V79.4C311.202 79.4 313.849 78.626 315.863 76.9729L314.594 75.4271ZM308.028 77.4C303.851 77.4 300.193 75.9993 297.012 73.1726L295.684 74.6674C299.224 77.814 303.352 79.4 308.028 79.4V77.4Z" fill="white"/>
</svg>
