<svg width="437" height="109" viewBox="0 0 437 109" fill="none" xmlns="http://www.w3.org/2000/svg">
<path d="M17.655 41.275L16.7306 41.6565L16.9859 42.275H17.655V41.275ZM1.65 2.5V1.5H0.155395L0.725648 2.88154L1.65 2.5ZM9.13 2.5L10.061 2.13488L9.81196 1.5H9.13V2.5ZM20.735 32.09L19.804 32.4551L20.7372 34.8345L21.6665 32.4536L20.735 32.09ZM32.285 2.5V1.5H31.6019L31.3535 2.13638L32.285 2.5ZM39.6 2.5L40.5248 2.88042L41.0926 1.5H39.6V2.5ZM23.65 41.275V42.275H24.32L24.5748 41.6554L23.65 41.275ZM18.5794 40.8935L2.57435 2.11846L0.725648 2.88154L16.7306 41.6565L18.5794 40.8935ZM1.65 3.5H9.13V1.5H1.65V3.5ZM8.19904 2.86511L19.804 32.4551L21.666 31.7249L10.061 2.13488L8.19904 2.86511ZM21.6665 32.4536L33.2165 2.86361L31.3535 2.13638L19.8035 31.7264L21.6665 32.4536ZM32.285 3.5H39.6V1.5H32.285V3.5ZM38.6752 2.11958L22.7252 40.8946L24.5748 41.6554L40.5248 2.88042L38.6752 2.11958ZM23.65 40.275H17.655V42.275H23.65V40.275ZM47.135 41H46.135V42H47.135V41ZM47.135 2.5V1.5H46.135V2.5H47.135ZM53.9 2.5H54.9V1.5H53.9V2.5ZM53.9 41V42H54.9V41H53.9ZM48.135 41V2.5H46.135V41H48.135ZM47.135 3.5H53.9V1.5H47.135V3.5ZM52.9 2.5V41H54.9V2.5H52.9ZM53.9 40H47.135V42H53.9V40ZM64.7561 41H63.7561V42H64.7561V41ZM64.7561 2.5V1.5H63.7561V2.5H64.7561ZM71.0261 2.5L71.8166 1.88753L71.5163 1.5H71.0261V2.5ZM91.6511 29.12L90.8606 29.7325L92.6511 32.0434V29.12H91.6511ZM91.6511 2.5V1.5H90.6511V2.5H91.6511ZM98.3061 2.5H99.3061V1.5H98.3061V2.5ZM98.3061 41V42H99.3061V41H98.3061ZM92.6411 41L91.8507 41.6126L92.1509 42H92.6411V41ZM71.4111 13.61L72.2014 12.9974L70.4111 10.6875V13.61H71.4111ZM71.4111 41V42H72.4111V41H71.4111ZM65.7561 41V2.5H63.7561V41H65.7561ZM64.7561 3.5H71.0261V1.5H64.7561V3.5ZM70.2356 3.11247L90.8606 29.7325L92.4416 28.5075L71.8166 1.88753L70.2356 3.11247ZM92.6511 29.12V2.5H90.6511V29.12H92.6511ZM91.6511 3.5H98.3061V1.5H91.6511V3.5ZM97.3061 2.5V41H99.3061V2.5H97.3061ZM98.3061 40H92.6411V42H98.3061V40ZM93.4314 40.3874L72.2014 12.9974L70.6207 14.2226L91.8507 41.6126L93.4314 40.3874ZM70.4111 13.61V41H72.4111V13.61H70.4111ZM71.4111 40H64.7561V42H71.4111V40ZM108.758 41H107.758V42H108.758V41ZM108.758 2.5V1.5H107.758V2.5H108.758ZM115.523 2.5H116.523V1.5H115.523V2.5ZM115.523 18.505H114.523V19.505H115.523V18.505ZM133.893 18.505V19.505H134.893V18.505H133.893ZM133.893 2.5V1.5H132.893V2.5H133.893ZM140.658 2.5H141.658V1.5H140.658V2.5ZM140.658 41V42H141.658V41H140.658ZM133.893 41H132.893V42H133.893V41ZM133.893 24.775H134.893V23.775H133.893V24.775ZM115.523 24.775V23.775H114.523V24.775H115.523ZM115.523 41V42H116.523V41H115.523ZM109.758 41V2.5H107.758V41H109.758ZM108.758 3.5H115.523V1.5H108.758V3.5ZM114.523 2.5V18.505H116.523V2.5H114.523ZM115.523 19.505H133.893V17.505H115.523V19.505ZM134.893 18.505V2.5H132.893V18.505H134.893ZM133.893 3.5H140.658V1.5H133.893V3.5ZM139.658 2.5V41H141.658V2.5H139.658ZM140.658 40H133.893V42H140.658V40ZM134.893 41V24.775H132.893V41H134.893ZM133.893 23.775H115.523V25.775H133.893V23.775ZM114.523 24.775V41H116.523V24.775H114.523ZM115.523 40H108.758V42H115.523V40ZM152.583 35.83L151.869 36.5302L151.87 36.5303L152.583 35.83ZM152.638 7.725L151.925 7.02459L151.924 7.02472L152.638 7.725ZM181.623 7.67L182.337 6.96979L182.337 6.96966L181.623 7.67ZM181.568 35.775L182.282 36.4754L182.282 36.4753L181.568 35.775ZM176.508 31.43L175.776 30.7491L175.771 30.7543L176.508 31.43ZM176.453 12.07L175.717 12.7462L175.721 12.7512L176.453 12.07ZM157.698 12.015L156.966 11.3338L156.966 11.3342L157.698 12.015ZM157.753 31.375L157.021 32.0562L157.022 32.0566L157.753 31.375ZM153.297 35.1298C149.747 31.5095 147.973 27.1068 147.973 21.86H145.973C145.973 27.6132 147.94 32.5238 151.869 36.5302L153.297 35.1298ZM147.973 21.86V21.75H145.973V21.86H147.973ZM147.973 21.75C147.973 16.5061 149.763 12.0842 153.352 8.42527L151.924 7.02472C147.96 11.0658 145.973 15.9939 145.973 21.75H147.973ZM153.352 8.4254C157.002 4.70626 161.579 2.84 167.158 2.84V0.839999C161.078 0.839999 155.975 2.89707 151.925 7.02459L153.352 8.4254ZM167.158 2.84C172.741 2.84 177.298 4.68989 180.91 8.37034L182.337 6.96966C178.321 2.87678 173.236 0.839999 167.158 0.839999V2.84ZM180.909 8.37021C184.46 11.9905 186.233 16.3932 186.233 21.64H188.233C188.233 15.8868 186.267 10.9762 182.337 6.96979L180.909 8.37021ZM186.233 21.64V21.75H188.233V21.64H186.233ZM186.233 21.75C186.233 26.9939 184.444 31.4158 180.854 35.0747L182.282 36.4753C186.246 32.4342 188.233 27.5061 188.233 21.75H186.233ZM180.855 35.0746C177.205 38.7937 172.628 40.66 167.048 40.66V42.66C173.129 42.66 178.232 40.6029 182.282 36.4754L180.855 35.0746ZM167.048 40.66C161.466 40.66 156.908 38.8101 153.297 35.1297L151.87 36.5303C155.885 40.6232 160.971 42.66 167.048 42.66V40.66ZM177.241 32.1108C179.844 29.3102 181.138 25.8719 181.138 21.86H179.138C179.138 25.4014 178.012 28.3431 175.776 30.7492L177.241 32.1108ZM181.138 21.86V21.75H179.138V21.86H181.138ZM181.138 21.75C181.138 17.6998 179.825 14.2252 177.185 11.3888L175.721 12.7512C177.995 15.1948 179.138 18.1735 179.138 21.75H181.138ZM177.19 11.3938C174.534 8.49952 171.126 7.055 167.048 7.055V9.055C170.597 9.055 173.46 10.2871 175.717 12.7462L177.19 11.3938ZM167.048 7.055C163.009 7.055 159.622 8.47989 156.966 11.3338L158.43 12.6962C160.688 10.2701 163.535 9.055 167.048 9.055V7.055ZM156.966 11.3342C154.361 14.1367 153.068 17.5942 153.068 21.64H155.068C155.068 18.0591 156.196 15.0999 158.431 12.6958L156.966 11.3342ZM153.068 21.64V21.75H155.068V21.64H153.068ZM153.068 21.75C153.068 25.7663 154.384 29.2218 157.021 32.0562L158.485 30.6938C156.21 28.2482 155.068 25.287 155.068 21.75H153.068ZM157.022 32.0566C159.711 34.9437 163.114 36.39 167.158 36.39V34.39C163.649 34.39 160.782 33.1597 158.485 30.6934L157.022 32.0566ZM167.158 36.39C171.232 36.39 174.623 34.9669 177.245 32.1057L175.771 30.7543C173.554 33.1731 170.712 34.39 167.158 34.39V36.39ZM195.957 41H194.957V42H195.957V41ZM195.957 2.5V1.5H194.957V2.5H195.957ZM203.162 2.5L204.003 1.95885L203.707 1.5H203.162V2.5ZM214.877 20.705L214.036 21.2461L214.877 22.5529L215.718 21.2461L214.877 20.705ZM226.592 2.5V1.5H226.046L225.751 1.95885L226.592 2.5ZM233.797 2.5H234.797V1.5H233.797V2.5ZM233.797 41V42H234.797V41H233.797ZM227.032 41H226.032V42H227.032V41ZM227.032 13.39H228.032V10.0997L226.201 12.8336L227.032 13.39ZM214.877 31.54V32.54H215.411L215.708 32.0964L214.877 31.54ZM214.657 31.54L213.825 32.0953L214.122 32.54H214.657V31.54ZM202.612 13.5L203.443 12.9447L201.612 10.2014V13.5H202.612ZM202.612 41V42H203.612V41H202.612ZM196.957 41V2.5H194.957V41H196.957ZM195.957 3.5H203.162V1.5H195.957V3.5ZM202.321 3.04114L214.036 21.2461L215.718 20.1639L204.003 1.95885L202.321 3.04114ZM215.718 21.2461L227.433 3.04114L225.751 1.95885L214.036 20.1639L215.718 21.2461ZM226.592 3.5H233.797V1.5H226.592V3.5ZM232.797 2.5V41H234.797V2.5H232.797ZM233.797 40H227.032V42H233.797V40ZM228.032 41V13.39H226.032V41H228.032ZM226.201 12.8336L214.046 30.9836L215.708 32.0964L227.863 13.9464L226.201 12.8336ZM214.877 30.54H214.657V32.54H214.877V30.54ZM215.488 30.9847L203.443 12.9447L201.78 14.0553L213.825 32.0953L215.488 30.9847ZM201.612 13.5V41H203.612V13.5H201.612ZM202.612 40H195.957V42H202.612V40ZM244.256 41H243.256V42H244.256V41ZM244.256 2.5V1.5H243.256V2.5H244.256ZM272.801 2.5H273.801V1.5H272.801V2.5ZM272.801 8.55V9.55H273.801V8.55H272.801ZM251.021 8.55V7.55H250.021V8.55H251.021ZM251.021 18.56H250.021V19.56H251.021V18.56ZM270.326 18.56H271.326V17.56H270.326V18.56ZM270.326 24.61V25.61H271.326V24.61H270.326ZM251.021 24.61V23.61H250.021V24.61H251.021ZM251.021 34.95H250.021V35.95H251.021V34.95ZM273.076 34.95H274.076V33.95H273.076V34.95ZM273.076 41V42H274.076V41H273.076ZM245.256 41V2.5H243.256V41H245.256ZM244.256 3.5H272.801V1.5H244.256V3.5ZM271.801 2.5V8.55H273.801V2.5H271.801ZM272.801 7.55H251.021V9.55H272.801V7.55ZM250.021 8.55V18.56H252.021V8.55H250.021ZM251.021 19.56H270.326V17.56H251.021V19.56ZM269.326 18.56V24.61H271.326V18.56H269.326ZM270.326 23.61H251.021V25.61H270.326V23.61ZM250.021 24.61V34.95H252.021V24.61H250.021ZM251.021 35.95H273.076V33.95H251.021V35.95ZM272.076 34.95V41H274.076V34.95H272.076ZM273.076 40H244.256V42H273.076V40ZM279.067 35.39L278.301 34.7464L277.675 35.491L278.402 36.1374L279.067 35.39ZM283.137 30.55L283.788 29.7912L283.021 29.1332L282.371 29.9064L283.137 30.55ZM300.297 34.18L299.708 33.3713L299.704 33.3743L300.297 34.18ZM300.462 27.25L301.053 26.4436L301.046 26.4382L301.038 26.433L300.462 27.25ZM293.422 24.72L293.183 25.6911L293.194 25.6937L293.422 24.72ZM283.962 20.87L284.586 20.0891L284.58 20.0841L283.962 20.87ZM284.292 5.03L283.65 4.26269L283.644 4.26834L284.292 5.03ZM307.722 6.79L308.537 7.36874L309.083 6.59887L308.346 6.00913L307.722 6.79ZM304.092 11.905L303.496 12.708L304.316 13.3168L304.907 12.4837L304.092 11.905ZM289.022 9.265L288.422 8.46495L288.413 8.47139L289.022 9.265ZM289.187 16.085L288.615 16.9055L288.626 16.9133L289.187 16.085ZM296.557 18.67L296.791 17.6979L296.79 17.6976L296.557 18.67ZM305.797 22.63L306.455 21.8774L306.449 21.872L306.443 21.8666L305.797 22.63ZM305.027 38.525L304.395 37.7496L304.392 37.7521L305.027 38.525ZM279.832 36.0336L283.902 31.1936L282.371 29.9064L278.301 34.7464L279.832 36.0336ZM282.485 31.3088C286.513 34.7662 290.787 36.555 295.292 36.555V34.555C291.362 34.555 287.534 33.0071 283.788 29.7912L282.485 31.3088ZM295.292 36.555C297.521 36.555 299.419 36.0662 300.889 34.9856L299.704 33.3743C298.68 34.1272 297.242 34.555 295.292 34.555V36.555ZM300.885 34.9887C302.339 33.9308 303.112 32.482 303.112 30.715H301.112C301.112 31.808 300.674 32.6692 299.708 33.3713L300.885 34.9887ZM303.112 30.715V30.605H301.112V30.715H303.112ZM303.112 30.605C303.112 28.8745 302.424 27.4491 301.053 26.4436L299.87 28.0564C300.699 28.6643 301.112 29.4755 301.112 30.605H303.112ZM301.038 26.433C299.618 25.4304 297.099 24.5537 293.649 23.7463L293.194 25.6937C296.637 26.4997 298.812 27.3096 299.885 28.067L301.038 26.433ZM293.66 23.7489C289.218 22.6565 286.243 21.4142 284.586 20.0891L283.337 21.6509C285.347 23.2592 288.678 24.5835 293.183 25.6911L293.66 23.7489ZM284.58 20.0841C282.627 18.5476 281.607 16.3144 281.607 13.225H279.607C279.607 16.8089 280.822 19.6724 283.343 21.6559L284.58 20.0841ZM281.607 13.225V13.115H279.607V13.225H281.607ZM281.607 13.115C281.607 10.1004 282.712 7.68666 284.94 5.79166L283.644 4.26834C280.958 6.55334 279.607 9.52959 279.607 13.115H281.607ZM284.933 5.79728C287.175 3.92323 290.087 2.95 293.752 2.95V0.949998C289.717 0.949998 286.321 2.0301 283.65 4.26272L284.933 5.79728ZM293.752 2.95C298.81 2.95 303.245 4.48944 307.097 7.57087L308.346 6.00913C304.131 2.63723 299.253 0.949998 293.752 0.949998V2.95ZM306.906 6.21125L303.276 11.3263L304.907 12.4837L308.537 7.36874L306.906 6.21125ZM304.688 11.102C301.01 8.37236 297.323 6.945 293.642 6.945V8.945C296.781 8.945 300.06 10.1576 303.496 12.708L304.688 11.102ZM293.642 6.945C291.584 6.945 289.814 7.42094 288.422 8.465L289.622 10.065C290.576 9.34906 291.886 8.945 293.642 8.945V6.945ZM288.413 8.47139C287.081 9.49294 286.372 10.8613 286.372 12.51H288.372C288.372 11.5187 288.762 10.7237 289.63 10.0586L288.413 8.47139ZM286.372 12.51V12.62H288.372V12.51H286.372ZM286.372 12.62C286.372 14.4159 287.138 15.8763 288.615 16.9054L289.758 15.2646C288.815 14.607 288.372 13.7574 288.372 12.62H286.372ZM288.626 16.9133C290.041 17.8703 292.664 18.7642 296.323 19.6424L296.79 17.6976C293.116 16.8158 290.826 15.9864 289.747 15.2567L288.626 16.9133ZM296.322 19.6421C300.522 20.6558 303.421 21.9301 305.151 23.3934L306.443 21.8666C304.359 20.1032 301.098 18.7375 296.791 17.6979L296.322 19.6421ZM305.138 23.3826C306.945 24.9637 307.877 27.1119 307.877 29.945H309.877C309.877 26.6181 308.755 23.8896 306.455 21.8774L305.138 23.3826ZM307.877 29.945V30.055H309.877V29.945H307.877ZM307.877 30.055C307.877 33.3366 306.709 35.8651 304.395 37.7496L305.658 39.3004C308.477 37.0049 309.877 33.8868 309.877 30.055H307.877ZM304.392 37.7521C302.162 39.5824 299.11 40.55 295.127 40.55V42.55C299.43 42.55 302.977 41.501 305.661 39.2979L304.392 37.7521ZM295.127 40.55C289.289 40.55 284.171 38.5893 279.731 34.6426L278.402 36.1374C283.202 40.404 288.791 42.55 295.127 42.55V40.55ZM8.69 101.94L7.97241 102.636L7.97606 102.64L8.69 101.94ZM8.8 73.725L8.0829 73.028L8.0793 73.0318L8.8 73.725ZM37.895 73.065L38.6612 73.7076L39.2974 72.949L38.5452 72.3053L37.895 73.065ZM33.605 78.18L32.9563 78.9411L33.7235 79.5949L34.3712 78.8226L33.605 78.18ZM13.915 78.07L13.1732 77.3994L13.1727 77.3999L13.915 78.07ZM13.915 97.595L13.1822 98.2755L13.1877 98.2813L13.915 97.595ZM32.725 98.585L33.3232 99.3864L33.725 99.0864V98.585H32.725ZM32.725 91.38H33.725V90.38H32.725V91.38ZM22.88 91.38H21.88V92.38H22.88V91.38ZM22.88 85.495V84.495H21.88V85.495H22.88ZM39.27 85.495H40.27V84.495H39.27V85.495ZM39.27 101.665L39.9213 102.424L40.27 102.125V101.665H39.27ZM9.40758 101.244C5.97464 97.7066 4.245 93.2704 4.245 87.86H2.245C2.245 93.7429 4.14536 98.6934 7.97242 102.636L9.40758 101.244ZM4.245 87.86V87.75H2.245V87.86H4.245ZM4.245 87.75C4.245 82.5 6.00238 78.0759 9.5207 74.4182L8.0793 73.0318C4.19096 77.0741 2.245 82 2.245 87.75H4.245ZM9.51709 74.422C13.1328 70.702 17.6364 68.84 23.1 68.84V66.84C17.1236 66.84 12.0939 68.9013 8.08291 73.028L9.51709 74.422ZM23.1 68.84C28.6758 68.84 33.3712 70.5096 37.2448 73.8247L38.5452 72.3053C34.2788 68.6538 29.1108 66.84 23.1 66.84V68.84ZM37.1288 72.4224L32.8388 77.5374L34.3712 78.8226L38.6612 73.7076L37.1288 72.4224ZM34.2537 77.4189C30.8599 74.5265 27.0403 73.055 22.825 73.055V75.055C26.5297 75.055 29.8968 76.3335 32.9563 78.9411L34.2537 77.4189ZM22.825 73.055C19.0143 73.055 15.7774 74.519 13.1732 77.3994L14.6568 78.7406C16.8926 76.2677 19.5957 75.055 22.825 75.055V73.055ZM13.1727 77.3999C10.6144 80.2338 9.34 83.6664 9.34 87.64H11.34C11.34 84.1336 12.449 81.1862 14.6573 78.7401L13.1727 77.3999ZM9.34 87.64V87.75H11.34V87.64H9.34ZM9.34 87.75C9.34 91.9608 10.6027 95.4976 13.1822 98.2755L14.6478 96.9146C12.4606 94.5591 11.34 91.5325 11.34 87.75H9.34ZM13.1877 98.2813C15.8506 101.103 19.2944 102.5 23.43 102.5V100.5C19.7923 100.5 16.8927 99.2934 14.6423 96.9087L13.1877 98.2813ZM23.43 102.5C27.2148 102.5 30.5287 101.472 33.3232 99.3864L32.1268 97.7836C29.7146 99.5843 26.8318 100.5 23.43 100.5V102.5ZM33.725 98.585V91.38H31.725V98.585H33.725ZM32.725 90.38H22.88V92.38H32.725V90.38ZM23.88 91.38V85.495H21.88V91.38H23.88ZM22.88 86.495H39.27V84.495H22.88V86.495ZM38.27 85.495V101.665H40.27V85.495H38.27ZM38.6187 100.906C34.1405 104.75 29.0173 106.66 23.21 106.66V108.66C29.5027 108.66 35.0862 106.574 39.9213 102.424L38.6187 100.906ZM23.21 106.66C17.5055 106.66 12.9339 104.839 9.40394 101.24L7.97606 102.64C11.9261 106.668 17.0345 108.66 23.21 108.66V106.66ZM48.6299 107H47.6299V108H48.6299V107ZM48.6299 68.5V67.5H47.6299V68.5H48.6299ZM76.8999 72.35L77.613 71.649L77.6075 71.6434L77.602 71.6379L76.8999 72.35ZM70.9599 92.425L70.6768 91.4659L69.3309 91.8632L70.1457 93.0057L70.9599 92.425ZM81.3549 107V108H83.2964L82.169 106.419L81.3549 107ZM73.3249 107L72.5075 107.576L72.8063 108H73.3249V107ZM63.8649 93.58L64.6822 93.0038L64.3834 92.58H63.8649V93.58ZM55.3949 93.58V92.58H54.3949V93.58H55.3949ZM55.3949 107V108H56.3949V107H55.3949ZM55.3949 87.585H54.3949V88.585H55.3949V87.585ZM71.0699 85.825L71.7042 86.5981L71.7101 86.5933L71.7158 86.5884L71.0699 85.825ZM55.3949 74.66V73.66H54.3949V74.66H55.3949ZM49.6299 107V68.5H47.6299V107H49.6299ZM48.6299 69.5H65.7899V67.5H48.6299V69.5ZM65.7899 69.5C70.4159 69.5 73.8347 70.7323 76.1978 73.0621L77.602 71.6379C74.7584 68.8344 70.7705 67.5 65.7899 67.5V69.5ZM76.1868 73.051C78.1082 75.0057 79.0899 77.5118 79.0899 80.655H81.0899C81.0899 77.0515 79.9449 74.021 77.613 71.649L76.1868 73.051ZM79.0899 80.655V80.765H81.0899V80.655H79.0899ZM79.0899 80.765C79.0899 83.5784 78.3767 85.8134 77.02 87.546C75.659 89.2841 73.5775 90.6097 70.6768 91.4659L71.243 93.3841C74.429 92.4436 76.9124 90.9275 78.5947 88.779C80.2814 86.625 81.0899 83.9283 81.0899 80.765H79.0899ZM70.1457 93.0057L80.5407 107.581L82.169 106.419L71.774 91.8443L70.1457 93.0057ZM81.3549 106H73.3249V108H81.3549V106ZM74.1422 106.424L64.6822 93.0038L63.0475 94.1562L72.5075 107.576L74.1422 106.424ZM63.8649 92.58H55.3949V94.58H63.8649V92.58ZM54.3949 93.58V107H56.3949V93.58H54.3949ZM55.3949 106H48.6299V108H55.3949V106ZM55.3949 88.585H65.2949V86.585H55.3949V88.585ZM65.2949 88.585C67.8741 88.585 70.0466 87.9581 71.7042 86.5981L70.4356 85.0519C69.2332 86.0385 67.5557 86.585 65.2949 86.585V88.585ZM71.7158 86.5884C73.375 85.1845 74.2149 83.3448 74.2149 81.15H72.2149C72.2149 82.7686 71.6248 84.0455 70.4239 85.0616L71.7158 86.5884ZM74.2149 81.15V81.04H72.2149V81.15H74.2149ZM74.2149 81.04C74.2149 78.6926 73.4703 76.7737 71.8458 75.4741C70.264 74.2087 68.0051 73.66 65.2399 73.66V75.66C67.7914 75.66 69.5199 76.1747 70.5964 77.0359C71.6303 77.863 72.2149 79.134 72.2149 81.04H74.2149ZM65.2399 73.66H55.3949V75.66H65.2399V73.66ZM54.3949 74.66V87.585H56.3949V74.66H54.3949ZM88.926 107H87.926V108H88.926V107ZM88.926 68.5V67.5H87.926V68.5H88.926ZM117.471 68.5H118.471V67.5H117.471V68.5ZM117.471 74.55V75.55H118.471V74.55H117.471ZM95.691 74.55V73.55H94.691V74.55H95.691ZM95.691 84.56H94.691V85.56H95.691V84.56ZM114.996 84.56H115.996V83.56H114.996V84.56ZM114.996 90.61V91.61H115.996V90.61H114.996ZM95.691 90.61V89.61H94.691V90.61H95.691ZM95.691 100.95H94.691V101.95H95.691V100.95ZM117.746 100.95H118.746V99.95H117.746V100.95ZM117.746 107V108H118.746V107H117.746ZM89.926 107V68.5H87.926V107H89.926ZM88.926 69.5H117.471V67.5H88.926V69.5ZM116.471 68.5V74.55H118.471V68.5H116.471ZM117.471 73.55H95.691V75.55H117.471V73.55ZM94.691 74.55V84.56H96.691V74.55H94.691ZM95.691 85.56H114.996V83.56H95.691V85.56ZM113.996 84.56V90.61H115.996V84.56H113.996ZM114.996 89.61H95.691V91.61H114.996V89.61ZM94.691 90.61V100.95H96.691V90.61H94.691ZM95.691 101.95H117.746V99.95H95.691V101.95ZM116.746 100.95V107H118.746V100.95H116.746ZM117.746 106H88.926V108H117.746V106ZM126.322 107H125.322V108H126.322V107ZM126.322 68.5V67.5H125.322V68.5H126.322ZM154.867 68.5H155.867V67.5H154.867V68.5ZM154.867 74.55V75.55H155.867V74.55H154.867ZM133.087 74.55V73.55H132.087V74.55H133.087ZM133.087 84.56H132.087V85.56H133.087V84.56ZM152.392 84.56H153.392V83.56H152.392V84.56ZM152.392 90.61V91.61H153.392V90.61H152.392ZM133.087 90.61V89.61H132.087V90.61H133.087ZM133.087 100.95H132.087V101.95H133.087V100.95ZM155.142 100.95H156.142V99.95H155.142V100.95ZM155.142 107V108H156.142V107H155.142ZM127.322 107V68.5H125.322V107H127.322ZM126.322 69.5H154.867V67.5H126.322V69.5ZM153.867 68.5V74.55H155.867V68.5H153.867ZM154.867 73.55H133.087V75.55H154.867V73.55ZM132.087 74.55V84.56H134.087V74.55H132.087ZM133.087 85.56H152.392V83.56H133.087V85.56ZM151.392 84.56V90.61H153.392V84.56H151.392ZM152.392 89.61H133.087V91.61H152.392V89.61ZM132.087 90.61V100.95H134.087V90.61H132.087ZM133.087 101.95H155.142V99.95H133.087V101.95ZM154.142 100.95V107H156.142V100.95H154.142ZM155.142 106H126.322V108H155.142V106ZM163.717 107H162.717V108H163.717V107ZM163.717 68.5V67.5H162.717V68.5H163.717ZM169.987 68.5L170.778 67.8875L170.478 67.5H169.987V68.5ZM190.612 95.12L189.822 95.7325L191.612 98.0434V95.12H190.612ZM190.612 68.5V67.5H189.612V68.5H190.612ZM197.267 68.5H198.267V67.5H197.267V68.5ZM197.267 107V108H198.267V107H197.267ZM191.602 107L190.812 107.613L191.112 108H191.602V107ZM170.372 79.61L171.163 78.9974L169.372 76.6875V79.61H170.372ZM170.372 107V108H171.372V107H170.372ZM164.717 107V68.5H162.717V107H164.717ZM163.717 69.5H169.987V67.5H163.717V69.5ZM169.197 69.1125L189.822 95.7325L191.403 94.5075L170.778 67.8875L169.197 69.1125ZM191.612 95.12V68.5H189.612V95.12H191.612ZM190.612 69.5H197.267V67.5H190.612V69.5ZM196.267 68.5V107H198.267V68.5H196.267ZM197.267 106H191.602V108H197.267V106ZM192.393 106.387L171.163 78.9974L169.582 80.2226L190.812 107.613L192.393 106.387ZM169.372 79.61V107H171.372V79.61H169.372ZM170.372 106H163.717V108H170.372V106ZM249.025 107.275L248.1 107.657L248.355 108.275H249.025V107.275ZM233.02 68.5V67.5H231.525L232.095 68.8815L233.02 68.5ZM240.5 68.5L241.43 68.1349L241.182 67.5H240.5V68.5ZM252.105 98.09L251.174 98.4551L252.107 100.834L253.036 98.4536L252.105 98.09ZM263.655 68.5V67.5H262.971L262.723 68.1364L263.655 68.5ZM270.97 68.5L271.894 68.8804L272.462 67.5H270.97V68.5ZM255.02 107.275V108.275H255.689L255.944 107.655L255.02 107.275ZM249.949 106.893L233.944 68.1185L232.095 68.8815L248.1 107.657L249.949 106.893ZM233.02 69.5H240.5V67.5H233.02V69.5ZM239.569 68.8651L251.174 98.4551L253.035 97.7249L241.43 68.1349L239.569 68.8651ZM253.036 98.4536L264.586 68.8636L262.723 68.1364L251.173 97.7264L253.036 98.4536ZM263.655 69.5H270.97V67.5H263.655V69.5ZM270.045 68.1196L254.095 106.895L255.944 107.655L271.894 68.8804L270.045 68.1196ZM255.02 106.275H249.025V108.275H255.02V106.275ZM278.505 107H277.505V108H278.505V107ZM278.505 68.5V67.5H277.505V68.5H278.505ZM285.27 68.5H286.27V67.5H285.27V68.5ZM285.27 107V108H286.27V107H285.27ZM279.505 107V68.5H277.505V107H279.505ZM278.505 69.5H285.27V67.5H278.505V69.5ZM284.27 68.5V107H286.27V68.5H284.27ZM285.27 106H278.505V108H285.27V106ZM296.126 107H295.126V108H296.126V107ZM296.126 68.5V67.5H295.126V68.5H296.126ZM302.891 68.5H303.891V67.5H302.891V68.5ZM302.891 100.84H301.891V101.84H302.891V100.84ZM323.131 100.84H324.131V99.84H323.131V100.84ZM323.131 107V108H324.131V107H323.131ZM297.126 107V68.5H295.126V107H297.126ZM296.126 69.5H302.891V67.5H296.126V69.5ZM301.891 68.5V100.84H303.891V68.5H301.891ZM302.891 101.84H323.131V99.84H302.891V101.84ZM322.131 100.84V107H324.131V100.84H322.131ZM323.131 106H296.126V108H323.131V106ZM330.728 107H329.728V108H330.728V107ZM330.728 68.5V67.5H329.728V68.5H330.728ZM337.493 68.5H338.493V67.5H337.493V68.5ZM337.493 100.84H336.493V101.84H337.493V100.84ZM357.733 100.84H358.733V99.84H357.733V100.84ZM357.733 107V108H358.733V107H357.733ZM331.728 107V68.5H329.728V107H331.728ZM330.728 69.5H337.493V67.5H330.728V69.5ZM336.493 68.5V100.84H338.493V68.5H336.493ZM337.493 101.84H357.733V99.84H337.493V101.84ZM356.733 100.84V107H358.733V100.84H356.733ZM357.733 106H330.728V108H357.733V106ZM362.031 107L361.115 106.6L360.503 108H362.031V107ZM378.971 68.225V67.225H378.317L378.055 67.8247L378.971 68.225ZM385.241 68.225L386.157 67.8247L385.895 67.225H385.241V68.225ZM402.181 107V108H403.709L403.097 106.6L402.181 107ZM395.031 107L394.109 107.387L394.366 108H395.031V107ZM391.126 97.705L392.048 97.3177L391.791 96.705H391.126V97.705ZM372.921 97.705V96.705H372.26L372.001 97.313L372.921 97.705ZM368.961 107V108H369.622L369.881 107.392L368.961 107ZM375.396 91.71L374.477 91.3161L373.88 92.71H375.396V91.71ZM388.651 91.71V92.71H390.173L389.569 91.3133L388.651 91.71ZM381.996 76.31L382.914 75.9133L381.992 73.7803L381.077 75.9161L381.996 76.31ZM362.947 107.4L379.887 68.6253L378.055 67.8247L361.115 106.6L362.947 107.4ZM378.971 69.225H385.241V67.225H378.971V69.225ZM384.325 68.6253L401.265 107.4L403.097 106.6L386.157 67.8247L384.325 68.6253ZM402.181 106H395.031V108H402.181V106ZM395.953 106.613L392.048 97.3177L390.204 98.0923L394.109 107.387L395.953 106.613ZM391.126 96.705H372.921V98.705H391.126V96.705ZM372.001 97.313L368.041 106.608L369.881 107.392L373.841 98.0969L372.001 97.313ZM368.961 106H362.031V108H368.961V106ZM375.396 92.71H388.651V90.71H375.396V92.71ZM389.569 91.3133L382.914 75.9133L381.078 76.7067L387.733 92.1067L389.569 91.3133ZM381.077 75.9161L374.477 91.3161L376.315 92.1039L382.915 76.7039L381.077 75.9161ZM406.104 101.39L405.338 100.746L404.712 101.491L405.439 102.137L406.104 101.39ZM410.174 96.55L410.825 95.7912L410.059 95.1332L409.408 95.9064L410.174 96.55ZM427.334 100.18L426.746 99.3713L426.741 99.3744L427.334 100.18ZM427.499 93.25L428.09 92.4436L428.083 92.4382L428.075 92.433L427.499 93.25ZM420.459 90.72L420.22 91.6911L420.231 91.6937L420.459 90.72ZM410.999 86.87L411.623 86.0891L411.617 86.0841L410.999 86.87ZM411.329 71.03L410.687 70.2627L410.681 70.2683L411.329 71.03ZM434.759 72.79L435.574 73.3687L436.121 72.5989L435.383 72.0091L434.759 72.79ZM431.129 77.905L430.533 78.708L431.353 79.3168L431.944 78.4837L431.129 77.905ZM416.059 75.265L415.459 74.465L415.45 74.4714L416.059 75.265ZM416.224 82.085L415.652 82.9055L415.663 82.9133L416.224 82.085ZM423.594 84.67L423.828 83.6979L423.827 83.6976L423.594 84.67ZM432.834 88.63L433.492 87.8774L433.486 87.872L433.48 87.8666L432.834 88.63ZM432.064 104.525L431.432 103.75L431.429 103.752L432.064 104.525ZM406.869 102.034L410.939 97.1936L409.408 95.9064L405.338 100.746L406.869 102.034ZM409.522 97.3088C413.55 100.766 417.824 102.555 422.329 102.555V100.555C418.4 100.555 414.571 99.0071 410.825 95.7912L409.522 97.3088ZM422.329 102.555C424.558 102.555 426.457 102.066 427.926 100.986L426.741 99.3744C425.717 100.127 424.279 100.555 422.329 100.555V102.555ZM427.922 100.989C429.376 99.9308 430.149 98.482 430.149 96.715H428.149C428.149 97.808 427.711 98.6692 426.746 99.3713L427.922 100.989ZM430.149 96.715V96.605H428.149V96.715H430.149ZM430.149 96.605C430.149 94.8745 429.461 93.4491 428.09 92.4436L426.907 94.0564C427.736 94.6643 428.149 95.4755 428.149 96.605H430.149ZM428.075 92.433C426.655 91.4304 424.136 90.5536 420.687 89.7463L420.231 91.6937C423.675 92.4997 425.849 93.3096 426.922 94.067L428.075 92.433ZM420.697 89.7489C416.255 88.6565 413.28 87.4142 411.623 86.0891L410.374 87.6509C412.384 89.2592 415.716 90.5835 420.22 91.6911L420.697 89.7489ZM411.617 86.0841C409.664 84.5476 408.644 82.3144 408.644 79.225H406.644C406.644 82.8089 407.86 85.6724 410.38 87.6559L411.617 86.0841ZM408.644 79.225V79.115H406.644V79.225H408.644ZM408.644 79.115C408.644 76.1004 409.749 73.6867 411.977 71.7917L410.681 70.2683C407.995 72.5533 406.644 75.5296 406.644 79.115H408.644ZM411.97 71.7973C414.212 69.9232 417.124 68.95 420.789 68.95V66.95C416.754 66.95 413.359 68.0301 410.687 70.2627L411.97 71.7973ZM420.789 68.95C425.847 68.95 430.282 70.4894 434.134 73.5709L435.383 72.0091C431.168 68.6372 426.29 66.95 420.789 66.95V68.95ZM433.943 72.2113L430.313 77.3262L431.944 78.4837L435.574 73.3687L433.943 72.2113ZM431.725 77.102C428.047 74.3724 424.36 72.945 420.679 72.945V74.945C423.818 74.945 427.097 76.1576 430.533 78.708L431.725 77.102ZM420.679 72.945C418.621 72.945 416.851 73.4209 415.459 74.465L416.659 76.065C417.613 75.3491 418.923 74.945 420.679 74.945V72.945ZM415.45 74.4714C414.118 75.4929 413.409 76.8613 413.409 78.51H415.409C415.409 77.5187 415.8 76.7237 416.667 76.0586L415.45 74.4714ZM413.409 78.51V78.62H415.409V78.51H413.409ZM413.409 78.62C413.409 80.4159 414.175 81.8763 415.652 82.9054L416.795 81.2646C415.852 80.607 415.409 79.7574 415.409 78.62H413.409ZM415.663 82.9133C417.078 83.8703 419.701 84.7642 423.36 85.6424L423.827 83.6976C420.153 82.8158 417.863 81.9864 416.784 81.2567L415.663 82.9133ZM423.359 85.6421C427.559 86.6558 430.458 87.9301 432.188 89.3934L433.48 87.8666C431.396 86.1032 428.135 84.7375 423.828 83.6979L423.359 85.6421ZM432.175 89.3826C433.982 90.9637 434.914 93.1119 434.914 95.945H436.914C436.914 92.6181 435.792 89.8896 433.492 87.8774L432.175 89.3826ZM434.914 95.945V96.055H436.914V95.945H434.914ZM434.914 96.055C434.914 99.3366 433.747 101.865 431.432 103.75L432.695 105.3C435.514 103.005 436.914 99.8868 436.914 96.055H434.914ZM431.429 103.752C429.2 105.582 426.147 106.55 422.164 106.55V108.55C426.467 108.55 430.014 107.501 432.698 105.298L431.429 103.752ZM422.164 106.55C416.326 106.55 411.208 104.589 406.768 100.643L405.439 102.137C410.239 106.404 415.828 108.55 422.164 108.55V106.55Z" fill="#4AB587"/>
</svg>
