<svg width="465" height="412" viewBox="0 0 465 412" fill="none" xmlns="http://www.w3.org/2000/svg">
<path d="M188.805 136.438C196.369 134.391 200.663 133.982 208.431 133.777C219.266 133.368 227.648 131.116 233.373 121.292C226.013 121.292 222.333 120.063 215.791 116.789C207.205 112.695 198.823 114.332 193.098 122.11C190.236 126.409 189.01 131.526 188.805 136.438Z" fill="#DADADA" fill-opacity="0.1"/>
<path d="M128.905 380.218C133.403 373.668 136.265 370.597 141.989 365.276C149.962 357.907 154.664 350.743 152.62 339.485C147.1 344.193 143.42 345.831 136.469 347.673C127.27 350.129 121.954 356.884 122.772 366.708C123.385 371.621 125.634 376.329 128.905 380.218Z" fill="#DADADA" fill-opacity="0.1"/>
<path d="M116.025 447.968C111.528 441.418 108.665 438.348 102.941 433.026C94.9681 425.657 90.266 418.494 92.3104 407.236C97.8302 411.944 101.51 413.581 108.461 415.423C117.661 417.879 122.976 424.634 122.158 434.459C121.545 439.576 119.092 444.079 116.025 447.968Z" fill="#DADADA" fill-opacity="0.1"/>
<path d="M186.148 306.122C192.281 325.976 195.552 333.14 208.84 349.31C215.382 357.497 218.653 364.457 217.427 375.305C201.072 370.802 185.125 369.983 176.744 352.176C169.384 336.415 174.904 318.812 186.148 306.122Z" fill="#DADADA" fill-opacity="0.1"/>
<path d="M232.964 221.382C249.932 235.506 264.038 225.476 283.051 225.067C292.455 224.862 299.815 226.295 308.81 228.546C302.881 210.125 286.526 194.978 266.287 198.253C252.181 200.505 245.843 210.534 235.826 218.926C235.008 219.95 233.986 220.564 232.964 221.382Z" fill="#DADADA" fill-opacity="0.1"/>
<path d="M133.607 403.552C133.607 412.967 132.585 418.084 130.54 427.295C127.678 439.986 127.678 450.424 137.287 460.249C139.74 451.653 142.193 447.764 147.917 441.214C155.482 432.617 156.095 422.178 148.735 413.172C144.851 408.259 139.535 405.189 133.607 403.552Z" fill="#DADADA" fill-opacity="0.1"/>
<path d="M414.708 342.556C405.1 359.545 415.935 370.393 419.001 386.972C420.637 395.16 420.432 401.914 419.819 410.102C435.152 402.119 445.783 385.539 439.854 368.346C435.765 356.27 425.952 352.381 417.161 344.807C416.344 343.988 415.526 343.17 414.708 342.556Z" fill="#DADADA" fill-opacity="0.1"/>
<path d="M343.36 298.958C333.751 315.947 344.586 326.795 347.653 343.375C349.288 351.562 349.084 358.317 348.47 366.504C363.803 358.521 374.434 341.942 368.505 324.748C364.417 312.672 354.604 308.783 345.813 301.21C344.995 300.391 344.177 299.572 343.36 298.958Z" fill="#DADADA" fill-opacity="0.1"/>
<path d="M187.579 255.565C173.881 272.758 171.019 279.103 165.091 300.595C161.82 312.672 157.526 321.678 146.487 328.637C144.442 319.221 142.398 315.128 138.309 306.736C131.358 292.203 132.789 277.67 144.851 266.208C156.3 255.155 172.45 252.699 187.579 255.565Z" fill="#DADADA" fill-opacity="0.1"/>
<path d="M272.011 293.227C258.314 310.42 255.452 316.765 249.523 338.257C246.252 350.334 241.959 359.34 230.919 366.299C228.875 356.884 226.831 352.79 222.742 344.398C215.791 329.865 217.222 315.333 229.284 303.87C240.732 292.817 256.883 290.156 272.011 293.227Z" fill="#DADADA" fill-opacity="0.1"/>
<path d="M221.106 416.856C216.608 398.23 223.559 385.335 237.87 374.077C251.772 363.024 257.087 357.907 265.06 341.737C276.509 357.498 279.166 379.194 265.06 394.341C255.043 404.984 240.937 405.598 228.261 412.353C225.604 413.786 223.355 415.219 221.106 416.856Z" fill="#DADADA" fill-opacity="0.1"/>
<path d="M279.166 19.5632C275.486 4.82595 281.211 -5.40829 292.455 -14.4144C303.29 -23.2159 307.583 -27.3096 313.921 -40C322.916 -27.5142 324.96 -10.116 313.921 1.75568C305.948 10.3524 294.703 10.5571 284.686 16.0836C282.642 17.107 281.006 18.3351 279.166 19.5632Z" fill="#DADADA" fill-opacity="0.1"/>
<path d="M351.946 158.749C373.207 148.105 390.38 126.613 386.087 101.847C383.429 85.8811 372.799 75.6469 357.261 72.3719C349.902 70.7344 345.404 69.9157 338.249 67.4595C337.226 84.2436 346.631 96.1153 350.719 112.081C355.013 128.66 353.786 142.169 351.946 158.749Z" fill="#DADADA" fill-opacity="0.1"/>
<path d="M285.3 377.352C301.45 369.369 314.534 352.79 311.263 333.959C309.219 321.883 301.246 314.105 289.388 311.444C283.869 310.216 280.393 309.601 274.873 307.759C274.056 320.45 281.415 329.661 284.482 341.737C287.753 354.427 286.731 364.662 285.3 377.352Z" fill="#DADADA" fill-opacity="0.1"/>
<path d="M202.502 410.102C211.906 374.691 174.29 376.943 163.046 359.135C156.095 368.96 157.526 378.171 161.206 383.902C169.997 397.002 193.507 391.885 202.502 410.102Z" fill="#DADADA" fill-opacity="0.1"/>
<path d="M368.505 368.346C349.288 371.416 347.653 386.768 336.818 399.458C331.502 405.803 326.187 409.897 319.44 414.605C335.182 421.36 354.604 419.313 364.212 403.961C370.959 393.318 367.892 383.288 368.097 371.621C368.301 370.598 368.505 369.37 368.505 368.346Z" fill="#DADADA" fill-opacity="0.1"/>
<path d="M198.414 158.135C183.081 160.591 181.854 172.667 173.268 182.902C168.975 188.019 164.886 191.089 159.57 194.978C172.041 200.504 187.578 198.867 195.143 186.586C200.458 178.194 198.005 170.006 198.209 161C198.209 159.977 198.209 159.158 198.414 158.135Z" fill="#DADADA" fill-opacity="0.1"/>
<path d="M207.205 328.637C196.165 310.83 193.712 286.267 209.453 270.507C219.062 261.091 233.168 258.43 244.208 266.618C248.297 269.688 250.954 272.349 255.656 275.419C244.208 286.267 230.919 282.174 217.631 301.619C211.907 310.215 209.249 318.812 207.205 328.637Z" fill="#DADADA" fill-opacity="0.1"/>
<path d="M129.722 152.199C120.932 138.075 118.887 118.426 131.562 105.94C139.127 98.3666 150.371 96.3198 159.161 102.87C162.432 105.326 164.477 107.577 168.157 109.829C158.957 118.426 148.531 115.355 137.9 130.707C133.402 137.461 131.358 144.216 129.722 152.199Z" fill="#DADADA" fill-opacity="0.1"/>
<path d="M108.461 219.95C117.252 205.826 119.297 186.177 106.621 173.691C99.0572 166.118 87.8132 164.071 79.0224 170.621C75.7514 173.077 73.707 175.328 70.0272 177.58C79.2268 186.177 89.6532 183.106 100.284 198.458C104.782 205.212 106.826 212.172 108.461 219.95Z" fill="#DADADA" fill-opacity="0.1"/>
<path d="M140.558 207.054C149.553 216.265 144.647 224.862 145.465 235.915C145.873 241.441 147.1 245.535 148.94 250.652C137.9 248.196 128.292 239.599 129.109 227.727C129.723 219.335 135.243 215.242 139.536 208.896C139.74 208.282 140.149 207.668 140.558 207.054Z" fill="#DADADA" fill-opacity="0.1"/>
<path d="M104.372 274.805C95.3772 284.016 100.284 292.613 99.466 303.666C99.0571 309.192 97.8305 313.286 95.9905 318.403C107.03 315.947 116.639 307.35 115.821 295.478C115.208 287.086 109.688 282.993 105.395 276.647C105.19 276.033 104.781 275.419 104.372 274.805Z" fill="#DADADA" fill-opacity="0.1"/>
<path d="M203.32 436.097C187.783 437.12 183.694 425.658 173.064 417.675C167.748 413.786 162.842 411.534 156.913 409.078C167.748 400.891 183.49 398.844 193.712 409.078C200.867 416.242 200.458 424.634 202.707 433.436C202.911 434.254 203.116 435.073 203.32 436.097Z" fill="#DADADA" fill-opacity="0.1"/>
<path d="M296.339 421.359C282.642 427.909 279.575 431.593 268.74 441.623C255.656 453.495 239.71 456.565 224.173 446.945C219.675 444.079 215.791 440.599 212.52 436.301C228.262 431.184 232.146 427.704 245.639 419.108C263.016 408.259 280.393 407.645 296.339 421.359Z" fill="#DADADA" fill-opacity="0.1"/>
<path d="M323.529 325.976C310.445 307.555 304.926 303.052 285.709 291.385C274.669 284.63 267.309 278.08 263.22 265.185C273.033 265.594 277.531 264.776 286.935 263.138C303.086 260.272 316.987 265.799 324.96 280.741C332.525 295.274 330.48 311.853 323.529 325.976Z" fill="#DADADA" fill-opacity="0.1"/>
<path d="M327.413 340.1C338.249 357.293 340.702 380.832 325.778 396.388C317.396 405.189 307.174 407.646 295.726 405.599C291.228 404.78 287.139 403.961 282.642 403.143C286.73 391.68 295.93 386.154 303.699 377.557C314.943 365.276 320.054 354.428 327.413 340.1Z" fill="#DADADA" fill-opacity="0.1"/>
<path d="M5.42487 413.376C19.9399 415.423 25.4597 415.423 39.9748 411.739C47.1301 409.897 52.6499 409.897 59.1919 413.99C51.4233 423.201 46.1079 433.231 32.2062 433.231C19.9399 433.435 10.1269 424.634 5.42487 413.376Z" fill="#DADADA" fill-opacity="0.1"/>
<path d="M47.9476 310.011C55.9207 321.268 66.347 317.584 77.7955 320.654C83.5197 322.087 87.8129 324.134 92.9238 327C92.3105 314.719 84.9508 302.847 72.0712 301.619C63.076 300.595 57.5562 305.712 49.992 309.192C49.3787 309.192 48.7654 309.601 47.9476 310.011Z" fill="#DADADA" fill-opacity="0.1"/>
<path d="M-26.672 397.411C-19.7211 411.534 -16.4501 415.219 -4.59275 425.453C2.15369 431.184 6.6513 436.711 7.87793 445.921C1.33592 444.489 -1.93506 444.489 -8.6815 444.693C-20.13 444.898 -29.1253 439.576 -32.8052 428.319C-36.2806 417.47 -33.0096 406.213 -26.672 397.411Z" fill="#DADADA" fill-opacity="0.1"/>
<path d="M23.0062 354.223C29.9571 368.346 33.2281 372.03 45.0855 382.264C51.8319 387.996 56.3295 393.522 57.5562 402.733C51.0142 401.3 47.7432 401.3 40.9967 401.505C29.5482 401.71 20.553 396.388 16.8731 385.13C13.1932 374.282 16.4642 363.024 23.0062 354.223Z" fill="#DADADA" fill-opacity="0.1"/>
<path d="M87.1997 424.225C73.9113 421.564 67.7782 413.172 64.7116 400.686C61.6451 388.405 60.0096 383.493 52.241 373.463C65.7338 370.802 80.6578 375.715 85.9731 389.224C89.8574 399.049 85.9731 408.26 86.5864 418.289C86.5864 420.336 86.7909 422.178 87.1997 424.225Z" fill="#DADADA" fill-opacity="0.1"/>
<path d="M81.0664 370.802C80.6575 357.907 74.1155 344.602 61.0316 341.123C52.6496 338.871 45.0855 341.532 39.9746 348.491C37.5213 351.766 36.0902 353.813 33.2281 356.679C41.2012 360.977 49.1742 359.135 57.965 360.773C66.9602 362.41 73.2978 366.094 81.0664 370.802Z" fill="#DADADA" fill-opacity="0.1"/>
<path d="M26.2773 406.622C11.5578 408.464 -5.00161 402.528 -10.5214 387.791C-13.7924 378.785 -11.1347 368.96 -2.54834 364.252C0.722664 362.41 3.17591 361.591 6.65135 359.544C10.3312 370.188 3.58478 377.557 12.1712 391.885C15.851 398.025 20.5531 402.324 26.2773 406.622Z" fill="#DADADA" fill-opacity="0.1"/>
<path d="M59.396 330.889C43.6543 333.754 39.1567 336.006 25.8683 344.807C18.3041 349.925 11.7621 352.79 2.35803 351.357C5.62902 345.217 6.44679 341.942 8.28672 335.392C11.3533 324.134 18.9174 316.766 30.9792 316.152C42.4277 315.742 52.4451 322.087 59.396 330.889Z" fill="#DADADA" fill-opacity="0.1"/>
<path d="M69.8224 332.526C84.1329 330.684 100.079 336.211 105.599 350.539C108.665 358.521 107.234 365.89 102.532 372.644C100.692 375.305 98.8524 377.762 97.0124 380.422C90.8793 374.282 90.0616 366.709 86.9951 359.135C82.293 348.082 76.7732 341.532 69.8224 332.526Z" fill="#DADADA" fill-opacity="0.1"/>
</svg>
