<svg  data-aos="fade-right" data-aos-duration="2000" data-aos-anchor="._2" width="1108" height="61" viewBox="0 0 1108 61" fill="none" xmlns="http://www.w3.org/2000/svg">
<path opacity="0.6" d="M26.001 59.405L25.0766 59.7865L25.3319 60.405H26.001V59.405ZM2.43 2.3V1.3H0.935395L1.50565 2.68154L2.43 2.3ZM13.446 2.3L14.377 1.93488L14.128 1.3H13.446V2.3ZM30.537 45.878L29.606 46.2431L30.5392 48.6225L31.4685 46.2416L30.537 45.878ZM47.547 2.3V1.3H46.8639L46.6155 1.93638L47.547 2.3ZM58.32 2.3L59.2448 2.68042L59.8126 1.3H58.32V2.3ZM34.83 59.405V60.405H35.5L35.7548 59.7854L34.83 59.405ZM26.9254 59.0235L3.35435 1.91846L1.50565 2.68154L25.0766 59.7865L26.9254 59.0235ZM2.43 3.3H13.446V1.3H2.43V3.3ZM12.515 2.66511L29.606 46.2431L31.468 45.5129L14.377 1.93488L12.515 2.66511ZM31.4685 46.2416L48.4785 2.66361L46.6155 1.93638L29.6055 45.5144L31.4685 46.2416ZM47.547 3.3H58.32V1.3H47.547V3.3ZM57.3952 1.91958L33.9052 59.0246L35.7548 59.7854L59.2448 2.68042L57.3952 1.91958ZM34.83 58.405H26.001V60.405H34.83V58.405ZM68.607 59H67.607V60H68.607V59ZM68.607 2.3V1.3H67.607V2.3H68.607ZM78.57 2.3H79.57V1.3H78.57V2.3ZM78.57 59V60H79.57V59H78.57ZM69.607 59V2.3H67.607V59H69.607ZM68.607 3.3H78.57V1.3H68.607V3.3ZM77.57 2.3V59H79.57V2.3H77.57ZM78.57 58H68.607V60H78.57V58ZM93.748 59H92.748V60H93.748V59ZM93.748 2.3V1.3H92.748V2.3H93.748ZM102.982 2.3L103.772 1.68753L103.472 1.3H102.982V2.3ZM133.357 41.504L132.567 42.1165L134.357 44.4274V41.504H133.357ZM133.357 2.3V1.3H132.357V2.3H133.357ZM143.158 2.3H144.158V1.3H143.158V2.3ZM143.158 59V60H144.158V59H143.158ZM134.815 59L134.025 59.6126L134.325 60H134.815V59ZM103.549 18.662L104.339 18.0494L102.549 15.7395V18.662H103.549ZM103.549 59V60H104.549V59H103.549ZM94.748 59V2.3H92.748V59H94.748ZM93.748 3.3H102.982V1.3H93.748V3.3ZM102.192 2.91247L132.567 42.1165L134.148 40.8915L103.772 1.68753L102.192 2.91247ZM134.357 41.504V2.3H132.357V41.504H134.357ZM133.357 3.3H143.158V1.3H133.357V3.3ZM142.158 2.3V59H144.158V2.3H142.158ZM143.158 58H134.815V60H143.158V58ZM135.605 58.3874L104.339 18.0494L102.759 19.2746L134.025 59.6126L135.605 58.3874ZM102.549 18.662V59H104.549V18.662H102.549ZM103.549 58H93.748V60H103.549V58ZM157.741 59H156.741V60H157.741V59ZM157.741 2.3V1.3H156.741V2.3H157.741ZM167.704 2.3H168.704V1.3H167.704V2.3ZM167.704 25.871H166.704V26.871H167.704V25.871ZM194.758 25.871V26.871H195.758V25.871H194.758ZM194.758 2.3V1.3H193.758V2.3H194.758ZM204.721 2.3H205.721V1.3H204.721V2.3ZM204.721 59V60H205.721V59H204.721ZM194.758 59H193.758V60H194.758V59ZM194.758 35.105H195.758V34.105H194.758V35.105ZM167.704 35.105V34.105H166.704V35.105H167.704ZM167.704 59V60H168.704V59H167.704ZM158.741 59V2.3H156.741V59H158.741ZM157.741 3.3H167.704V1.3H157.741V3.3ZM166.704 2.3V25.871H168.704V2.3H166.704ZM167.704 26.871H194.758V24.871H167.704V26.871ZM195.758 25.871V2.3H193.758V25.871H195.758ZM194.758 3.3H204.721V1.3H194.758V3.3ZM203.721 2.3V59H205.721V2.3H203.721ZM204.721 58H194.758V60H204.721V58ZM195.758 59V35.105H193.758V59H195.758ZM194.758 34.105H167.704V36.105H194.758V34.105ZM166.704 35.105V59H168.704V35.105H166.704ZM167.704 58H157.741V60H167.704V58ZM221.474 51.386L220.76 52.0862L220.76 52.0863L221.474 51.386ZM221.555 9.995L220.841 9.29459L220.841 9.29472L221.555 9.995ZM264.242 9.914L264.956 9.21379L264.955 9.21366L264.242 9.914ZM264.161 51.305L264.874 52.0054L264.874 52.0053L264.161 51.305ZM256.709 44.906L255.976 44.2251L255.971 44.2303L256.709 44.906ZM256.628 16.394L255.891 17.0702L255.896 17.0752L256.628 16.394ZM229.007 16.313L228.275 15.6318L228.274 15.6322L229.007 16.313ZM229.088 44.825L228.356 45.5062L228.356 45.5066L229.088 44.825ZM222.188 50.6858C216.869 45.2628 214.212 38.6588 214.212 30.812H212.212C212.212 39.1652 215.062 46.2772 220.76 52.0862L222.188 50.6858ZM214.212 30.812V30.65H212.212V30.812H214.212ZM214.212 30.65C214.212 22.8061 216.894 16.1742 222.268 10.6953L220.841 9.29472C215.091 15.1558 212.212 22.2939 212.212 30.65H214.212ZM222.268 10.6954C227.738 5.12159 234.603 2.328 242.939 2.328V0.327999C234.102 0.327999 226.711 3.31241 220.841 9.29459L222.268 10.6954ZM242.939 2.328C251.277 2.328 258.114 5.09655 263.528 10.6143L264.955 9.21366C259.137 3.28344 251.772 0.327999 242.939 0.327999V2.328ZM263.528 10.6142C268.846 16.0372 271.504 22.6412 271.504 30.488H273.504C273.504 22.1348 270.653 15.0228 264.956 9.21379L263.528 10.6142ZM271.504 30.488V30.65H273.504V30.488H271.504ZM271.504 30.65C271.504 38.4939 268.821 45.1258 263.447 50.6047L264.874 52.0053C270.624 46.1442 273.504 39.0061 273.504 30.65H271.504ZM263.447 50.6046C257.977 56.1784 251.112 58.972 242.777 58.972V60.972C251.613 60.972 259.004 57.9876 264.874 52.0054L263.447 50.6046ZM242.777 58.972C234.438 58.972 227.601 56.2034 222.187 50.6857L220.76 52.0863C226.578 58.0166 233.943 60.972 242.777 60.972V58.972ZM257.441 45.5868C261.188 41.5555 263.055 36.6093 263.055 30.812H261.055C261.055 36.1387 259.357 40.5885 255.976 44.2252L257.441 45.5868ZM263.055 30.812V30.65H261.055V30.812H263.055ZM263.055 30.65C263.055 24.7972 261.16 19.7972 257.36 15.7128L255.896 17.0752C259.331 20.7668 261.055 25.2708 261.055 30.65H263.055ZM257.364 15.7178C253.547 11.5582 248.657 9.481 242.777 9.481V11.481C248.128 11.481 252.473 13.3458 255.891 17.0702L257.364 15.7178ZM242.777 9.481C236.952 9.481 232.092 11.5299 228.275 15.6318L229.739 16.9942C233.158 13.3201 237.478 11.481 242.777 11.481V9.481ZM228.274 15.6322C224.525 19.6654 222.661 24.6395 222.661 30.488H224.661C224.661 25.1045 226.36 20.6286 229.739 16.9938L228.274 15.6322ZM222.661 30.488V30.65H224.661V30.488H222.661ZM222.661 30.65C222.661 36.4516 224.557 41.4238 228.356 45.5062L229.82 44.1438C226.383 40.4502 224.661 35.9724 224.661 30.65H222.661ZM228.356 45.5066C232.224 49.659 237.109 51.738 242.939 51.738V49.738C237.644 49.738 233.295 47.875 229.819 44.1434L228.356 45.5066ZM242.939 51.738C248.815 51.738 253.679 49.6909 257.446 45.5817L255.971 44.2303C252.61 47.8971 248.295 49.738 242.939 49.738V51.738ZM284.541 59H283.541V60H284.541V59ZM284.541 2.3V1.3H283.541V2.3H284.541ZM295.152 2.3L295.993 1.75885L295.698 1.3H295.152V2.3ZM312.405 29.111L311.564 29.6521L312.405 30.9589L313.246 29.6521L312.405 29.111ZM329.658 2.3V1.3H329.112L328.817 1.75885L329.658 2.3ZM340.269 2.3H341.269V1.3H340.269V2.3ZM340.269 59V60H341.269V59H340.269ZM330.306 59H329.306V60H330.306V59ZM330.306 18.338H331.306V15.0477L329.475 17.7816L330.306 18.338ZM312.405 45.068V46.068H312.939L313.236 45.6244L312.405 45.068ZM312.081 45.068L311.249 45.6233L311.546 46.068H312.081V45.068ZM294.342 18.5L295.174 17.9447L293.342 15.2014V18.5H294.342ZM294.342 59V60H295.342V59H294.342ZM285.541 59V2.3H283.541V59H285.541ZM284.541 3.3H295.152V1.3H284.541V3.3ZM294.311 2.84114L311.564 29.6521L313.246 28.5699L295.993 1.75885L294.311 2.84114ZM313.246 29.6521L330.499 2.84114L328.817 1.75885L311.564 28.5699L313.246 29.6521ZM329.658 3.3H340.269V1.3H329.658V3.3ZM339.269 2.3V59H341.269V2.3H339.269ZM340.269 58H330.306V60H340.269V58ZM331.306 59V18.338H329.306V59H331.306ZM329.475 17.7816L311.574 44.5116L313.236 45.6244L331.137 18.8944L329.475 17.7816ZM312.405 44.068H312.081V46.068H312.405V44.068ZM312.913 44.5127L295.174 17.9447L293.51 19.0553L311.249 45.6233L312.913 44.5127ZM293.342 18.5V59H295.342V18.5H293.342ZM294.342 58H284.541V60H294.342V58ZM354.862 59H353.862V60H354.862V59ZM354.862 2.3V1.3H353.862V2.3H354.862ZM396.901 2.3H397.901V1.3H396.901V2.3ZM396.901 11.21V12.21H397.901V11.21H396.901ZM364.825 11.21V10.21H363.825V11.21H364.825ZM364.825 25.952H363.825V26.952H364.825V25.952ZM393.256 25.952H394.256V24.952H393.256V25.952ZM393.256 34.862V35.862H394.256V34.862H393.256ZM364.825 34.862V33.862H363.825V34.862H364.825ZM364.825 50.09H363.825V51.09H364.825V50.09ZM397.306 50.09H398.306V49.09H397.306V50.09ZM397.306 59V60H398.306V59H397.306ZM355.862 59V2.3H353.862V59H355.862ZM354.862 3.3H396.901V1.3H354.862V3.3ZM395.901 2.3V11.21H397.901V2.3H395.901ZM396.901 10.21H364.825V12.21H396.901V10.21ZM363.825 11.21V25.952H365.825V11.21H363.825ZM364.825 26.952H393.256V24.952H364.825V26.952ZM392.256 25.952V34.862H394.256V25.952H392.256ZM393.256 33.862H364.825V35.862H393.256V33.862ZM363.825 34.862V50.09H365.825V34.862H363.825ZM364.825 51.09H397.306V49.09H364.825V51.09ZM396.306 50.09V59H398.306V50.09H396.306ZM397.306 58H354.862V60H397.306V58ZM405.319 50.738L404.554 50.0944L403.927 50.839L404.655 51.4854L405.319 50.738ZM411.313 43.61L411.964 42.8512L411.198 42.1932L410.548 42.9664L411.313 43.61ZM436.585 48.956L435.997 48.1473L435.993 48.1503L436.585 48.956ZM436.828 38.75L437.419 37.9436L437.412 37.9382L437.405 37.933L436.828 38.75ZM426.46 35.024L426.221 35.9951L426.232 35.9977L426.46 35.024ZM412.528 29.354L413.153 28.5731L413.146 28.5681L412.528 29.354ZM413.014 6.026L412.373 5.25869L412.366 5.26434L413.014 6.026ZM447.52 8.618L448.335 9.19674L448.882 8.42687L448.145 7.83713L447.52 8.618ZM442.174 16.151L441.578 16.954L442.398 17.5628L442.989 16.7297L442.174 16.151ZM419.98 12.263L419.38 11.463L419.372 11.4694L419.98 12.263ZM420.223 22.307L419.651 23.1275L419.663 23.1353L420.223 22.307ZM431.077 26.114L431.312 25.1419L431.31 25.1416L431.077 26.114ZM444.685 31.946L445.343 31.1934L445.337 31.188L445.331 31.1826L444.685 31.946ZM443.551 55.355L442.919 54.5796L442.916 54.5821L443.551 55.355ZM406.084 51.3816L412.078 44.2536L410.548 42.9664L404.554 50.0944L406.084 51.3816ZM410.662 44.3688C416.526 49.4036 422.716 51.981 429.214 51.981V49.981C423.291 49.981 417.548 47.6444 411.964 42.8512L410.662 44.3688ZM429.214 51.981C432.431 51.981 435.118 51.2755 437.177 49.7617L435.993 48.1503C434.379 49.3365 432.153 49.981 429.214 49.981V51.981ZM437.173 49.7647C439.2 48.2908 440.258 46.296 440.258 43.853H438.258C438.258 45.622 437.534 47.0292 435.997 48.1473L437.173 49.7647ZM440.258 43.853V43.691H438.258V43.853H440.258ZM440.258 43.691C440.258 41.2845 439.31 39.3304 437.419 37.9436L436.237 39.5564C437.585 40.5456 438.258 41.8855 438.258 43.691H440.258ZM437.405 37.933C435.395 36.5144 431.767 35.239 426.688 34.0503L426.232 35.9977C431.305 37.185 434.589 38.3936 436.251 39.567L437.405 37.933ZM426.699 34.0529C420.142 32.4405 415.676 30.5915 413.153 28.5731L411.903 30.1349C414.78 32.4365 419.602 34.3675 426.221 35.9951L426.699 34.0529ZM413.146 28.5681C410.136 26.1996 408.587 22.7617 408.587 18.095H406.587C406.587 23.2563 408.332 27.3244 411.91 30.1399L413.146 28.5681ZM408.587 18.095V17.933H406.587V18.095H408.587ZM408.587 17.933C408.587 13.3584 410.273 9.67066 413.662 6.78765L412.366 5.26434C408.519 8.53734 406.587 12.7876 406.587 17.933H408.587ZM413.655 6.79328C417.059 3.94856 421.461 2.49 426.946 2.49V0.489997C421.091 0.489997 416.205 2.05543 412.373 5.25871L413.655 6.79328ZM426.946 2.49C434.5 2.49 441.137 4.7921 446.895 9.39887L448.145 7.83713C442.023 2.93989 434.944 0.489997 426.946 0.489997V2.49ZM446.704 8.03925L441.358 15.5723L442.989 16.7297L448.335 9.19674L446.704 8.03925ZM442.77 15.348C437.411 11.3704 432.077 9.319 426.784 9.319V11.319C431.535 11.319 436.461 13.1556 441.578 16.954L442.77 15.348ZM426.784 9.319C423.825 9.319 421.327 10.0029 419.38 11.463L420.58 13.063C422.089 11.9311 424.127 11.319 426.784 11.319V9.319ZM419.372 11.4694C417.519 12.8896 416.55 14.7693 416.55 17.042H418.55C418.55 15.4267 419.201 14.1204 420.588 13.0566L419.372 11.4694ZM416.55 17.042V17.204H418.55V17.042H416.55ZM416.55 17.204C416.55 19.6932 417.603 21.6997 419.651 23.1274L420.795 21.4866C419.279 20.4303 418.55 19.0348 418.55 17.204H416.55ZM419.663 23.1353C421.667 24.4909 425.451 25.7922 430.844 27.0864L431.31 25.1416C425.903 23.8438 422.451 22.6071 420.783 21.4787L419.663 23.1353ZM430.842 27.0861C437.053 28.5851 441.408 30.4834 444.039 32.7094L445.331 31.1826C442.346 28.6566 437.629 26.6669 431.312 25.1419L430.842 27.0861ZM444.026 32.6986C446.804 35.129 448.221 38.4299 448.221 42.719H450.221C450.221 37.9361 448.614 34.055 445.343 31.1934L444.026 32.6986ZM448.221 42.719V42.881H450.221V42.719H448.221ZM448.221 42.881C448.221 47.8439 446.447 51.7071 442.92 54.5796L444.182 56.1304C448.215 52.8469 450.221 48.3941 450.221 42.881H448.221ZM442.916 54.5821C439.525 57.3657 434.913 58.81 428.971 58.81V60.81C435.233 60.81 440.34 59.2843 444.185 56.1279L442.916 54.5821ZM428.971 58.81C420.256 58.81 412.607 55.8787 405.983 49.9906L404.655 51.4854C411.638 57.6933 419.758 60.81 428.971 60.81V58.81ZM487.17 51.548L486.452 52.2445L486.456 52.2482L487.17 51.548ZM487.332 9.995L486.615 9.29801L486.611 9.30175L487.332 9.995ZM530.181 9.023L530.947 9.66561L531.583 8.90703L530.831 8.26326L530.181 9.023ZM523.863 16.556L523.214 17.3171L523.982 17.9709L524.629 17.1986L523.863 16.556ZM494.865 16.394L494.123 15.7234L494.123 15.7239L494.865 16.394ZM494.865 45.149L494.132 45.8295L494.138 45.8353L494.865 45.149ZM522.567 46.607L523.165 47.4084L523.567 47.1084V46.607H522.567ZM522.567 35.996H523.567V34.996H522.567V35.996ZM508.068 35.996H507.068V36.996H508.068V35.996ZM508.068 27.329V26.329H507.068V27.329H508.068ZM532.206 27.329H533.206V26.329H532.206V27.329ZM532.206 51.143L532.857 51.9018L533.206 51.6025V51.143H532.206ZM487.888 50.8515C482.739 45.5466 480.151 38.8918 480.151 30.812H478.151C478.151 39.3642 480.909 46.5334 486.452 52.2445L487.888 50.8515ZM480.151 30.812V30.65H478.151V30.812H480.151ZM480.151 30.65C480.151 22.8 482.784 16.1659 488.053 10.6882L486.611 9.30175C480.972 15.1641 478.151 22.3 478.151 30.65H480.151ZM488.049 10.692C493.467 5.11734 500.224 2.328 508.392 2.328V0.327999C499.712 0.327999 492.429 3.31666 486.615 9.29802L488.049 10.692ZM508.392 2.328C516.707 2.328 523.733 4.82089 529.531 9.78274L530.831 8.26326C524.641 2.96511 517.142 0.327999 508.392 0.327999V2.328ZM529.415 8.38038L523.097 15.9134L524.629 17.1986L530.947 9.66561L529.415 8.38038ZM524.512 15.7949C519.593 11.6025 514.074 9.481 507.987 9.481V11.481C513.564 11.481 518.63 13.4095 523.214 17.3171L524.512 15.7949ZM507.987 9.481C502.512 9.481 497.871 11.5777 494.123 15.7234L495.607 17.0646C498.987 13.3263 503.094 11.481 507.987 11.481V9.481ZM494.123 15.7239C490.438 19.8058 488.6 24.7464 488.6 30.488H490.6C490.6 25.2136 492.272 20.7582 495.607 17.0641L494.123 15.7239ZM488.6 30.488V30.65H490.6V30.488H488.6ZM488.6 30.65C488.6 36.7501 490.426 41.8382 494.132 45.8295L495.598 44.4685C492.284 40.8998 490.6 36.3219 490.6 30.65H488.6ZM494.138 45.8353C497.962 49.8879 502.905 51.9 508.878 51.9V49.9C503.403 49.9 499.004 48.0781 495.592 44.4627L494.138 45.8353ZM508.878 51.9C514.362 51.9 519.14 50.413 523.165 47.4084L521.969 45.8056C518.326 48.525 513.979 49.9 508.878 49.9V51.9ZM523.567 46.607V35.996H521.567V46.607H523.567ZM522.567 34.996H508.068V36.996H522.567V34.996ZM509.068 35.996V27.329H507.068V35.996H509.068ZM508.068 28.329H532.206V26.329H508.068V28.329ZM531.206 27.329V51.143H533.206V27.329H531.206ZM531.555 50.3842C524.875 56.117 517.221 58.972 508.554 58.972V60.972C517.707 60.972 525.821 57.941 532.857 51.9018L531.555 50.3842ZM508.554 58.972C500.042 58.972 493.182 56.2496 487.884 50.8478L486.456 52.2482C492.174 58.0784 499.571 60.972 508.554 60.972V58.972ZM545.181 59H544.181V60H545.181V59ZM545.181 2.3V1.3H544.181V2.3H545.181ZM586.815 7.97L587.528 7.26896L587.522 7.26338L587.517 7.25789L586.815 7.97ZM578.067 37.535L577.784 36.5759L576.438 36.9732L577.253 38.1157L578.067 37.535ZM593.376 59V60H595.317L594.19 58.4193L593.376 59ZM581.55 59L580.732 59.5762L581.031 60H581.55V59ZM567.618 39.236L568.435 38.6598L568.136 38.236H567.618V39.236ZM555.144 39.236V38.236H554.144V39.236H555.144ZM555.144 59V60H556.144V59H555.144ZM555.144 30.407H554.144V31.407H555.144V30.407ZM578.229 27.815L578.863 28.5881L578.869 28.5833L578.875 28.5784L578.229 27.815ZM555.144 11.372V10.372H554.144V11.372H555.144ZM546.181 59V2.3H544.181V59H546.181ZM545.181 3.3H570.453V1.3H545.181V3.3ZM570.453 3.3C577.349 3.3 582.519 5.13896 586.113 8.6821L587.517 7.25789C583.442 3.24103 577.704 1.3 570.453 1.3V3.3ZM586.102 8.67103C589.028 11.6483 590.513 15.4632 590.513 20.201H592.513C592.513 15.0028 590.865 10.6637 587.528 7.26896L586.102 8.67103ZM590.513 20.201V20.363H592.513V20.201H590.513ZM590.513 20.363C590.513 24.5891 589.44 27.9897 587.364 30.641C585.283 33.2978 582.123 35.295 577.784 36.5759L578.35 38.4941C582.974 37.129 586.537 34.9412 588.938 31.874C591.344 28.8013 592.513 24.9389 592.513 20.363H590.513ZM577.253 38.1157L592.561 59.5807L594.19 58.4193L578.881 36.9543L577.253 38.1157ZM593.376 58H581.55V60H593.376V58ZM582.367 58.4238L568.435 38.6598L566.8 39.8122L580.732 59.5762L582.367 58.4238ZM567.618 38.236H555.144V40.236H567.618V38.236ZM554.144 39.236V59H556.144V39.236H554.144ZM555.144 58H545.181V60H555.144V58ZM555.144 31.407H569.724V29.407H555.144V31.407ZM569.724 31.407C573.447 31.407 576.529 30.5028 578.863 28.5881L577.594 27.0419C575.716 28.5832 573.128 29.407 569.724 29.407V31.407ZM578.875 28.5784C581.21 26.6025 582.388 24.0261 582.388 20.93H580.388C580.388 23.4499 579.46 25.4635 577.583 27.0516L578.875 28.5784ZM582.388 20.93V20.768H580.388V20.93H582.388ZM582.388 20.768C582.388 17.4153 581.329 14.7424 579.076 12.9401C576.866 11.172 573.664 10.372 569.643 10.372V12.372C573.451 12.372 576.122 13.138 577.827 14.5019C579.489 15.8316 580.388 17.8567 580.388 20.768H582.388ZM569.643 10.372H555.144V12.372H569.643V10.372ZM554.144 11.372V30.407H556.144V11.372H554.144ZM603.716 59H602.716V60H603.716V59ZM603.716 2.3V1.3H602.716V2.3H603.716ZM645.755 2.3H646.755V1.3H645.755V2.3ZM645.755 11.21V12.21H646.755V11.21H645.755ZM613.679 11.21V10.21H612.679V11.21H613.679ZM613.679 25.952H612.679V26.952H613.679V25.952ZM642.11 25.952H643.11V24.952H642.11V25.952ZM642.11 34.862V35.862H643.11V34.862H642.11ZM613.679 34.862V33.862H612.679V34.862H613.679ZM613.679 50.09H612.679V51.09H613.679V50.09ZM646.16 50.09H647.16V49.09H646.16V50.09ZM646.16 59V60H647.16V59H646.16ZM604.716 59V2.3H602.716V59H604.716ZM603.716 3.3H645.755V1.3H603.716V3.3ZM644.755 2.3V11.21H646.755V2.3H644.755ZM645.755 10.21H613.679V12.21H645.755V10.21ZM612.679 11.21V25.952H614.679V11.21H612.679ZM613.679 26.952H642.11V24.952H613.679V26.952ZM641.11 25.952V34.862H643.11V25.952H641.11ZM642.11 33.862H613.679V35.862H642.11V33.862ZM612.679 34.862V50.09H614.679V34.862H612.679ZM613.679 51.09H646.16V49.09H613.679V51.09ZM645.16 50.09V59H647.16V50.09H645.16ZM646.16 58H603.716V60H646.16V58ZM657.979 59H656.979V60H657.979V59ZM657.979 2.3V1.3H656.979V2.3H657.979ZM700.018 2.3H701.018V1.3H700.018V2.3ZM700.018 11.21V12.21H701.018V11.21H700.018ZM667.942 11.21V10.21H666.942V11.21H667.942ZM667.942 25.952H666.942V26.952H667.942V25.952ZM696.373 25.952H697.373V24.952H696.373V25.952ZM696.373 34.862V35.862H697.373V34.862H696.373ZM667.942 34.862V33.862H666.942V34.862H667.942ZM667.942 50.09H666.942V51.09H667.942V50.09ZM700.423 50.09H701.423V49.09H700.423V50.09ZM700.423 59V60H701.423V59H700.423ZM658.979 59V2.3H656.979V59H658.979ZM657.979 3.3H700.018V1.3H657.979V3.3ZM699.018 2.3V11.21H701.018V2.3H699.018ZM700.018 10.21H667.942V12.21H700.018V10.21ZM666.942 11.21V25.952H668.942V11.21H666.942ZM667.942 26.952H696.373V24.952H667.942V26.952ZM695.373 25.952V34.862H697.373V25.952H695.373ZM696.373 33.862H667.942V35.862H696.373V33.862ZM666.942 34.862V50.09H668.942V34.862H666.942ZM667.942 51.09H700.423V49.09H667.942V51.09ZM699.423 50.09V59H701.423V50.09H699.423ZM700.423 58H657.979V60H700.423V58ZM712.243 59H711.243V60H712.243V59ZM712.243 2.3V1.3H711.243V2.3H712.243ZM721.477 2.3L722.268 1.68753L721.967 1.3H721.477V2.3ZM751.852 41.504L751.062 42.1165L752.852 44.4274V41.504H751.852ZM751.852 2.3V1.3H750.852V2.3H751.852ZM761.653 2.3H762.653V1.3H761.653V2.3ZM761.653 59V60H762.653V59H761.653ZM753.31 59L752.52 59.6126L752.82 60H753.31V59ZM722.044 18.662L722.834 18.0494L721.044 15.7395V18.662H722.044ZM722.044 59V60H723.044V59H722.044ZM713.243 59V2.3H711.243V59H713.243ZM712.243 3.3H721.477V1.3H712.243V3.3ZM720.687 2.91247L751.062 42.1165L752.643 40.8915L722.268 1.68753L720.687 2.91247ZM752.852 41.504V2.3H750.852V41.504H752.852ZM751.852 3.3H761.653V1.3H751.852V3.3ZM760.653 2.3V59H762.653V2.3H760.653ZM761.653 58H753.31V60H761.653V58ZM754.101 58.3874L722.834 18.0494L721.254 19.2746L752.52 59.6126L754.101 58.3874ZM721.044 18.662V59H723.044V18.662H721.044ZM722.044 58H712.243V60H722.044V58ZM835.447 59.405L834.523 59.7865L834.778 60.405H835.447V59.405ZM811.876 2.3V1.3H810.382L810.952 2.68154L811.876 2.3ZM822.892 2.3L823.823 1.93488L823.574 1.3H822.892V2.3ZM839.983 45.878L839.052 46.2431L839.985 48.6225L840.915 46.2416L839.983 45.878ZM856.993 2.3V1.3H856.31L856.062 1.93638L856.993 2.3ZM867.766 2.3L868.691 2.68042L869.259 1.3H867.766V2.3ZM844.276 59.405V60.405H844.946L845.201 59.7854L844.276 59.405ZM836.372 59.0235L812.801 1.91846L810.952 2.68154L834.523 59.7865L836.372 59.0235ZM811.876 3.3H822.892V1.3H811.876V3.3ZM821.961 2.66511L839.052 46.2431L840.914 45.5129L823.823 1.93488L821.961 2.66511ZM840.915 46.2416L857.925 2.66361L856.062 1.93638L839.052 45.5144L840.915 46.2416ZM856.993 3.3H867.766V1.3H856.993V3.3ZM866.841 1.91958L843.352 59.0246L845.201 59.7854L868.691 2.68042L866.841 1.91958ZM844.276 58.405H835.447V60.405H844.276V58.405ZM878.053 59H877.053V60H878.053V59ZM878.053 2.3V1.3H877.053V2.3H878.053ZM888.016 2.3H889.016V1.3H888.016V2.3ZM888.016 59V60H889.016V59H888.016ZM879.053 59V2.3H877.053V59H879.053ZM878.053 3.3H888.016V1.3H878.053V3.3ZM887.016 2.3V59H889.016V2.3H887.016ZM888.016 58H878.053V60H888.016V58ZM903.194 59H902.194V60H903.194V59ZM903.194 2.3V1.3H902.194V2.3H903.194ZM913.157 2.3H914.157V1.3H913.157V2.3ZM913.157 49.928H912.157V50.928H913.157V49.928ZM942.965 49.928H943.965V48.928H942.965V49.928ZM942.965 59V60H943.965V59H942.965ZM904.194 59V2.3H902.194V59H904.194ZM903.194 3.3H913.157V1.3H903.194V3.3ZM912.157 2.3V49.928H914.157V2.3H912.157ZM913.157 50.928H942.965V48.928H913.157V50.928ZM941.965 49.928V59H943.965V49.928H941.965ZM942.965 58H903.194V60H942.965V58ZM953.345 59H952.345V60H953.345V59ZM953.345 2.3V1.3H952.345V2.3H953.345ZM963.308 2.3H964.308V1.3H963.308V2.3ZM963.308 49.928H962.308V50.928H963.308V49.928ZM993.116 49.928H994.116V48.928H993.116V49.928ZM993.116 59V60H994.116V59H993.116ZM954.345 59V2.3H952.345V59H954.345ZM953.345 3.3H963.308V1.3H953.345V3.3ZM962.308 2.3V49.928H964.308V2.3H962.308ZM963.308 50.928H993.116V48.928H963.308V50.928ZM992.116 49.928V59H994.116V49.928H992.116ZM993.116 58H953.345V60H993.116V58ZM998.635 59L997.719 58.5997L997.107 60H998.635V59ZM1023.58 1.895V0.894997H1022.93L1022.67 1.49466L1023.58 1.895ZM1032.82 1.895L1033.73 1.49466L1033.47 0.894997H1032.82V1.895ZM1057.77 59V60H1059.29L1058.68 58.5997L1057.77 59ZM1047.24 59L1046.31 59.3873L1046.57 60H1047.24V59ZM1041.48 45.311L1042.41 44.9237L1042.15 44.311H1041.48V45.311ZM1014.67 45.311V44.311H1014.01L1013.75 44.9191L1014.67 45.311ZM1008.84 59V60H1009.5L1009.76 59.3919L1008.84 59ZM1018.32 36.482L1017.4 36.0881L1016.8 37.482H1018.32V36.482ZM1037.84 36.482V37.482H1039.36L1038.76 36.0853L1037.84 36.482ZM1028.04 13.802L1028.96 13.4053L1028.03 11.2723L1027.12 13.4081L1028.04 13.802ZM999.551 59.4003L1024.5 2.29534L1022.67 1.49466L997.719 58.5997L999.551 59.4003ZM1023.58 2.895H1032.82V0.894997H1023.58V2.895ZM1031.9 2.29534L1056.85 59.4003L1058.68 58.5997L1033.73 1.49466L1031.9 2.29534ZM1057.77 58H1047.24V60H1057.77V58ZM1048.16 58.6127L1042.41 44.9237L1040.56 45.6983L1046.31 59.3873L1048.16 58.6127ZM1041.48 44.311H1014.67V46.311H1041.48V44.311ZM1013.75 44.9191L1007.92 58.6081L1009.76 59.3919L1015.59 45.7029L1013.75 44.9191ZM1008.84 58H998.635V60H1008.84V58ZM1018.32 37.482H1037.84V35.482H1018.32V37.482ZM1038.76 36.0853L1028.96 13.4053L1027.12 14.1987L1036.92 36.8787L1038.76 36.0853ZM1027.12 13.4081L1017.4 36.0881L1019.24 36.8759L1028.96 14.1959L1027.12 13.4081ZM1062.73 50.738L1061.97 50.0944L1061.34 50.839L1062.07 51.4854L1062.73 50.738ZM1068.73 43.61L1069.38 42.8512L1068.61 42.1932L1067.96 42.9664L1068.73 43.61ZM1094 48.956L1093.41 48.1473L1093.41 48.1503L1094 48.956ZM1094.24 38.75L1094.83 37.9436L1094.83 37.9382L1094.82 37.933L1094.24 38.75ZM1083.87 35.024L1083.63 35.9951L1083.65 35.9977L1083.87 35.024ZM1069.94 29.354L1070.57 28.5731L1070.56 28.5681L1069.94 29.354ZM1070.43 6.026L1069.79 5.25869L1069.78 5.26434L1070.43 6.026ZM1104.93 8.618L1105.75 9.19674L1106.29 8.42687L1105.56 7.83713L1104.93 8.618ZM1099.59 16.151L1098.99 16.954L1099.81 17.5628L1100.4 16.7297L1099.59 16.151ZM1077.39 12.263L1076.79 11.463L1076.78 11.4694L1077.39 12.263ZM1077.64 22.307L1077.06 23.1275L1077.08 23.1353L1077.64 22.307ZM1088.49 26.114L1088.72 25.1419L1088.72 25.1416L1088.49 26.114ZM1102.1 31.946L1102.76 31.1934L1102.75 31.188L1102.74 31.1826L1102.1 31.946ZM1100.96 55.355L1100.33 54.5796L1100.33 54.5821L1100.96 55.355ZM1063.5 51.3816L1069.49 44.2536L1067.96 42.9664L1061.97 50.0944L1063.5 51.3816ZM1068.07 44.3688C1073.94 49.4036 1080.13 51.981 1086.63 51.981V49.981C1080.7 49.981 1074.96 47.6444 1069.38 42.8512L1068.07 44.3688ZM1086.63 51.981C1089.84 51.981 1092.53 51.2755 1094.59 49.7617L1093.41 48.1503C1091.79 49.3365 1089.57 49.981 1086.63 49.981V51.981ZM1094.59 49.7647C1096.61 48.2908 1097.67 46.296 1097.67 43.853H1095.67C1095.67 45.622 1094.95 47.0292 1093.41 48.1473L1094.59 49.7647ZM1097.67 43.853V43.691H1095.67V43.853H1097.67ZM1097.67 43.691C1097.67 41.2845 1096.72 39.3304 1094.83 37.9436L1093.65 39.5564C1095 40.5456 1095.67 41.8855 1095.67 43.691H1097.67ZM1094.82 37.933C1092.81 36.5144 1089.18 35.239 1084.1 34.0503L1083.65 35.9977C1088.72 37.185 1092 38.3936 1093.66 39.567L1094.82 37.933ZM1084.11 34.0529C1077.55 32.4405 1073.09 30.5915 1070.57 28.5731L1069.32 30.1349C1072.19 32.4365 1077.02 34.3675 1083.63 35.9951L1084.11 34.0529ZM1070.56 28.5681C1067.55 26.1996 1066 22.7617 1066 18.095H1064C1064 23.2563 1065.74 27.3244 1069.32 30.1399L1070.56 28.5681ZM1066 18.095V17.933H1064V18.095H1066ZM1066 17.933C1066 13.3584 1067.69 9.67066 1071.07 6.78765L1069.78 5.26434C1065.93 8.53734 1064 12.7876 1064 17.933H1066ZM1071.07 6.79328C1074.47 3.94856 1078.87 2.49 1084.36 2.49V0.489997C1078.5 0.489997 1073.62 2.05543 1069.79 5.25871L1071.07 6.79328ZM1084.36 2.49C1091.91 2.49 1098.55 4.7921 1104.31 9.39887L1105.56 7.83713C1099.44 2.93989 1092.36 0.489997 1084.36 0.489997V2.49ZM1104.12 8.03925L1098.77 15.5723L1100.4 16.7297L1105.75 9.19674L1104.12 8.03925ZM1100.18 15.348C1094.82 11.3704 1089.49 9.319 1084.2 9.319V11.319C1088.95 11.319 1093.87 13.1556 1098.99 16.954L1100.18 15.348ZM1084.2 9.319C1081.24 9.319 1078.74 10.0029 1076.79 11.463L1077.99 13.063C1079.5 11.9311 1081.54 11.319 1084.2 11.319V9.319ZM1076.78 11.4694C1074.93 12.8896 1073.96 14.7693 1073.96 17.042H1075.96C1075.96 15.4267 1076.61 14.1204 1078 13.0566L1076.78 11.4694ZM1073.96 17.042V17.204H1075.96V17.042H1073.96ZM1073.96 17.204C1073.96 19.6932 1075.02 21.6997 1077.06 23.1274L1078.21 21.4866C1076.69 20.4303 1075.96 19.0348 1075.96 17.204H1073.96ZM1077.08 23.1353C1079.08 24.4909 1082.86 25.7922 1088.26 27.0864L1088.72 25.1416C1083.32 23.8438 1079.86 22.6071 1078.2 21.4787L1077.08 23.1353ZM1088.26 27.0861C1094.47 28.5851 1098.82 30.4834 1101.45 32.7094L1102.74 31.1826C1099.76 28.6566 1095.04 26.6669 1088.72 25.1419L1088.26 27.0861ZM1101.44 32.6986C1104.22 35.129 1105.63 38.4299 1105.63 42.719H1107.63C1107.63 37.9361 1106.03 34.055 1102.76 31.1934L1101.44 32.6986ZM1105.63 42.719V42.881H1107.63V42.719H1105.63ZM1105.63 42.881C1105.63 47.8439 1103.86 51.7071 1100.33 54.5796L1101.6 56.1304C1105.63 52.8469 1107.63 48.3941 1107.63 42.881H1105.63ZM1100.33 54.5821C1096.94 57.3657 1092.33 58.81 1086.38 58.81V60.81C1092.65 60.81 1097.75 59.2843 1101.6 56.1279L1100.33 54.5821ZM1086.38 58.81C1077.67 58.81 1070.02 55.8787 1063.4 49.9906L1062.07 51.4854C1069.05 57.6933 1077.17 60.81 1086.38 60.81V58.81Z" fill="#4AB587"/>
</svg>
